bnb1xr5e7ep9pfflp4gy4e6md0mk986uw34awg3ktu	16800
bnb1sea7shprks76xqwqm4xyyzszuupnsc8w7dmd5l	1421479
bnb1t5puggx7pacy049j7dfxlf8496pwyuxnpmvrvy	4590
bnb1vkw0rsjv4ygjd0cwczay6t23re52e79zu8wj7j	66649.79
bnb1am5590t7tev9wlp7hlrp2qsjp693p4f8wn699v	500000
bnb1guadq9gslygmn22clw8358x8rum4ysqf8ckhjd	62208.2
bnb1rs3ddenu00p8p7cpw6vnat9cxz2qc2ayxxx4qz	3510
bnb1nlxa3z3nrgdg8zkv550ua3pllm5sqc66vwc9ca	42060
bnb1l8t30s0eevunzw7v6yev2afldusew6ap7mlaal	534608.016
bnb1gtcvdjs66ayk8ftal7z37qgk863s7wyhzl3u3x	33948
bnb1zdwrqv02qqdmacf03us36u468a6q2deyan6w82	1435863.58
bnb1v87dy28978et8vsrssrpcfqdn2v59y60nvgkvx	10645
bnb1ju6eehwue87tayz5u7pvuh33eke8l84dumf0mp	2102230
bnb1sj0sedrus7tnnywr0astw7a44809jljrtwx8td	137477.4
bnb1l0h97n75x58jd2cclf84m3usp4j0xy6e595xxa	15026
bnb1kqm2ecnxpydr5hpcv7x9rpqzv7zxk2gl6y6454	12033.02
bnb1uyyw4agetvvm6mvfrp5u6h9wx75nd6ncynyt64	380
bnb167r4n7guzm924nhccshhhum004hn8eu3p78a0g	1112584.15
bnb12frpphkdxru0qlv4lfnvk3wsj0k72cu4dn9gzy	85630
bnb1f3setp3my3yz9mqu3u2zc7vgcjvas9vd0u3dle	92040
bnb13gmnynvlkxkzpnpfttuxsww7kt2jskp6wntqv9	11330.69
bnb1ac8yph5pqj2q0h5wmtwqm49d8gm6a7gw5mvpwu	5131.25
bnb1y23lz9an6540gw0xfcryjznrstg32ksl024d7r	156539
bnb1kgfr5468a7vu94mp5jt7qpzfuqcn8ryc82q52w	36001.2
bnb1erja4eku84fcutgk24ta2rzexslqasptlhw7e4	6882.443857
bnb134fk6ywlrhaxwg9jzuyjhsj2sedrvy0k7upsap	140000
bnb14lsxfueydec3wm0xmqhemeejzt2nk2t8twkxjk	39253.35
bnb1ypl77fddyeqrx2h2gpkq63ztnulta6f65utwzw	15356.6
bnb1rve8xzp032x9l08ej402jxakcjymf572klzrnt	452.4605442
bnb17n204j3qp7n5nrcxve808svfjhyfqr2hacm4k4	66600
bnb1446dmc8u7jssynxhmjzay9wcx0vd6mh0v4l07u	196842.56
bnb1tdcdcvskw6077qdw0tlvlhpd3hem9ddx3pafwr	8280
bnb1un9e99dlc0zmfajnm8f7gwdd9j97suxr9fxe59	25352
bnb1zv93hlu96jeg6k2qxdrwkvu37f4ylgy9cpt6dy	12969.89
bnb1087n7v9vdh2j3semze30tesn7h6zuth6tsxdyt	312197.23
bnb1vvv3k6kjpqrre8fr3htjhutxwan9vag6jrj9dk	45274.68
bnb1qelv08zkl623u5uv98cwpqrcdrjweyf9ufz09q	61194.3
bnb1jqj45vzu3jr7xj3ev34qxskxa95rmczwaxy3k5	500280
bnb1refww948ngpzhmc2jfxc8r50cacwmmr7jw2vtt	577492.78
bnb1ndke6h3sylnar0sszryjaccnhhxt2mzxkpgvkc	31475.07
bnb1zyvkhqr5c3520rhwerntdxt2az556fwqg3s6q5	75051.6
bnb16sydpwht9zvvehyajnctggy3dm7yfhkrqfvr55	8925
bnb1x7dswr6c4u8g02cnd6z5lqk4tvc6v86v6mjxkw	201359
bnb1y06j2aacngrxeqnajgpsuyxhtxg6av704yq58l	1002000
bnb1e5ewkvyh8e8mrmrr5w65kvtd03zhvfuw8qsfuc	93502.56
bnb1hhdhry4hlr5dn5edanv4hc82agh3eszlksatth	0
bnb1j7ksdx7zkadze7xnuk7n0d96s8esr2ywh9llmw	119547
bnb1553zyg28j9pr7usjc7cx5puvu4u7znyhj4pmm6	1900
bnb10m7r845y84ya9ttdc2d7rny9kwap6dq3p9acct	15960.19
bnb15nefrdmsklypqj5t3a9k4z2week8zyqvugrr3a	0
bnb1lcsrekgqrt07yl070d22l8q7ajuatc7jmaa4fj	1563
bnb1tzjlppltm7pre6v0aanuntx8p6rcrqdgdpm22q	133000
bnb1dmqq9k5dghc3992q45wsheqq9wvjeumszpldx9	34979
bnb1m0p6anm3hrucpdcguk5r7gsfkwan37h6x9dj0w	66190
bnb19wk4uxv903masjla37qu0epmg06snd6cf6fdre	201540.54
bnb180hp2ms3a862j4u0wm5l5gl4z9t33fddhfwea6	67998.95573
bnb1s0t2zm3ylhfjhzlh60euj6wz4mrm97d5y0r9gm	2330
bnb1t6q635w940ml8az63g0fu4nr6xaa0gdjpq7fur	57694
bnb1rkrkr7gjpc5n3lwulqmdrvygup9zyhzy799t3t	6663.3
bnb1prdkexdzkr5mhw0zw8nlysgt7wtum0r2eltgr6	34384.35
bnb136vyll3taevqahu8l63plc43yqa0ku729g7tdp	71558
bnb1syf0ue5sdaqvz8pnynmnnpvhj7n57dufnkgd9t	1070
bnb1yfyxdqfmwua4wj75wnc30tv0ll0m2jwxyx6xyl	16913.76
bnb1jvulqla3m60duttrkcq4yv8l7zfm8aly5ddlka	36690
bnb17uyy50cg9kkqrv4j26ym2759e4ezs6fyk89zcq	115499.38
bnb1pjexmh4fx5xdymlpfjtzvl23xnz00e6l2f79aa	68837.4
bnb16pgz7exjavg62tkud0esvrx749pmjlvlkx8u7y	536507.219
bnb1llggef0uf6p7625gajp2lj5jnaqrj6pkcjap3u	0
bnb1eu9zjsl4cuk6z3hva88kndc8yjntelv8ks5vaa	0
bnb1mct2lja7g7hf7q8lppne4m7qtj2vx5umnu75vg	46586.55795
bnb1qhx26x87tadk83hapzvhxtgkcjascpu2tumalg	3
bnb1lejrrtta9cgr49fuh7ktu3sddhe0ff7wenlpn6	0
bnb1fumegt3dmkzy09zdt0sfxz282m8dlkca47q5lw	9020
bnb1qfexvdqmd43lnndy36c2ckd4elahaxd0q9nfg0	292609.8
bnb1y4m7jrvmvnsxhzghayyy5295gwfcn7uc9r0x4e	1649178.51
bnb1qtl978856v9864s6npal57wu08tyn30f9npr5e	3000
bnb14gx273k72u9rh9ue4ecfpeu0yg3lglt5cp5z7d	3110
bnb1j7yldl63fxjhsk064dnvywaa9f0g3ka940xd73	11300
bnb10fg8z9dumqhmfhm5s4ghyh9che07hplvk38k6t	11699.28
bnb1t8mua25fp0pfu25z9np08nzn0v3mjgy7fvvl9y	120240
bnb10n3qdcxwm4h4karwqhz5ywknmj5cxc7x7mew04	106803.18
bnb1n3klj982pseatz8d5g85g2hg8k24l7d85vrzzv	1056.1
bnb15znh3ahlmfhkf4zcmhdyh2zsa6s0xa4rt4hra9	19416
bnb1syvh88a2e57de7t6sx03g6qu26c3r3ktqsy3xm	25654.57
bnb1unrx9zfqvyqplka7hydzgsydt8p0y5hw7ehk4y	45400
bnb166fw6frtj8duaatgsulmy7wkm40484ada7j2pa	68700
bnb1cj72vmdqfkskdfwdglr7duknp7gqrvy24hked7	148942
bnb1axqc2gan462z6npw3c33srp4950mr5x28uc6wu	0
bnb1tnrsm5dfwt6yt5ejqyz0hmhpnfsu7w3z22x59a	6683.34
bnb1sj3as4hg5mvh73xf08arsfkendv3y74n8r78m9	28056.535
bnb1n7vkcsnq6zgy4gf37xaye9zhjj7kmt486f2996	1263023.16
bnb1mwqfc9wkqx9z3n5c72ug0c00pm6ektm8ez7k7l	0
bnb16vhurazeeahk7uj60d9p7gfztr8crzwjmwexn5	0.31
bnb1t6tnm2rckd3pfptngj6u8466v3ah4fcdu78n5y	0.01
bnb128p7tstalfc4e9064lt7vnwjd7yyepr6cv059c	0
bnb1utl6ffwx8yl9sdwa2ahtyzpcd9dm4uqah8sdje	98075.76
bnb1tkfdgcn0ccuyelu3zf98a5p2g3pj70fe8pxrgl	18740
bnb1fndp0jmwft2tf4hlx244yvunlch665mapga8vr	0
bnb1mlswfwylgskq7jjt3eakf45myfe56yaxfnztjq	75181
bnb1w55mqjwalhf0e002dwf07k73ywv79vunjn2r92	136181
bnb1ee26vcmxqpnjj2zkpmaaa4jsdx8dev6m3hzgnr	41084
bnb1t4nac022fxhwpz7gpwt5vvvjncmcwf73gda5ka	1680
bnb1g70pfy6m5f5pvxd5du5aqtdgvxz2z7flln96lz	45304
bnb15kargly2atr90gswqsv2weqcr90l3jrugxqquj	1633
bnb1dgdxwulcepwdjdlmvx2q9cz5td0tdklqyuv0fc	6471.567952
bnb16zd8p8geutyqwld4u9uwf0fk7u9ps7k3pxp95y	9917
bnb16ycrfu0y0hs7p5u90wp47754jwrgcz8uj884yj	247506
bnb1m6x4kkpkk7ukjwzgthvq8saaqle3qatxlcnwzy	0
bnb1kckre5jptlxwdrwjwruc93nh3tqh3y2m864hp8	203317
bnb177xy982fqxc6qk9zwfnhhqgd4n55vd5wfsgx7m	401503
bnb18te0xhxpqwd3ddsmxq6nlwcghhwtvfm047axqj	4110
bnb1kqv28qez2l0yngwsz0x57h9zmfckv2xtv8wwlk	5000
bnb1h066plzq6xr5v94jft9laqys0afl7fdeg4h3px	21458.65284
bnb1hjpa6z9eh37qlu2l8th7t4lfu9c067zjjcx86f	348055
bnb1dqr0qjy7v0srhr9e0g7trcjsdsvu8p09jf5n33	269137.51
bnb178yfv4mtshsnect90y9twkt3tnu9wdfz2jj96d	43693.36
bnb1tt5jglr46fey4srrfe5638rc62wxttaynxfaed	0
bnb19dxth5fqfcxyykkftd4yydvdxxejp63ym8yymz	47000
bnb1qk5ugzxcavh2z4l9ayru36xclnjp4g9hnx4twv	10200
bnb1devefureacvt9lhwlwshs3j5w78m967clghws2	1527272.727
bnb1ldv93cm9nxkzsect4vjg873grmvhk8swgxy930	1115001
bnb1mwchwe6lq4m5f78clp05ermumzv0wwapzv09d4	691000
bnb1favmgkg6f326wsc35r343u3hytzl7g8gcrlc6t	17708.33333
bnb1yhaletwspqzw05agefcsh6ufr94h9g5l8trc62	8984
bnb122hfjhyu62qrshf2rhsfs2xvag09xxx5mtqu9r	131850
bnb12c37jwarlcfl4svxdryqu89dxzjrduejkz6tss	67527
bnb1w4ktt8uf0gqju50w5v8g3jw5u6gpyvy9z0ke9s	62627
bnb1mw0dse480untejufrkfgchkn4y55uqnpqt2sq5	47670
bnb1xl0x8faat7atrl2q2nxxjp57tvjctcldgmx809	300
bnb1e9agl7fu95yww436t5g83fe5u39ucsdckyhyaw	579
bnb1tj8wzl7xrpqs4xmyeequ8sw2vqjny326mnyhzx	406933
bnb1p0mn2sh4p72zqvzjaw8h0nk57s9re506y4j8lt	138372.49
bnb126tscwlkkjret97cl0x2tew2utsvwl9mcu8scz	750
bnb1z426hfsc4fq9ssu426vfnsz2eruggynkwnla6g	20760
bnb1ylyf0auut2sx3y30kgwd5ss2zm9uqeuwr77y6s	20000
bnb1ch3u3tukjjghglhjeypxf4erzjczs22wv4v3ds	500000
bnb17h2ws5j6k9y36dq2r2j4ut6alzlqpvslrxer0y	8000
bnb1xqrsghjjcqcpv0uftth7klwy35h4nta46nexc4	6860
bnb15pat5ndghg6tma6z4890kpcvnz62lfm4uh9rhm	111000
bnb1u77n4taw0elcvx2qrvrljdfn6al9pp6s6ft202	0
bnb18m42xp89ykqz7gljyjtwers703lj4u33vhytjm	80000
bnb1ptv557fzzfr9qagqss4nlqj2pueahztul8jygt	50000
bnb1qlj8n4cmt75h2y6dgwse0xkfn55srheswj03s4	6060
bnb1dayvu3md66ncgh2vlpzyrl3us05auumn0lrj7k	1000
bnb1qhefqvcfgg7y3m3wvg29g4r50958nwnt776eay	1633
bnb1xwalxpaes9r0z0fqdy70j3kz6aayetegur38gl	5
bnb1rjjx7382fzjw92chx0n5pcs9gvd0c44tltt7qf	18828
bnb1nudt74776dequ8lxwwdl49j0j362krqglae662	23450
bnb16j70p6clkgtvhrnm72xd8f5gwplsyuyt0rc6we	28300
bnb1nckmzqs3tgaernfllxkw60v0cvj553dwuegz8d	565850
bnb1jkjufugqnvz8llfueureuhsv46z6jwj523fpr2	432000
bnb1z9hhrckwtvgkuylw7audd5w8406xu9q3qnrsf3	52018
bnb180vu8m9zsw8m9ty4qvjsczh5rlrtmzs6ct8mx3	211597
bnb1j4gjanrvx8dgdx6aef4tqv0gcp0d52pxj5ltr0	0
bnb18s0yptz5205ql87jgmc24ud58v8t0z7sdp45sy	12470
bnb1gul4sac4hfz5z4rphaz3rfgvhyg4a8qt847ehj	40000
bnb1whjp9gk9zlpjjve33r0y7w5lfcswtyp4m608wr	20447
bnb1mr9rq7x3tjqqp8mgxe2sxak6jkwwc5xla32u3e	2250
bnb1ehdfr4lt60adtwa529gf9va7xscm0vg45up42r	67430
bnb1sums0xu5waxhwd30d965tvp7ayezu5z4dh4gv6	129199.568
bnb1xdfnxqp9cuzcslkft39ny6rwzeulkx6lfk27az	1633
bnb16ue8aypmp7xteeq7wysw8qtewxytz98dwamrwf	57000
bnb1w49eg0lguy9vaq4ke3qxsazd6qe6ex3m6zpag8	8272
bnb1fg4zezx3w7k27l3rg03te46m9russws8djz2uq	219437.34
bnb1n4cjsrh3rwcsfhlyznhjrqvn5mhlkgvgcves45	111111
bnb1s8w72l8y0d7wskqd5ym0cqp79ypmn3p3n3dqhy	189393.06
bnb1d0ch3xr8gggdecmvaeklrsmpmcjg6dcm0segsp	153351
bnb18c0qur6s6adayhhfgxgyy07cltrsmw64y38dts	20400
bnb1vlkzn7d03n9xtz0f4tuq0nfpplvxeenqdepmv8	68592
bnb1uhk5t40nwtau2gjyjya2yfshszrsadnhr2elwg	1
bnb1mn4wl7fn78a08f62ctxnt6kl2jgkrra9mwuzsn	26541
bnb1v3k8nkyn022jva9lczxd9r7wfeu9udz8qywcux	300820
bnb16p0sp5nlphcr9y6v02lan7z3739udvwagrg85x	63062
bnb19juurt3nqszy8d29lug92kkaeuhh8d8v3crd6s	11843
bnb1th5sdrf5wmx30q3ym30a6ty5zel5zslpsgzzg8	708
bnb12me6l98g9tc5jmdw5x544f28zn36sktru5akkg	3000000
bnb13tdxfdv0qwa7ry3u4h74wjk5y0rm5lxnk5rxg8	16980
bnb133sp2s58cjlqlrgh7s6a4fqwg5auua0j4v5rpd	51117
bnb1e4rz9lcgv8p5kk7f0tvr5wk9ar2l8scy2wk04g	353
bnb1lrr0pc3ev0y7r4cevxy4jw4waz6xn3y8k5944v	212826
bnb1se0kwzsmzwepx9pxzrfycpar86xsys93ahp8lu	6563
bnb1tw3rhz2n96c5mdgyf4c0y7zd66gmajjde2aq7x	8272
bnb1ka5lalveaqafq32a0g0cva5nvs98mm3v35ufcf	36596
bnb1fzu4nnvg5vjthee5j2qsmj9kywxg6mvvg4t884	70319.3
bnb1sfj05y8gdu0w2mn7w7d9n2dyvm0x4yvq0lfdp0	51100
bnb15wymkryz9lwp9dvjmkj9l36e0ffrcz4f44lu5w	0
bnb16zcr7p6tzfcnhlp2glehge3zm3c06wgfkk3ppd	535734.01
bnb1azlzyuu27tdxjg874qr494247z6jj97dv3y486	502148.68
bnb1w43gy748tzsnw929kylwsqvvzu40yaqp9ezjpj	0
bnb14a2cvjzm3rqu73j8hz6uvf5209clafr22e0tx6	381499
bnb177xgw9m2uy20pyu4y89cml7yw09q35z507qh52	227273
bnb1a8ssazsdlrn3p8nt83pn74vx4wvz77f3lhlc83	1661000
bnb1zcsrdhzfd5vvsx65psww78vvj7y9c6tuh3sk9w	1000000
bnb1gymht9ffkxxj2ecdw5epcx6ua5nslr3mnw2u39	20367
bnb1at96vtr6jcllqp4c23z29ch4drwemkfyzgj3th	36596
bnb1ekxr0ac6wka7nntstu7wucndytkkwu76prf7j7	8900
bnb1pytd0u3s87zma89ge0ae92k4mlygkml5culygx	57784
bnb1nw4e57udwj2yykrpa94wftm3vrkwq8zpf53zxz	17992.4
bnb1pgdtjq65zknsrpxywau2qp3adkxr9kpmnujcyv	519017
bnb1p63vxpfz60lcdq4egmykdtqrnwj3ra9eltpq3c	0
bnb1hmwz4e37685j2tzlt8guv5cn4dtwz4vj2zmnu6	7576.4
bnb1hwhwyhjya400zd55c6l95s82s7g4xdtapaa8v5	47615
bnb1y4q892gh6c0d6qwcntn7elen6xjtfz8gyc44uq	100000
bnb17wmamyl9ypstmdjqz65j6y6pmaq4rr3cyy5yuj	57219.74
bnb127qjaxur7nra6n75q7kn6sypcak74cwkqyy79h	17081
bnb1dhtezx56u362a7609pmtd8jw3ccrpvah3qksg9	43256
bnb1anztsnc4pkwdfpyy9u2aeh3sju2uu7yj2jmhl5	0