bnb1vz6llu0jtj5mcxn74jysp0c326fc26cx5pg4lz	6400000
bnb1859r478lkzxl3y33uht7dw75r5xmr53gh543vh	4200000
bnb1ju6eehwue87tayz5u7pvuh33eke8l84dumf0mp	3500000
bnb1r6hpmhmjgmw240quzujanlt6k3nzqgt7ledf0p	3192151
bnb19uvv83huy7925hpfmyu7974srxvxem2r4gv5pd	3394302
bnb1wt39r25xf6pg6t42nsx7397cwv9s7fgvp88adc	3319412
bnb1c3aezsxgh58fq2y2nwywxtg9jfgv2psyayvd7n	3122456
bnb1xutm7nm9l46c9p5xvx94xuz08r3qadd28teygq	3049740
bnb1kwhutx2kgcz9wpnyx2lrwq7zz25ckwa0y4k3c0	2997178
bnb1wcqhkzkmp67f5c9qcspmmr7mddktj5xl5t2e62	2980490
bnb1jccz63p5nufzgts9cdd0cxcrftgxaf9g29msal	2773397
bnb1x47ftj6xhwpurkl5ske69d8rqxxdv533x7ewt0	2478924
bnb1lnpddlgpwtzysgwmhfn5vcgfmewjxg0awg8d0e	2245640
bnb1z07wjmhpmnww98edpdf2sd7weauhl905jse34p	2132478
bnb1cpwrzcmpsdy5xm0yd3d6wlqlr506uawsykuz99	1850000
bnb13h88jdmfgu5mrd4yu9q23gtg6lt4nytwyaqdtk	1750844
bnb1n3zyr8fm9zm3yh7fsqu7cfsdhwleqe26znemw4	1600001
bnb1mjpj7lvgymhz9vzkzc7vpt0q80cnx77valvpgq	1635165
bnb1grf3guxfrphukjs5gu8pf7e6jtxgq202ur3u2q	1626633
bnb1suua2l65n00f6r56n89sep7rcwe6yk8sq5pjle	1607337
bnb1devefureacvt9lhwlwshs3j5w78m967clghws2	1527273
bnb1dkfezulrxcmx0yg65fxn4cgnasqdkax7nqgmqw	1394586
bnb185k8v8t6utwz20ngcdy3dkwl4hydg224nsjuwr	1335076
bnb18lu2l78mlrmrukvs06kf4dmtnwrezme7hraclv	1264077
bnb16a95z4chxq9w0erj9mhrkrkf7zt3guajxddtve	1260761
bnb1zzeux0hds8nqe8ng34uhvgsye72mjy8j94j5y2	1255324
bnb174tkeu48hqd4dcky3vwdkl7h6q3aux9l4zekgt	1234601
bnb1e2dzpcdaqs9vxmscdk2rc7y8fxxepxv34u47vz	1199815
bnb1nhhw5290tjnn6aezk6ql4jnj6dytgqypkusl8u	1198742
bnb1q8l5auwwq7flq5vlq08fxxzurznv0v8m6gx0gj	1187891
bnb1dgx4kq72khej4z0hvve495l47736nducy2zjyt	1099587
bnb1xuz5rfrtktfe9zfh0z7a0ystmgy68fg75gfjtz	1092176
bnb13vedtsftqjywaj074dneknyr6adpxttrand20e	1073205
bnb1xjsklr8yst8lpgw53m8dw7qcqrgwgjprpvf7ee	1067595
bnb1u4u020f9tfxwheuz49knr93d3cyrmkaf9qjrmr	1039574
bnb1367fjtjcugtdyvjnlykmxrr7987zct2vqstt76	1039427
bnb15w49r6caypgklgm8phjep0sa2l4vdf5qleaysd	1027429
bnb1d7p0hulh58tzv0g4x7x5y9r0k4qvews5cessnm	1026602
bnb17smatgucyky0gmth30yde38732vry2ujuuejf0	1014772
bnb10hecw5ml5zleyhrz7xt0k05pf4ma7mzykf34v4	1000000
bnb1h5lc8ynlum4jt2l33uw9lmmg202arwmda6r24j	952529
bnb1tua6uwvwk38nv9tcdqhz60uulk76q488qketqd	931015
bnb1ga9wx9jt8mkw42pr8t346206l7nk48a2sp4qvs	869565
bnb1y3jw5un2nkyha8wy5tf7yavcsnt0grlfjs95qm	913901
bnb1qew564y4av4n2l9wwy6n7nluy5glk05xqhs9gg	779106
bnb12tevktzcu7adzds0qa9lu0mx64mfauwudmxru4	766198
bnb10rr9u5v3yvgex2ghhtk9c5tma0aacmv5ktrhqu	706146
bnb1u8jxqw7jylneh60l8sn3pk7kwejejyd8g7hphq	461377
bnb1jfundmcdsugw490rewkrm0atejrlegnfarw422	665884
bnb1twa0h0a0sx8wm27mvpzggx6gazuzxakzm40cdp	650470
bnb1m6uvglhskrrpwgt6qzhrgdenqsvyt2yxk7u35v	650897
bnb1mxs79jfff9ayq003htagtjur2j935g2fkshayh	656341
bnb145x6fvha7mgx2g5y45rx22qd2vym5cl405s5tn	653384
bnb1f4xl0jvnz04sdx9n59jtxs6w98weulnrdae93w	589218
bnb16uxqjzkfzcngux7nkkhzgztnjl8ethh2h4whs8	620966
bnb13sy8qcfwra5t7ueh93xt4w3v7q8dg4mal8xmql	585220
bnb1z8s4c0g3qznfxkv6zwf5x5r4jn3pmsav4tuc4g	583676
bnb1gst5hq362gjccjvwd6nfxew3zrzcvfz00pnj9j	561058
bnb1h6uz5fgrzw8t466s9563xvm3rrm58gfp26s58t	543634
bnb1wq6fpuksnhnl6r9e7v8r2zuszyf9wn6v3awlw4	536651
bnb15q2654gzgylqrqz2770dw22ce4ve8cekekztqr	523864
bnb1pszusstt9fnctws87m3eewxj36jr5cladj750y	528870
bnb17e5n6pcvj3vx3zzugz3zka83a4hwaeawtd77yk	520544
bnb1fp7ru0nyka3hcxkj9mh8cyf49u63hgykcl7z9m	514893
bnb1rq5z3k2e42nrsujc7w2sgc3glu46m0e48s2zes	514300
bnb1da9hxsw93gddhuta30lc3f2936j35y93gdqv6g	512242
bnb1l4mveqc0dhy8qjzk482tlhqytqgcxru9xvsjd2	510316
bnb1t8mua25fp0pfu25z9np08nzn0v3mjgy7fvvl9y	500000
bnb1s5qucugaxv7gkzyg4kacf225s6mhj0ysejn8jq	496354
bnb1c0ehe7tlyurqhvrd3zx8fnafekhxe9m0htzquk	487526
bnb1fc5dm669l25lznql5jlscnltjxcnk6s8n7sag5	478877
bnb16p0sp5nlphcr9y6v02lan7z3739udvwagrg85x	464052
bnb1zk22tfw3fyl7z0wdmxl668y5qq70yvz84gf6xw	443323
bnb1vkw0rsjv4ygjd0cwczay6t23re52e79zu8wj7j	434485
bnb1sr8cv6tdf4w0kt0a8auclpjnfeg23cjd7e56xx	424590
bnb1u0fztkdccczgl4h8dp3qfjyq62an8d78wg8uqs	423600
bnb1dqr0qjy7v0srhr9e0g7trcjsdsvu8p09jf5n33	414841
bnb1azlzyuu27tdxjg874qr494247z6jj97dv3y486	412000
bnb1sgl37zu6tlfd63gp382q5zcc4rnhyrc204hy5j	390911
bnb1mqm5sn5ydvl7p9qxw9rmrf48lgx92f3cn45zzd	403810
bnb1n2et6zl8eag84dlxyyfugrk9d84egx5jp7djvh	400756
bnb1yhenddk5w7nl3uuj5msxvl3pa5k3snmkc6044g	400000
bnb1rlhp5uhsysz9qf5gq78kxgvpkfcg0qv0ldu5r8	396960
bnb1y23lz9an6540gw0xfcryjznrstg32ksl024d7r	394110
bnb1rpw69vck9txkql2hw8t80uxdapve0rlw6ywkhf	391066
bnb1zp9yqmqkz69tnrpd53dpjyca2zuj6usanup79j	390699
bnb1regtphttn700wd2a8gk9u327d5are573jx6hg8	388289
bnb1utad4swt4hp5448uk46pzgr5al9sz4w0ypheme	387174
bnb18xhwea4hkh32v6en48ksfr45zcwq9km9hnpq7q	349900
bnb1kzrt44aqten9qd0mqlygcgtlpz3augcf5723rc	382348
bnb19mjmla3gzemga0jn33vd689d204l9jr0rwj5jf	372907
bnb1ygrpgxhxx8p63pnwhj3gsvjjcqnvxdk98ejtz8	366870
bnb1lgyux9fp3qnff6zkjdjknxdkaw3cwclyx43khp	359759
bnb1va2akjq4lmy2xcaj9ljk067dhktty839xnufd9	355777
bnb1z5u77wf2x7ej8un5ls8304f75wm2erqgqk64pe	352537
bnb1g8tvafknlpmht2p375jkm2al0xshq47f2uqs2f	341638
bnb1am5590t7tev9wlp7hlrp2qsjp693p4f8wn699v	332001
bnb1xyhmppadjr8v2npk6g6srzw2p3mwnd3ht9p3gd	322138
bnb1vaheuenz079myax5prq2dzlusqdkcjrhjsaenq	318894
bnb1n9uyass9d86dedwxr4daal3vaeegnm0888nkjl	312355
bnb14fhxm0scggqllvquc9e07d0emdgm86v684ltw9	304132
bnb1ak7f3lp02zmtv4gm28ycp22jpz29euuwu9r9pf	301119
bnb1ms6s0juntctw9rl95mv87rkhae5uu0mna9004h	300000
bnb1h0kn5gat05yhf2guvf7het7x8ufduzcup6hkqf	300000
bnb175rv204cf3ywh3zwmwmg3j0fenltzlq4wf7qap	296266
bnb1wy6k9uxe34tx3pxmwcpt80pvt2p4edme8045l2	214552
bnb1kq3x7h4tl6qrtgyvngzyynfl2825c5ejcjkzhg	290671
bnb1zf7lpum3al3xewlt492cdgmrv3shd42dy54ael	250000
bnb16dnnyewcyqmpn4ur6jtzsdlsf85v5x0pg7t5a4	287115
bnb1vhl95durh3dt3lx35raylv648ksljeze9460h8	282341
bnb1ep3nf4mafemfrwlgyl7vksruezngweq3udmxj4	277836
bnb1nckmzqs3tgaernfllxkw60v0cvj553dwuegz8d	276196
bnb1kw8mzwjecadgr70jj4kc8cp8h9kxptxm8fne87	271436
bnb1a08dxdmqz4v65u6ezcyssz4syyue5g0q95tm8m	271345
bnb1skp2q4a05ed8ven2gn6f4fj30cl4ew9wy0ay3r	264862
bnb13z4sld5s5nt4dlamk300jfvf0t8nkxxehtmcy3	258826
bnb1exa84l59qrey488vpf8ru58f0fpsmav3cmp0t8	100000
bnb12ekm8lq8tr4wgrysfjjrd9raly57c6sxf4g8f8	257004
bnb13jc24taw3rtafn37awul8sm3nyzy5529hen4u9	256792
bnb1ayphwzju9h8yfsdd48srag04nxsyy4uzxrtk76	250262
bnb1dyltg4dr4t35ptsdh70jeqee8842upkz4hrc20	250001
bnb1m5yy49sksmjh7j02vyfdnl7vjcttmk25kcl0vf	247959
bnb1a7cgaxlwweu43kyqkvq8jl6whz48uk68lr00ks	242768
bnb1efeq3ryrnjqdn2vcydf5xghmcwz98583ye0vrl	242000
bnb1ajrn6uqwp90jtq0eepm3gdjastspt8na8c6agu	240000
bnb1nqckk6repqcx32a9suu3dgy2hcml0ws4j4tpan	239410
bnb1zsk8xjuhzwqy6c9p8fu0vnhd4w9n8cnnwqe7lc	235154
bnb1l3qz4kwumtthq8s7ze87rmvrn0cc42309wnyj5	234735
bnb107lpz8zcxrqsl2pfdzm6ajnkmf0dshltuzxpmr	229526
bnb1368ewg45c523kmlnfrhldkeudtne9xglt23jyw	214515
bnb153j579dhk9may5hsp3x035m7s9ysgydvs8xjr8	220601
bnb1p949mdjvugak9wdw604923pgewnleqxn98nyx5	221412
bnb1ve32eqkmtzvu247vk9y6e8v34n8k80fntm4j95	212853
bnb1faa0qz8vraufemjn2yt9hevrjkk8rvne3nn2zl	212906
bnb1xkqag4ag0ksqhyl998qf6mp2tjs95a494ve8ee	212091
bnb196jfucq9mdjtw52td8a3f932w06m4q7udzux43	210865
bnb12glc86hrv6apa6s4wcss8y99ddzzyjqzm6penk	208901
bnb134fk6ywlrhaxwg9jzuyjhsj2sedrvy0k7upsap	204777
bnb1c34uvsv08laff8mddzesy09pz3hw7qwudg0m60	205615
bnb1fvf0qpwl42s2s234umszud03u6md3kd0g8mffn	205210
bnb1xptyg49k7dnwfyp3sqx6zvlnj6k3qwzsy0lyc5	204962
bnb1pqw3ytwyw5fwn9vv7jwus6dwta22t2xg8fkc68	204468
bnb1v7p5w0euauelxtqh5w8phlw326wsrdtmt4vcfv	200262
bnb1d0l4ynvz82neuuec4zn79wgvp9fneh3zp4xh6v	195010
bnb1xjzxaqhnqfjqjww5dllda30tnk8375t63ka9zk	193090
bnb12wfl47w364tuhc6pe9nvanahvwjukes2jued9w	190077
bnb1rv89nkw2x5ksvhf6jtqwqpke4qhh7jmudpvqmj	187516
bnb1wjzuntqc9xrmwewyqvqjzgxy3y8q46g8v73ag5	184299
bnb1gy9u09kmkxkzyqn7d0ap78y87ma7hrqhzx8t27	183516
bnb1vgk8c7ef9mczcs5wpkg8vqhkzpf47agxng5sl9	181415
bnb1qzcwt8vyhmgpxgncf69eah0n7znp0yvfshfhx6	181377
bnb134ajamqtcm38z7efqyh24ts9ca6meg0r9aalph	180733
bnb160308gggrcp50e5vfsdzq2fgjg23pjqs46zwah	180113
bnb17uyy50cg9kkqrv4j26ym2759e4ezs6fyk89zcq	177653
bnb1gpuypp4f24hheupkxdrac98rzwtawwvtdwu0jc	74056
bnb14lzrsuqjlnqazt728ruufkegs6qh3ty3npak3a	171914
bnb1a00n709j23e7wumc6puj9m0sh8g4u22nr4tdvg	154792
bnb1eralzf9ku9ksvcdwkd67qf3ywvcz487p9h0frd	168878
bnb1yzlm0ar7a5tu336dak8rwq8wa22gr75hraqgt9	168322
bnb14ckaje8u95cgyq3zlwg7w8yzm0dhkv6gxsqgu7	168030
bnb13lr95t60a8yfmtg0j540hq48ll839rxrlyjlm4	165840
bnb1v60stscqmrrtkqgd3f3x5cpfjrc8hyqxusgtaw	164638
bnb1hnexk29le7qtzzmf0unzz0gr2n0mtc66mxexn8	163799
bnb1l6exfwglm575lh2gspp6pm73qumpfhl4ndq2t0	159884
bnb1p0mn2sh4p72zqvzjaw8h0nk57s9re506y4j8lt	163700
bnb1y4q892gh6c0d6qwcntn7elen6xjtfz8gyc44uq	160045
bnb1al44gwe58lda6v8e3wrkqqp3yv0s33wd52whut	159901
bnb126ddmwgnxpjeewzh2hj2ykxcw9jll3vykfc0n9	158575
bnb1egx5rqs7yaj5au0npwhjgny0s0gpthsk2snc0t	157503
bnb1zhj3tq45j5882tjp6pet39tlsjmly8e4pgl5c6	155286
bnb102l7dnmw7pjr5hzkws6qhe7fatkvlqmykhmsyh	150003
bnb1awx3rfhuxwmne8hxl70pgxzsflht9zrnwt7xze	154284
bnb1uxsx5ex2kea37wjfazcv6e0rsegkcpylg4kdd0	154232
bnb1ed6rx4nrwffkgssdyppmrfg0dcnfemtzgtu44p	153175
bnb1dwe7fw6wn6nnljd9m5ty293wygyh6uq9t8rdsp	152066
bnb1r4e0n9w78d27sxysw7chchshvgpsqcfng8xm7t	151751
bnb1qv3lehm9t705qt0mg9nzzkcymjkv8j7ymk7klm	151750
bnb17a8cc9wamlj25fgwpvym3e9n3sqsslfe76m5s6	151089
bnb1wvrt4rs9zyu8hgdyzpxl6q05n5qlskq959am3g	150862
bnb1lnl7sw8a9jdcq0tnwkq676hcd2sskrqxc6slsr	150000
bnb10mtrckhp58pe5uh9qskpmqcq0rtrqhr84saa3h	150172
bnb1nzg556qryclu7a7929sv4khs2gw20eu8re25gg	150063
bnb1hp82p7sd60us3cgfqgqmxgdgav9zr0796rlmsr	149260
bnb1umndam9rfzrgd95txyr5c9kpjvkkrg5c7cdck9	148950
bnb1vwq2as8p63jvgl64cxs73al04s7n6wp65nv9dl	146126
bnb1vrmdxy83vg6eyv9sxvmf0qy2evfc6au4ehfnce	145513
bnb1ksknwzf5llx3gcvarru4vp80dd0djsfm2a4yfv	144299
bnb1jrgf2fvkjfwzywrndrnykkc6p36mt3ytfzq95j	141820
bnb1637hwjptdrmln46v7vvj3d9mzktrxdlrsnqhj4	141393
bnb1u5spl7ufmrhr0ett5za2d8qv9y2jftl4cdsjfl	127166
bnb19w8ac9srzwa3mcne6eh2vkvevgg3fumj55wdyq	138323
bnb1320f0fverl76txqupxguer6kceugq2z9wfukqp	110763
bnb15unemd0e87ks9usnv2f2phlsm7yptv6zql7ux5	135947
bnb1kcs49v4u7f3fw5yqrq7xuva7k4cggzkz9gf8sr	123041
bnb1p65c8nhh38wnexrfvyp8rnd47e7huanwwtzh89	130958
bnb1atq4z76yg08eykj2vzuc23p0rdyk9z0fjm3ze5	131000
bnb1ppulh3ucal4ers4stg9gfhmjtffltha9rzmmnh	130948
bnb1r73fjf57s62s9egvw6m7cl5zwxrlmhsr2s5r05	128270
bnb1k8e6s5x5vjlvmghr0w90xjfc5cek0dq80fj39g	127876
bnb1crnfrhyknx7r0ee9e78q4xu4hnqtqgkeka7jvr	126843
bnb1de43c9q2lj7tf98dmc2xnnal9gx8jq79f0xmsw	126180
bnb1yp4hj3chk4qydkyktd3syzx5eafjj5e2wn7kxx	123196
bnb1cj6k6j7c46ksdc5neru6vnn80ts40lcjm7ndwu	123555
bnb12ppe5t47pnt593l03zxw3zu6d2gtvl5m02fepn	122434
bnb1z0v4qlkvk86pec968dsesrkapud0gzdkdylnqv	122084
bnb1mxgm25z9nhre9w4z4ly6n3muvp0z6f5pvttt4q	121520
bnb1lq3w6nkjc9suldhw7yzf6kek6uhlemv2h83skk	121319
bnb1ht30k7gc259mvlydysl7x0sjt44x7xpl6sqpk5	121265
bnb1j45qd8xsdkf9uda93k0eh63js2sus4ng5xtnmt	120156
bnb1s9ee9rwhzsz8z47c78e77d6nt90ju9r6x6vdpv	120586
bnb1nwq2tzjm35qnzsu9uwp03qgqc69dzttysncfh8	120048
bnb1pdxa35p2q9e6qmgdsxqucnr4065ur2rzqduazs	119227
bnb163h9re847lu3smw6fwyuej25auysvzxpu8zftj	119937
bnb1323qet0asr8g08rkx93w28jkxqfcysaz935jc7	119073
bnb1fzu4nnvg5vjthee5j2qsmj9kywxg6mvvg4t884	118999
bnb1kgfr5468a7vu94mp5jt7qpzfuqcn8ryc82q52w	118804
bnb1t57fmptcaxc4aag2ax86a7x354p543t3zs8m7c	118689
bnb1v427s8xf0qsl5px8fxxymm8pjqry29q7732zmt	118058
bnb1eht48a77ym2hhv6cc2hp5f4x9xeqsxg22c9ewu	115132
bnb1c8whfhqet3w4v6u3vw3xa8mlxstja82lght2v7	115656
bnb1fr24vdtm23ufx25ukld2d7grtjfr5hk5anj95n	113912
bnb1npuyw2ezgn29fw47pqa44s4rawzs7d3xdrgr9t	113529
bnb1wza06xy0elj82ygrxngm69grn6he4g3722rwlw	110661
bnb1j49gme5d23awekpcvezczgupa3hvflrfa8z0s7	109632
bnb1s9g7c9v3rg6ee8g9mcf7txg3ayxr0vkp22wfxr	109500
bnb199u6x3k9my0fvnseldyf5tcvz6qvmu0xgwp5fa	109458
bnb1dfwkg25fhgyax6cxlj87369ltxgread9g470y5	109311
bnb1n569app6rzgdlqwmu7vd2fvklzlndwu6mpe359	107827
bnb16x93hvxf2l2w8lqvpsjmlqf6hl54ze4ty3djux	106671
bnb1kdj6tm53lx9st7zzuugcz3amcuh60cveegh28g	106339
bnb1tu4h2yeumjh3dyf26jfcfl4nv54rfh58yyhs42	100000
bnb1da45jhxdx7v2klcahc2mavv9pmnryem5h2fngf	102609
bnb1cr9mqk287hl9ettzwh6ggewch97hxtzl3r9ntx	103722
bnb149ezz4kdlsm5sfhn68kzt60k5y9gca6895xl86	103692
bnb1patrmmvazgp5m09s4j7d3u9syzn6nelf4jc0k3	102981
bnb1qz0grtc9qsh2ur43cphl8sm2t2nsya2xa9qtc6	102391
bnb1myst9x9cy57vqf3z9d23du9x0cq4asmkyxez45	101275
bnb1l3k02y4nvgsnvdg396lxr7cpqknqqrfhc8yjfq	100830
bnb1ka483sgw3tqfldugds9n9f5jqw848vmk8qn9vn	100413
bnb1xpmcnn8738fv6zst6skr87smfwu0ah60vr7mcg	100000
bnb189p5gyzktj9u774tredf5t8cqelfg66segjx4y	100000
bnb1z9nj8pz0laggj4seulr3m4jjl7ku4950lk7y04	100000
bnb17dr32lkqs4tsspxvufnmqkacj4svy6ly65d43e	98541
bnb1sz9fzstvs5367wqa2sv8tk460rrstzav2zr2nd	99331
bnb1lrfa304a2xh20l2s8hhacr37cjhdstpw0wh0uw	99062
bnb1ef8jvud4fs02ekzkvt888gr4pfjee07k0frwgt	99058
bnb1px9383sy08sj7d9nhkg6thcwv82qdgcdajt82u	97962
bnb1sdh8a7xahvr4v2tjagt4udm6fqwmrst0cz0mjz	97826
bnb1k43qxms27d3jmn9vgdadlj8nzh0k43ckv644kz	97750
bnb1eh2qwqhqlhscjze8wvedcplt6urredhq507ptm	74317
bnb1gzf930qznwa6636wvqyl0zd3ld9esm0pgwtxal	96657
bnb13whhaqah3ha7u2a8tv6duentqj0uxgwkc3euuw	97120
bnb1afp3u6gu6tsc6w4tw9wqzdhhna2np2tzprtzcc	95940
bnb17cnrdhde975tp50rtyrqtp2gxemaf8rdta4e5z	95275
bnb1azxegayhzpemvwh23wfl2vczt37vp2r9qltw44	95004
bnb19dxth5fqfcxyykkftd4yydvdxxejp63ym8yymz	91591
bnb1uag25q89qmjpsf7x56p4gk9dcj6qk2qkscjczr	91417
bnb1savrv84exx5ra8rvhgp7eyhxnq5u3wzjxh7lec	73994
bnb1tkpcmg69hsgw7tn9297n2u34jp773cwa30e692	85504
bnb1t7kptjtwehqyjqke4wv0tfcchf66gtnarv07av	90000
bnb15tcnmznknk9xdza5faqe03pymfj3a8u3tmc8l3	89232
bnb1yfyxdqfmwua4wj75wnc30tv0ll0m2jwxyx6xyl	88891
bnb1t2pnlvyxhjtpuexxc6lzp4tptqhzzcaq9swavw	87267
bnb1c2sltux8hj5vyc9vdwpvsajjqac43veceeazly	88315
bnb18mdluksg8zzjwce5jk73w8s3g2ky2748vdhl4w	88279
bnb1fdjtpuawchjx04eplt4ger4d9h3nsznjd7p0m4	87794
bnb1gqda0m4d7c9al422q33lt9vdhqdlsnuwjrrrmc	86430
bnb1jzcdaw4nl6kp3vs2z6wrmpvkttdj96t7p5xznv	85540
bnb1j5ncy47t4mmpc300cwfycas4hedavuneyhj50d	85420
bnb1uhm7phhcw3a4tn8k4jq50e7lh0z695am0gu2yw	85310
bnb1y2eqpzcpyxkexzzd3e5vnghd7xd5jr4p2ud0ly	85131
bnb1c4mfa6rxt5q7h6pg7yf6sxktu58vr2yr7xv6lp	82798
bnb180hp2ms3a862j4u0wm5l5gl4z9t33fddhfwea6	82692
bnb16cwvj6nuw3tur9xxrfkehuyu03vw6y6ra2fcju	82385
bnb1udjyrjhpwm0yq2hwmdf4acvc4r387a9v83vree	82312
bnb1f2t5gr99srrv6gr0ldna8xufztdgfhxttgy7kg	81555
bnb1pnrjfsmwqd34xlknp0wx8qd6qn5mvmaha2h86c	80165
bnb1nz3x9f477yn5xw9yq2z7hay55jfkzy4gngcyvv	80945
bnb1yu8tn37d0pukhnn5scge0jrru623w9hr2tkyw3	80683
bnb1klxmfftml79cuwluc48cfrnul7dnacv3s7h6kf	80606
bnb1vvv3k6kjpqrre8fr3htjhutxwan9vag6jrj9dk	80001
bnb1vfz8p9vsjl6pjyr3vs83qawl2j90067xn3uywz	70667
bnb14xsacy4e4qanmdmnlpzthwr3lwvpld5qxpyfkd	77784
bnb1wfkdaekv47thqa9skdqsdu0jkgepx9kwvsed3f	76997
bnb177hrykeh5zvg0lh00jlxhgnvngveu56xyhxesk	75573
bnb1h6yu2duvnzf9z63j2m353uc4m7s0h3x9zk3h20	74364
bnb1ux84kgg4ya46zks92psy3nz49mpyek6tjdzgkf	74719
bnb1lrf3syvw7z6azxu9e2vdcm8gs8ej7xknjepnx3	74005
bnb14mzrmv0h3ynlgtf9wvsf5wrv0usufk28ugst4z	73979
bnb104ypnylt98jx0l6elgce7rp5f75cztcyutgh20	69010
bnb1a092te329r7uez2g2ednn3szjzyp89fv5nx5k3	43198
bnb1vkwtw0srnfn4uhsykgspgvptea2zxs863mcaqg	73156
bnb1wpr5lm20l59eq0pzvk98hnfghn7wjl9tyg8dkw	72762
bnb1lp83jqpjkx5wedwtyggd44ta0fx5w2fef0us4l	72925
bnb1dkpkyc9t0kuh2n5cmnalae3v63evyu9dmx4gkl	72837
bnb1l73prs4q9dlamxw9u0vxk626ezuj5frdvdf0vu	72769
bnb1w4ktt8uf0gqju50w5v8g3jw5u6gpyvy9z0ke9s	72656
bnb1se0kwzsmzwepx9pxzrfycpar86xsys93ahp8lu	72032
bnb1yj743dhufwxm4f4p3jwugwuus5vae6u9jzvplf	71195
bnb1j87zk6xnv2s79rfz0p4tmwwzg9ll2l2s2ptkkd	71085
bnb12fwj0nqlrl4d7g8m8daq24vzet9ydgw5m3fvtj	70805
bnb1ke2dxg5ngz9a670lvqrgvg3lfga45s038vpxj5	67930
bnb1jexqjxdazm3jqavzaemdvgfvc9qnsp46erjnv5	70680
bnb1c6vp53d53089e0snf2czxvqxu2gp8xx82kq6v6	70367
bnb1pj04e3nkkgd3t3xcxwe8z4p25vg5svm7rqjm8j	69919
bnb13t2uuxcjelhysamdy0pqw7m6g79zv8ddng5wng	69759
bnb1zcza9pn7ut7cm0qu46872qj5he6pxr5kagnetw	54828
bnb195lkv0f6x5n3xz0gkrs7s3m6yu7fsgg8j96axc	67644
bnb18u8erwhu8js22hrul76w0zajtlhrd6cvxndqfu	67539
bnb1vhf53um9ypt36lytwyy84206paz6hgq70sl4cr	67086
bnb1de0xfqt7045870kq9fapgqjfhtdydn0994sd44	67419
bnb1hwyacmjwc3y3f46jpjclc4tkjuzgg70fs5q5qu	66419
bnb18ywgmqjfqavf6fkth98mjeptnphfxl7yulf7rq	66319
bnb14w9y8h06727kqlvapeqyecmkym0hjstmamtrmd	62000
bnb1p6djp0pww5wtr3rkuxppek56pw2c2f9ae67cj5	65000
bnb1vftev5w20zs50vkh6tu99yj5nkz24epm0f703q	64103
bnb1pqxxh7ral52cvh8r2a0qylxccxleqz2u5sg3n5	64235
bnb1ahfkdatqymsnnz7uf9ujal6rupmwdk995jtnp6	64300
bnb10qklzqgkf5x388qcge9xv4d95ufaae363gv6ly	64595
bnb1uma3wqqj4vjxe4q8xsnde83fzxye9l6h46nzxa	64406
bnb1qhefqvcfgg7y3m3wvg29g4r50958nwnt776eay	64282
bnb15y034m2l0atu8gd9za9fmdrq40klmh7s6ge2cx	62980
bnb1q573szwdrju7jkfjjprwrvy6pdtsca2fca2f4n	63471
bnb1wckqz9sjckkrdrccq8qapeyuf282xqjxc7puzg	62722
bnb1emjhh8en9mcy2alclfhasq8t5fgl3ulapymumx	62580
bnb1rnhamj2wn7zezx45e9dk9h4wn8kdpt9tvpent6	47381
bnb13rv02shcdg98ec0l9crz6zyhewz0864k4nmpvg	61669
bnb1evjlm9f4jp7cye2alkh8nlj72e3ltw77380mqc	60712
bnb12jcyf5dkefyd4p2pe2cvkwf5u3p9tymdwpykgf	61126
bnb1ch00l6t874l9c0twkp3yhdxejn774hkq7jrm23	60637
bnb1ny6qw9tqsf9s4rfnlcexmxjgmqcpyzxcx6r29s	59744
bnb1nsfe7phf7c6wqak0znekzy6q430zw68wgf5zz2	60000
bnb1sh8l6ry4updm6lrwxzeng5anqdumdtzqe7j5xl	59584
bnb19c2ewmwgcda55hel53mgtalzhnvsvncwxnthtz	59487
bnb1una732vqpjk84ydwajx2ff49qnagrng3czcp6g	58986
bnb1qycgsznfunus8lr7n2lf6hw90s7xfek42vehvh	58833
bnb1t6q635w940ml8az63g0fu4nr6xaa0gdjpq7fur	57694
bnb1vhec4pat0944uq6ucryju0gkaudeld7vzp2gcf	58369
bnb133sp2s58cjlqlrgh7s6a4fqwg5auua0j4v5rpd	58233
bnb1vt0sy6l4r72ua9gjynky03um3gux8u0s3xfvpm	58000
bnb1nlwp6zwg5gk0r6prtl339at5mzun006l0s7a40	56751
bnb1n9avl327k6898alwwfq2hspvshn8j28j8ghye7	56358
bnb12c37jwarlcfl4svxdryqu89dxzjrduejkz6tss	55592
bnb1kfmhmpmn5p623nc0pr2a9u4n586h37fkjv42mm	56318
bnb1pyzndgy0clkrehqke6h5jgrtdqzgdc78ac4qsr	55758
bnb1nx073cvdh4jwwp0k7q04mw6c6m4re86m2h2qh8	56256
bnb1z8ut262par5uwryxhxg3zyh3xn7usllyzy8pgx	56039
bnb18s0yptz5205ql87jgmc24ud58v8t0z7sdp45sy	56039
bnb1qk0275mqa4mrzd8mjr5t9jq78tn5ldngd6qz2d	56018
bnb1p2xf0w07jffvkdns5ksjevx5x6u7ql0zcjsyae	55865
bnb1uewdxntnk9pgdh84vdth05z5fhcs0gzs05ek5w	52499
bnb136hlz2e0qz07atzzk4ugpa9lm9c32f2m02jmhc	55497
bnb1ny4vpazevkhqcc2344u5plkd4r75hxcpx7j062	55140
bnb1z8sfl6xh70l4d28m9at35xkx5jlx6tj8qexufd	55120
bnb1xlmuwu99yg3vanqj4xfl397p0ngfepheu2wfcx	55093
bnb1j987tqf9e5mxelnpav3srv4d7cv4vf2azv7z0k	55077
bnb1ehglyg70l57tf489ns5lf6eg4aw2wxslyqf3ty	54280
bnb1j0k3fwz4ujqjyhmgxey9a3svp0afjc0ck0rf2y	54303
bnb1wd9rn9y54tjqqerrw4qtp3cqlvvpdkhzlpaqdy	20
bnb1at96vtr6jcllqp4c23z29ch4drwemkfyzgj3th	53669
bnb1rxj80yphsjyvls86lfp3njrpq9ddeam93u6ysn	53655
bnb1ke0y99g8p07sjfkpxarq8tnxkwnz2aeq3rgsh4	47336
bnb1ahz058q4nda4hah7qg5wlfngw3f4cptxjxnru4	53244
bnb190pgdfzsgkr57scvzqaxvsgus3penn2e7pt5lc	53036
bnb17c2w4r83qwgy3vh3v6t9fzlxxnw45nkx7062qz	52811
bnb1ln8gpa7txja4fv9wk57rdnvlp5hqcd9mjyu7vr	52612
bnb10w94uklqzmf3ed70qw8xt729kvd6jlrw2fkqme	52303
bnb1gw5u9m4phtmq4q0nckydk5rd5dd8jhxqcsxd6d	52000
bnb1ezq8ja7ydlakghwxqcuzyd8u9g82704j8zfn8e	51885
bnb188prk8av7jkhf5qvj75aec3fmky0uv6vhfm96l	51794
bnb1lakfyhm7ls3wgkrgkre2c8qvcghvc053kjvwe2	51712
bnb1aya0pyc400shvrxw00gcen0qux63lyr56xp7m3	51439
bnb135pz6evdjfyycd3t9esnz24vls4uk4hf4nstyr	50118
bnb1l3ftnt3s23de9e8hcemvpyrrq3hufsu5t4p8vn	50561
bnb1eq5twhnegxg29hv0avrr0jlw8ehhv73t867u8p	50163
bnb19l4lpdr7z2xuc9gllh4vqwt7qlw3ccccjvr783	50000
bnb1xv4jh43n50ujjxsmdrv9h6lzhjhjxwgrjqgtap	50000
bnb1zyvkhqr5c3520rhwerntdxt2az556fwqg3s6q5	50000
bnb1jhkjkcwp72r48yenn5zq6pfgche4j577tlh88z	50000
bnb1fcggj86uc70ddcmy6ue7c5fml4en40h6akrfg4	50000
bnb17pjul7euxs6egrlu3wdk2nlhyk4mrspdmhh9fk	50000
bnb1shhwvdww2uuzt4s7wqjswmltw2hlmru9t3n69c	49790
bnb13t833dp6pz56c3ut0adt8a7u7u3j7sjxn7e3x0	48874
bnb1pkggw5erxqaqn78ynqs304w5360lcert2dnlxc	49367
bnb1xnh2uarjk6hlun7a6h8htq86j82x3rpmves08e	49111
bnb1dfuhkhdgd7rs32d82dz23x2qs6t2nap30gu8m6	48762
bnb1mve26jscuewljwknld6wspcz7r30y02pj4h6xu	48748
bnb1j9yenc4rttenzknytg2vc3tupy4e95qvxqr5rj	48517
bnb1s409l8uquj4rqjgd8vrztmnarjnn89cqkl0507	48370
bnb1mw0dse480untejufrkfgchkn4y55uqnpqt2sq5	48114
bnb1dw2p9e54c4hvdh7y0cl7t29gjnhgvha6ndhl73	44555
bnb1x7kdljse9qtrk5v9eqyxpmmll7kansu6ht4kl8	47808
bnb1z8y6sursld5eq482kc07kk4j3najm27960gqmu	47558
bnb1jx0esfkr0vssqr2m048xlrfwav4vsclj326ahj	47525
bnb1uyu2w4pn4rehkea94gc4xncgz6ppcfu5zwpwrp	47449
bnb18naxag5e99246833av34ak3y5nltrewq6l4s7v	47062
bnb1z70njxnj607vdx028t9qs829qhdq7el366gwrj	46655
bnb1jp2haw8c635wufu6c57r0guk57nymg87ml4ll2	46258
bnb1h52t7mmkhs5dt0zqrdw0gstzvj9vwydyfse74z	46159
bnb1xa2lhe0yfef7m7u2vgjs72wpk0vqf599h6k7pu	45671
bnb1kw39t0ulwakpm546f8l5skkc9haadnfkqr9p33	45923
bnb196archjv967cz9uf2kmaf6q3khq4xzxcdwa5wx	45483
bnb1uaca6ngqudennpu8fj5g6ngmpzxyd6zp96rhxj	45062
bnb1qhx26x87tadk83hapzvhxtgkcjascpu2tumalg	43672
bnb1dsz5tny3arq4xkr8fnzclks4wukrdplvwcs8sa	44813
bnb1vegxjgw0fp2hewzpsqnwarj94vxg8633davgpl	44809
bnb13gmnynvlkxkzpnpfttuxsww7kt2jskp6wntqv9	44766
bnb1dxf32yq6lgx33zdrexsapy05f3gxqzumhetlny	44733
bnb1wnz7h4vze9z7d6fve4fmvnelu5wvygg8rtq052	44575
bnb1f3kc8tz9daf5d393yedw83mv5avs3apjj9fvxp	44065
bnb1aey6sq47eg535050hht3q83zzjq524quar43cq	43427
bnb10x2za2thl97wq3cdrlnpw4n9s97qdzjnjjh2vd	43364
bnb1h5h6q7tx6deyrvzfxs0g58uwy2gh09x8cjfr7w	41694
bnb1fxy4ukm3erurram3wg93nzvwz2yxprg90t2lgl	42968
bnb1kckre5jptlxwdrwjwruc93nh3tqh3y2m864hp8	42276
bnb1rf02c5h6m8e95yx6rs3wnmr395gj724y6r6zy6	41576
bnb1aw7gc8fl0us04cnm9k8p7j48eqwmjcxf8zy3vf	36339
bnb1rzw2ankzunv08fd5tsl6xp55z9pn4yl2fgjvst	42308
bnb1nq9umrklt842n72f4vundl9w9fey04wz5q86yw	41413
bnb1v2zvptzwx3pqj9s2tt0kzunucd6pdzysqwkzk4	33084
bnb194qf7hknvakgfwn0866rrdk62m8m6c0cr3wj9m	38467
bnb1xu6jwjv4hphgz4xtcv9yyrsznye57eat7n3ueu	41154
bnb15jfs60nwxquvaj9lwn7n4n2hs7ggnxvtqy4kt5	41001
bnb1dq3way4vj35we7aact0el83ks98q5yuze8z45r	40242
bnb1r2kkc393ezm5sj46lrj7mpefpk3xsewsfpm3eg	40465
bnb1nf75ufznxcpu0wt5ll99fa9urxfa8rfyujxrdq	40399
bnb1gnrvz78vz50wce3ar7u6k759v3ve35trjnzd9w	40378
bnb18x9tr8garka4zsrfjq640tlegw3r4a22y43etw	40321
bnb17gxece0k4l3nx8e0zqpxqyftay8dvsz5hc5pry	40240
bnb180vu8m9zsw8m9ty4qvjsczh5rlrtmzs6ct8mx3	40308
bnb1q5e903ewlaaekwr6e2m9ptyqay0l60madhm63t	39626
bnb16ewlff7f5s0w9enxeez4cnscx3aax5t46ruapm	40171
bnb1ggayvcanas6wda9wfgqd2c38w6qxn5nvgcc2dk	35050
bnb1f8zl50cggsyjtszm75lnskx2g563jvnnhjepmh	40049
bnb1pjexmh4fx5xdymlpfjtzvl23xnz00e6l2f79aa	40014
bnb12s79s564suyxeg4g7sxssv06z8qf2hf59dh8qg	40013
bnb13n0mflpx7dhd393zzvxsscwp3r43h8anuhzw8d	40001
bnb1n6f885mk73dyky4l5a0530azlhh29fz3tham6u	30267
bnb1646yxaa8qk6w3u8gyprecg9kzfwc8ged67w5pm	39997
bnb1l7g7zd58z04ls6f2n7q9y4dddcv3yeedg7umz5	39892
bnb1skc0uc7m30hlcxgvlg4flkvm38sefv5uwen523	39848
bnb1puzeq6re4x87mnp9s69360he4jzw4dv5qzamu2	39834
bnb1au5tdu7kkpkws76t9yk9qhg4twcqh6nqaqq8ac	39546
bnb10yhnlcev5f98q6udmzmfl2hmgq0vmrun3evslv	39368
bnb1qsea86cyf5crtsrngdfhwk4xm5gvzj5690asjm	39522
bnb1e8k5xzyjjtpycqqjgx9ytycese59xhxuxvp6dh	39270
bnb18padkz2q3pupn3csfjrnl2q4cn7kjfz0egn9jd	39101
bnb1z69wktl7j8352myurqk6nezw0wpcej6ems4tfp	38582
bnb10qumwxnjdqu5wlfkcdmg8gulnw2v6mzp0667xp	38830
bnb1nd8da4q0xmcvva6y5ecfq0kenj6d5czql4wyxw	38809
bnb1p5lqhax6x74szyzz9ray3hkyepd7txznwsfy8a	38652
bnb1udkxmrs0z3ndm7acp2sse03n85tansp7zaj684	20368
bnb1lu7h9stkuf6kd2ks9d06gwczrndyjqx9ns2h68	36620
bnb16zlavxuezdexgll486jkepfta2za5pj6lgdpnp	36485
bnb1u4c4dvgwe6krkqg9tx589mxx3scr5ml306rgwv	37409
bnb1m35frlx3yz2tk740d0lqzxg3tlejqzhgcwm2qr	37034
bnb1ns65k75efjedt2lc52jjw48wrjayefnddvj92l	36784
bnb1tcgfkk2jas29sws3mxg9urhnz460hunreuqk7m	36375
bnb1vmqc0unyv9ra6sshtuqq0hhqj7k4qwnt46ewhd	36097
bnb1v5g0r3marhuktlym5en2rxgjx3hrr6a6yrmvnl	30420
bnb1rx4a0grmnf9vjljal07cgrjj385yr492fwap0l	35823
bnb1ftk3vy86790r2qtta6342zn6myehla0jqqjjqw	35733
bnb1vsr0ep7lq62smmwjyjqywwnwvl07wwzcjg88z2	35609
bnb1tkgp8ggvm84cmqmczmt5cwqpwxupr808jfmlnk	32533
bnb1dhcl3sm5ju7e2x4sll0375xcejzc5nqjnfrly5	35507
bnb1m4kmymfnf4l85k6u9k8egylhrd55rfdzqafd0k	35190
bnb1c4vrllnkgrjy685vmzs3pt6k9j8awmzprdpmyq	34777
bnb13u83tncejcl744jx9437hf5fk2jgau2ux4xh64	34621
bnb16zcr7p6tzfcnhlp2glehge3zm3c06wgfkk3ppd	34449
bnb1pq975jggw0j9n9v9xzfwenkx0sm0ywmvk0ppsr	34316
bnb1kr84m2uyudg5qv3qy03ts38yrep3qc3xhuc3x8	34229
bnb1ruxq9kpt2apu435q4dewv8kmcuzc64tvc2vnvx	34218
bnb1lmzd8qayljxv25q7nljar2rcynulvq5dzt8rtv	34105
bnb13lva64g77apzxmm3wy7slux6k2kddedl0r93zt	34050
bnb1v3wket664enqfya2fsk2gl6n07s4695p4vvmys	33878
bnb1yyl8kh2fk2mwlyl8m04ycyz709368j8q3mdcew	33855
bnb1rzqjc59daekxenngdlpdpwju5mlmqv6ljd678h	33800
bnb1rzzr6ladwumz77wej6r59wvju55pt404ck7l80	33682
bnb1zt5u5nfsca9e2c8es0w8jzmc9m4rn754y55asd	32964
bnb1pjnzdh9xksxunpcv9acfru3227gh67u9g3uts5	32822
bnb15wjggz6hwvqtdnwzprpv4xc9ny2pax4vvu2fsq	32815
bnb1eqr56au9fzh6d4tjvsvpk7m4rmt0vusk2rpsxq	28125
bnb1fkv9eeyk2gu6nxytjs0lv2lag2tetueq0mu5yl	32780
bnb1ly4lny4zk6na3xx7gzfaqjn5n4jrfl2ud4jf4e	32391
bnb166fw6frtj8duaatgsulmy7wkm40484ada7j2pa	32498
bnb15kwejq0hv49w7z7zqvgjjslf0tgerjxuwpj8hf	32230
bnb1dxm39zmw302dxqf3888y729wlkpmhp5wlgv4qc	29871
bnb1lss0l32lq9cju3ea5jwqqncrd09g5tnlw2uzpx	32196
bnb1j4jcjf0j3dvh3fmhg809n2qphfh5fuukp5ekk3	32156
bnb18c0qur6s6adayhhfgxgyy07cltrsmw64y38dts	31774
bnb1myzyxl9c5hxvk62pvsn57s3w596af998y3lxwa	31328
bnb1jl26700nt7k8hhfsggmeu5lnx30enslpxyyac8	31435
bnb1cfqzdqcuskrx3dm3g6atnrdh3mzf5zeku3l95c	30000
bnb1rm7aht9ej2eaefrqqn3gq98wvnqh2zns5ttmkv	31407
bnb15l5dja6tf623e0aymnurdptla723gywt0904se	31281
bnb1vrha5lgtqxu5kau0r4g0g345a8s46nj3fw2tzt	31075
bnb1plgrnrmemjap06lc0fs5gyndwhv3m8dvef76pp	22744
bnb137yck47w7esh2wkh0gwymnk36t3tacehsqzrrt	31000
bnb18yez6ept6x089cukeqcj4lnfpvwl6ca2x67jgu	30970
bnb1mn4wl7fn78a08f62ctxnt6kl2jgkrra9mwuzsn	30924
bnb1amh82qm90gm4nxxqt2l7aslwugewv7m7qvk09a	30778
bnb1ylumlnyv3p5220zquynzrl2qxzvyl8j45r7728	30102
bnb177xy982fqxc6qk9zwfnhhqgd4n55vd5wfsgx7m	30696
bnb1vf8dfvngvkyzqxlnl33drwccppv9y84dy4lrd7	30649
bnb15flf74fv9nka0u5lejjmngal3wa09kxlcfuqw6	30000
bnb1xysz3v7f6mk4jxz6l60kny7tku384tw9ztkc26	30439
bnb1nlxa3z3nrgdg8zkv550ua3pllm5sqc66vwc9ca	30410
bnb18adfq2ka9nn78xezxtcxxj50m6a6st2srm2agk	30027
bnb1uany2rlyzzcpswafd9n4f278uwz0afr9m0em9m	30074
bnb1l7mdheq9ydpnkm2n726kn0gqzctrlsgktd0dpz	30244
bnb1gymht9ffkxxj2ecdw5epcx6ua5nslr3mnw2u39	30237
bnb1z426hfsc4fq9ssu426vfnsz2eruggynkwnla6g	28941
bnb1c8gfa6k29vyeqxa7prjrtxe9ujgzyl84s562mq	30033
bnb1yzvm7wcp98qt4c5dt8c6vwkvz0t9lfg3w8zzvg	30011
bnb1knem66l99x8yfw5rmyd8gn07vqfc9kcstxgz89	30001
bnb1exnnf7lezfy53vf6q6lsaze6lc00ctemaq269k	30000
bnb1whjp9gk9zlpjjve33r0y7w5lfcswtyp4m608wr	29969
bnb1e652uxaqfv0984klgd0644a5ml7lc6th76dzl2	29650
bnb1khqncpnykgsk86cd8tu3ukj0ha46uc8u4e2q5r	29219
bnb1x0fysej2vw3ghmly4huf693g4w8jgmzdsync05	28001
bnb1vwsg7n6akl3cfu3advpajcxpgc42kkpdxdyns2	29112
bnb14xaycnc3009g5n2vl6mt23x7lwuuyw5py8lqju	28838
bnb1x0nz9hjxy4x4k23v6j7f3ts8eznq8gdzp7d04w	28803
bnb1lam2saddq66h9m6jlvsma96wara96gx02vq6nw	28235
bnb1m9f9maps2kqjdjg3d4jjhj9tr7c80r25mjx9uj	28204
bnb1x4mphla4t5d7cznpg7papdklrtkdvv2yqjx675	28064
bnb1z0ppaqmd8tmqj5fjz2yq5ajfef8gagxt7kems9	27898
bnb1erwqf9s38l9dely83g50f8y2j2jmpm4v3alqga	27893
bnb1n3fvyqs3kkkx4rrvrqx3wvvfuqujwg8e2l5urj	27660
bnb1gd9ejkln27r6lt340usp6vk2h6hmgp6u924lh6	27787
bnb1khtg7refcdkrjnvwrxvknh4234hcsgrfkhj3cq	27698
bnb1g70pfy6m5f5pvxd5du5aqtdgvxz2z7flln96lz	27673
bnb19dxdxajfz0ry3g3peq3gaj7k5gls64qhv7033g	27597
bnb15rze0zeac64jee4s0ry2zxgz8efsrrackyu3j5	10
bnb12pvn4efn8alhgfx7wa5ap9ynr206vk9fq4a8qe	27491
bnb16znr4gq8a89eg40qzkvnp8vr30efxu9mntgykq	27260
bnb1at7jcw2fjvhuqygx8d3x8hmrvyd97axdzv5fr7	26682
bnb1k0pevdw060dug3ld2cmwk63gm5kn8qsnaja3q4	27227
bnb15a7a0h3fj2x6ful4gh02ywj3w5t3uspzy628gr	27136
bnb16es0vrgv6qa4s8ld93xayzsyqet2xufclarmv9	26910
bnb1uj62c2et9pskuqzv49pvrc85kezlhwh5xwys6w	26981
bnb1mfge43cjpe68sp9kythc4vqpyrpd9hkyr2cjv4	26798
bnb1vv0ms2x6wj55h5vtlm5p20vavg9zr8s20n4cal	26643
bnb1v2h00hu68029ytcwlgur7m3g4ccm07vjpq3587	23452
bnb16k475042gh550qwn5re3j7wfc484c743cdns7s	25668
bnb19yfsqj4u8h0sakjxs2q533kak4ywkv7kh0a2fm	26278
bnb1zv8c67rdt4dec97k04q224sf6lcpmgwjapgfcv	25881
bnb14s6hhthwz2mpzd9dp8cm3xw6qtca8l97dyl36l	26201
bnb1348jr4jjmjrdxk4vtglmzs7wect9nhy8lrcxpw	25558
bnb10xp4fu3mreefdysql30wtmmdeac24sd9046f22	26078
bnb1un9e99dlc0zmfajnm8f7gwdd9j97suxr9fxe59	26072
bnb1jkjufugqnvz8llfueureuhsv46z6jwj523fpr2	25970
bnb1g2t0qkjlmsufputfneesljepme3ujp9lzyvm4c	25568
bnb1r3avne5azhteyhqyv4rz85k9wzq0ud2duuked9	25558
bnb12vl2vpy5xmv4ahs4k5fh0flle5vluyj8ufx8mw	25501
bnb1ryr84ww8a3x55h8zqajexm0h4rvekf5p7yv6yk	15100
bnb1mmhmjqsenyy2xsa3eefqff73u8s3kakp6exfj7	25000
bnb1snel9skduw8fu4u7x8a0v0y7jejqetlsc57qfu	24884
bnb1yw2pmpzgwez983ycdam7u4f5r4w4euwmgpdcem	24627
bnb1zn6q4yu4kmp7psedf206pl24a36hctcv7dfgc8	24700
bnb1hugah6jamnjq2vwvhvzf9m5hv79px3ecrusdgv	24685
bnb1qpqlczwcucdh2dajve4ftccwzpsc4r4488n8au	24419
bnb1jpsz4vzsn7sj5j9wl9ejzzaxam3hgkq474s8mu	24361
bnb19e2l574980xrsj52fj8mvw3xzu95743xg75ml3	24254
bnb17umjq3zskuttsewqxl0s6p8aj2syfwhw0qxwcf	24185
bnb149n3t0k03yvfa2vy4ws9c3tvff46a7yt22pqsr	23621
bnb1kpc7jfyj5vxq8y4tcdcuyh5rrpzhcm6cpfmy5g	22775
bnb1rt63zl9ugf4wgax3dv9jndnvzeqpjqrc6kxn6d	23989
bnb1jhdaa33w0067yqn3n8wuc26kjvaznnm0vmwv48	23933
bnb1qpwpuap3h6sdty960k9kjugne0nggxpwgmuk53	23803
bnb1tfs0395dmnummavfr94duk5rfnhak88ucvdttp	23647
bnb19432ss5m0vwlrrn7sf62d8maff343523mmf5d6	20952
bnb16k8fuj2emd20zh6qch5e70fkgky86l5vyvg2um	21800
bnb1gdqcs924qjks2rxyttxls2s9dnkkncu26a0se4	23267
bnb1nhsxkz3dnzyqa8awr365nw6a34z2436wdwf4zp	23260
bnb1eyt7lpfsmcjd2rsza55zjdjy67a96c30a70590	21090
bnb1n7w32q9ehdcz92h6w7rt68hqyvd5n3fl2n7tmw	22939
bnb1ma807q85ms9aa2upg4hmha4kjaaeahsl0gjnpa	22099
bnb1tkfdgcn0ccuyelu3zf98a5p2g3pj70fe8pxrgl	22354
bnb12jj3srxqdzhymqqzc2l684k4g7adcem52tgwcm	20875
bnb1fdnkv6zc6aszqqesvh6fervw9mqzkyxvpec2pg	22000
bnb1avnu2rawqg2jmagwxvul662pgmjve49y7eh893	22249
bnb1knpn0f3f32lr7wxaneeg8fjkxfc67jtfr6cgtm	21789
bnb1rjjx7382fzjw92chx0n5pcs9gvd0c44tltt7qf	22231
bnb13dnnqvtv5srm99rm7jny27s6t37xffxmv5effy	22175
bnb1kqv28qez2l0yngwsz0x57h9zmfckv2xtv8wwlk	21962
bnb12rldmet92gfj72muyyg0n4xc8fpz9sa55g7m26	21471
bnb1vudr77y9k2s0yzj8aaftcast968zsncq9k8sw3	21706
bnb18gcwzc6klmf3rrsgqax60eupqjmqcwsdxzed5n	21810
bnb1awaqr8g4tfwwyxcw25yu0swykzsmcsjaq59ejf	18421
bnb1uacq9mwuyxswfr03vtg57ph77lj39l8dzpgzcq	18105
bnb1n0nqhy536za2j6szald86x4f2dn6g8fx5dlxcr	21179
bnb1lvvsahh7x99zvw84sql0d6r6ewuc65c59e4eju	21460
bnb1tfu4la3j3t4jfgk94kn4f6kkcm0fuc9r6geruq	21377
bnb1fykm4tf2rvu7g0z4cr6k05zwalc4dgflz9ntx0	21223
bnb1xk2049agff679pnah2u9z3mtzx58c750svw6k5	20466
bnb1pkhgklqs8zt5ylcdp6p0wumsqa5ackqj5hsfkx	20528
bnb1vnsm02gkgaqulz2qqdzx9flw5npw7art2yngaa	20921
bnb1uwk90dyydm4h6rcqaz2n8avskzv57g7673t3an	21052
bnb1z363jdf6zvyhemgccxt37y7rmk9txz0x2m4z72	20797
bnb16dclws769493quc30tvufyg06kjrtkl2cux5tp	20671
bnb1ue9u9nzmmpk7aavwg0dns9lcgxv7zxcxtvlu2t	20499
bnb13wxfh9p0yyzz3k9r2vdr9pvhsx9yap3cz7t8hu	20494
bnb1r22z3r30899juyz682d6q5qjcdg49nzywrs60e	20616
bnb1hc6v5edqpj89m97umaegtcez3pqq5stq8l8xqs	20000
bnb19rcldxq0qccglcyyu23m43tsv57txsp4ugrjpe	20413
bnb1jhrn7w86ag8pgywuuxjef4xjvqmfepj4xprt6c	20219
bnb195x73dfsdy5hksvwd97mhyjwarsy9jdyysxakc	18786
bnb139mz4cd3vnyvcre6jl0sfjwlkrmdw8zhmyluwy	20249
bnb1agw54hev0het64h3q2zm8am3huc0myl8vs0psw	20000
bnb1dt4482mqws7lx4t63v88a378x2dhmgha602yqw	20076
bnb14gsx7t8sxms4nzw8n3x9rdwq5mqmm7wwzyw5d6	20000
bnb165pnwqpq55h93amx3a6gw33femcp97eaws2j9e	20000
bnb160fxd2ngr4xd8qcrundqvccl0vx06kwr48g4m6	20001
bnb1pl65p034vwwz2rd4gft6f95tqdvdhsevd7lxcj	20000
bnb1ju8z2jt30cmpm6vllkck4lepjs3llh8wc35vjp	19285
bnb1nxtnakt2p6sd9qtaa7y67gkz0208z0dwp39zzv	19000
bnb1ptr5psyexlwk0wm50vmtc9zkselnxu6l2s70a8	19646
bnb1qr9zvs0z3hl25as3tcrzjyg7lyqsyaax70cslz	19633
bnb1yk07u9ytj73p4xuem8zpc44k2eeat2j2xkdeq5	18547
bnb1fu05hmv6zkj335qv6mpwjsm7kd7wkhyz2x5um5	19252
bnb1rugk96uaj3h5t6t7nc7xtqzx8qg8v9he90vqls	19112
bnb19l65y95red76lq898cnugqpckcml30t0ncrny2	19205
bnb1x4vn6rn6rujsqd2wnmg6exq900jv20rqdfl7jt	19033
bnb1zc346s48m9n8en62z0pf42nt2lef30prc45x4p	19025
bnb1u22vyjjx6v4yhy70n8e4hyl32wym6dy8tw62zj	16723
bnb1cf0lg2k3fc2w0hzytu6hud0fe32unv4x729gwl	16513
bnb1upauy2lhuve94ys3ulzjpg5v60plcrapzpxldr	18589
bnb10fg8z9dumqhmfhm5s4ghyh9che07hplvk38k6t	18501
bnb1h26y8uh7dzk74qe6y9al70975fyeql33muj0lh	18435
bnb1h3sxcyytpvpgm7dnf05m5a69h7jfu6rmctzy7e	18118
bnb1hz8f8ejs6uy3fdyg99fk38pkmm3grxf2n643y4	18000
bnb10xxd2z68cfljn8wqx2atnta02qekyptqq28ax7	17757
bnb1flz03rxfkgz8q5wvvhs69rpgyvj5l0hz6gmlsc	17827
bnb1gh0cw709qk6f7fy4qqzwkqecm56ztj9cx4pa6r	17818
bnb1g3e3ml360aj5c3tk68x4x4jgj9676ruqejkfxa	17550
bnb17jvg0lyzkadrvgaaw4t7wdffk306g788stvgdd	17661
bnb14dfljrfgklz47gvw3ncmymnlgck7rqkcrgl7lu	17520
bnb1kjsfs8hpc6fwln9fn8enyzsw97s4n0z7fd4t4q	17418
bnb15l88qvg67n86ft7twrypgjp6aww65q9jfdj22h	17350
bnb1sk70g9c2mm5rcdqqwlrez35ethhxgejjelgrlz	17253
bnb1h066plzq6xr5v94jft9laqys0afl7fdeg4h3px	17320
bnb16ufpe33pgjwzeshq4j2eq7cdsdflusgqx7j0da	17292
bnb16l2ws7kcr3fsy28wter9yajfamp9hktqgxmzt3	15000
bnb1kldfyslphmpn70frclgptncfjyf0pyp243fh5x	14802
bnb1rkrkr7gjpc5n3lwulqmdrvygup9zyhzy799t3t	16945
bnb1wlhvcgsrn54jr2w003e9m6jwyv3c07g8lwav0u	16906
bnb1jsq3jchduv922pj69rgsm39g5gfuh8m9jjwx2n	16892
bnb159fwgh293xmd0aqfd9cnn0783zrxmhw365wq44	16663
bnb1fgdjrftf3jljqdx82c2j6u8d07m6mv3kg7f6za	16642
bnb14jdt3rxytmk2ul3mgslrpfzefazlw4esljdc6f	15001
bnb159tp203u7fesqj3drddhd55alt03ln5mjh85e4	16428
bnb1fw0ut0j27gnk2flxvclrw25wh8m3vslgx96ug8	14720
bnb16tvezd4v32eze76vfpve64s4fka5lfhcuvdy9x	16290
bnb18wx8c2kg30aga4vhpqjtzm90jagng7nwk89cta	16289
bnb19unjsczlfn6fezrkhad7yg3tg376ep97w23kgl	15871
bnb12ecnrm7tjxkvzxvrg6udyreh2550tjw55kuxce	14631
bnb1vq8myp56cx8xm45tw3tsk6s75jsd89hd503chf	15859
bnb13ljzlh86rwr5ry4nh770nha2cq3erg64yhzka3	15825
bnb1fraj3qx86empepxvcv37m4k5tqs3hpxa509pwt	15702
bnb1kqm2ecnxpydr5hpcv7x9rpqzv7zxk2gl6y6454	15442
bnb196v9l9zuyyrz40vydp9lv64mmynqlwquee8jru	15652
bnb14hre8yganfdpyq9j5px7mfxc4tudsmkat8jzze	15605
bnb1cmr48486xw3hda63gygx4wkvuvt5yzecastcwe	15528
bnb1f933eendykag6v9dr0ppe9vcsc3xcljlaqtlqk	15347
bnb10zqqf8ah2q5p88lmttdtym8ne847x9xjpjlx0x	15020
bnb1gkht943xhma7z200p0r36988mejtqf24cfasph	15429
bnb1szq6xxxhd2lq8cwclzdjmm9rjn87ez43crflqt	15313
bnb1msjuzkfn5nv8l4clt7qp575k8ar86y59j0aa7l	15180
bnb1zckmcy705dpxauegqmnj77strq7qncdhjnvp7c	15273
bnb1wenmf2rzkmf987ds9glnjm9r34cgmrtcnnh2rf	15156
bnb15zf3vqn8r5fvd35z89w6qkgrymq6t36kdqjdef	14526
bnb10hhfeyykqdj9h6le4sd2r4r3pcey5sjj9exj8z	14891
bnb1fggeengt0m83yr2zuwft2pl76wjfljm8dffg65	15070
bnb157zacwqaplw5kdwpkrve6n2jdxu3ps9cj3xdcp	15015
bnb1yxx3grdj8jnxfy9yg98v56grumhmpvw0pml8ly	15000
bnb1zwhwaezlv3mzs9h2dcjuna8vjexw6c2s88yx29	15000
bnb1zk97pmewly6qstaunrje2p26xvm2jn556pkk4q	14999
bnb1px5e8rvf9rly93e7jj0lapaeh38t4pyjw4ecgk	15000
bnb1x294e760z2q887adtl98x5yuu36v9cf5ukzqr3	14945
bnb1nlun9rtdcyerg3vqu97mfcx3svdtuset58jrzm	10500
bnb17h2ws5j6k9y36dq2r2j4ut6alzlqpvslrxer0y	14837
bnb19kvpeflnwjgul3r7anxhxd98ft9au3zm82fpcl	14826
bnb1xplea76hhgw22yexp0qjdcer8ej5ppvrjcphtq	14763
bnb1zuctl7ev5q0r6pmy5rvxfyscgjy52zkgu409t5	14753
bnb1qk5ugzxcavh2z4l9ayru36xclnjp4g9hnx4twv	14595
bnb1th49sgwvnh38ch90jhxj4zu0ql7hfq4hpmnk3f	14374
bnb1em5s72w6stjr8ps7zg6femcgel7hynruyahalk	14556
bnb13xayja7mmwxzznledqsddaclfahdy407m434ux	14533
bnb174ksd655k7qzuhv84p7h0uzcr34f0yl8fwtyen	13919
bnb1l4nxx7gpszccavj9yml6w3wu8tlfp24ch3zdj2	9453
bnb168qmavm5n48jm5cxhxghw3cl8s7pmftc6tn8l6	14046
bnb1yzfcly5kwawtdglerf00rt0ncan2up5guvszlu	9726
bnb1r5jh4gsx02c63dpt7h2fx6f5c837wkv92uc5zf	14099
bnb1a7qm7qckjdt5t67jpeslwvn584yakkknjjagdl	14102
bnb1wuh5zshmrqj8rlru4ge55qh7gwsz352ak9rp3h	14084
bnb139gv0ujs9j6kafnt2vmkrd8e0ntfnmsfe9sn9r	12880
bnb1shhsdqcevs0u8kjaydh6nrdkqufjjq0t8hp8l8	13856
bnb1uhvralzp63g4tcmnk5mwjsms30qh3heu8p0ngz	13851
bnb1ppx6md4n2gevppcy5jclcrcapkfktfq2w9ww54	10000
bnb152shmgrzwfqlla6gzcmz3nn8rsfv2davjrhwpp	13774
bnb125nk0gzl5h40xjaferzxq4kmww4mzej0ee8yvg	13714
bnb1d9rr86qdagd683uy06jmn0n7gv8szyj3tvcqnu	13714
bnb1cj6kehr2zn0nukvsmrfmxqp02lsf9j9u830anr	13702
bnb1nudt74776dequ8lxwwdl49j0j362krqglae662	13620
bnb193902zchc050qa752payuxavl3zegpl40nx6qe	13340
bnb1uwq54lhe76u9kdpcfu0nx6mmdhcjtgeps92tpg	13431
bnb100cv83e6egqtnav9c08www3y377uwhx3gr8um9	13284
bnb15vrfg3sa7539ykwd3tcxzuc3sc296wn8wp5dw3	13460
bnb1976xg39yru50dqmwnk68ju8745fl97rejyjvc8	13392
bnb1nwq83hng5gj6t7gyee305h4dv7dygsz23vsvnm	13340
bnb1jgakwh49wxlrk5y2n0hwyun7ueayszn4zp5j54	13223
bnb1qcq3rfy9vwqglcg2022zv3v0x7244eyc7j974d	13070
bnb1f040c8he9tswy7qckn6qnttnh239uyw9hg8efe	13111
bnb1laqhyfucgx7utlvqqvft5ftd7yupvn404md0f3	13100
bnb1l48d0tg4dua7wwqf47cmuwemek00qwfvf26h5f	13014
bnb1n7tx92khlcrjj6ugpehnat72kmp47umk68gff7	12902
bnb1sesdueuw2walcpu9tkt7gcwfnnls9tx68s5l0m	11129
bnb1rdcw9feq09d4ha09z92fdw0wlezl8mzqpqreld	12702
bnb1z6s0ax5l0q5r4t0ywmk952z926wdq3hvxapnfm	12729
bnb1lfe4v29gyvvl5wqgn3lhx0vg4zj462a48zzd0y	12637
bnb1we2rzwn0y82hq7uj9el636khjvmrlng85y7glg	12636
bnb1f5sn0qx0rumkguvzlt4cmn59k6a8fjl46966d7	12622
bnb1tw3rhz2n96c5mdgyf4c0y7zd66gmajjde2aq7x	12574
bnb1lkfrmylsfynet4f93punqxv63dncy4pcqgzt8k	12552
bnb1tv7csvm6y0kdnfurkmgwat3xzcrhsqn0cj4r8f	10870
bnb1qr4jrykw76tp63cd72n86zkehjey2fe7g39uzw	12393
bnb16n7cnc60yexvtwpk0ncgkuan56v37ylgpv5hv6	12226
bnb1gjq5dqkwpxc06x5jcp58rg64kex590t03ucrss	12219
bnb1g09z0xer5w03gx0z4fu0rhux3sksxthsh5fn5g	12000
bnb1zqewsml5wav2f8payv3kngsvqtsw0yj6jtqxzn	11981
bnb1e5gv4exwwkqvfx9s20pyl833prcuegxpx7uz2w	12056
bnb1ac8yph5pqj2q0h5wmtwqm49d8gm6a7gw5mvpwu	12049
bnb1q7jpkp88ruwy0r6s5klsszldj9jxw3n4jmftd7	12037
bnb1v02cvc3qcw8s36lchy39xfqu32r8jkmwwv4zd5	12011
bnb16eh2flx9l6vfmjx9egh2gdkhtp0g65fxyaf582	11930
bnb1u60924l08dq70tven5dlz8n60m6an59ksyf80e	11946
bnb1rf8l9hypry6q88mrwf46yff89a8fcluxw50gwg	11627
bnb127wmzf82jtv0cqzf3cpgg2y4vkxxvuw8w7f23v	11931
bnb13vjapufs2x75hfpslmycsazdc9nqp9s5a757qa	11908
bnb1lff86eguyph25cgq2nn84zr85cx9759arrtt7c	11880
bnb1gwrcufymvgqre2e474y5a5qv4tqqxdjdnpzp7p	11873
bnb1mdn44ha6lfamtwfa96sjam65c8fagaw3xhqtg6	11845
bnb1yde4crz8sk27xvxn9qkndealn5s9ydr4dpf44w	9485
bnb10xjph45h0fgcls6lnyphtstlwaz6634aq7wa3m	11773
bnb1tdcdcvskw6077qdw0tlvlhpd3hem9ddx3pafwr	8280
bnb1s9nz3xj078qg2sl3u2cuqe75fhuv64lvuvy33p	11731
bnb1jazks2akntgfxdersmjlr4uwkh9p4xnk4u2mkw	11701
bnb1e0ddn0feaxp2zav82mqtauk9md3mrfh6f6ypv8	11650
bnb14tz5xmqzy2r4325m09hr7g8a42d5nr6n35k5t8	11480
bnb1qv2uc7cymp43p0plwx6dv82yeulwm5lecp7z86	11382
bnb1s3kt4v2s07e7s0fgv5g90r8g3ns5u3k9dul5uq	11453
bnb1rg4dry4d23l0rwhmu7mvc7tzq5jc4j4c0x9ha9	11394
bnb1qrchlwsaznytxpevralxpml9w03yakvukn7ppp	11370
bnb1h0vd5tlhujy93aaegxp88xsdnamsp0yrwqfyv5	11208
bnb1lje7zp9ftact0e4mnpx5uw0v4uwlas2j8hwx40	11260
bnb1x9thgqjhty6rjlcd6vy3prugjpefmfwqzz4era	9857
bnb18l78d4ad3u9nz27zqfvl88u2j8lkzwd5yp490w	10911
bnb1jmwzglxzy77v00k4572rr4qehtj0s35uvrf9nd	10961
bnb1lsypndn2acamv58tzgztutkfrgtcrg6y25eg96	10858
bnb10fyxhtk6gwwldh9jsks0220wtj4zv4we2p4n7n	10830
bnb13fe8vpwmr6hrt3l7fyuv4qjv70nhxuxs4m636w	10704
bnb1tqxmc3kkmcgyh5l8lp8a4rr5z9k8lcv6jlfmce	10633
bnb1sn7tqazs6ukks52qe3yrnrcgf0qknmprej82nr	10770
bnb1wp0sm926hqnxewnud6es6s44aed4tkqq8q2rd6	10755
bnb1qyl5m0zh0a9v7zkgm7xlrzx3jhrnx3vn557nv7	10752
bnb1ljfdv5vqldp3wxl6yp8wfxr9vcm0yu6zyeg2p8	10550
bnb1fxz80nxxuvy7upqvxurfhe8npckmrrsrkgewsc	10415
bnb1xqrsghjjcqcpv0uftth7klwy35h4nta46nexc4	10264
bnb19kw8fu2hcndgznazglhuj8nfpvjgxse6p2dgd3	10368
bnb1dgdxwulcepwdjdlmvx2q9cz5td0tdklqyuv0fc	10362
bnb19g2x50rx7pa4dfum8g6plrmwlx7r379lwy43u6	10361
bnb1cj729ys9x9xaghdanzfjkafnvyf3yw89k5qnfz	9763
bnb1wrx0azvjvmy94f437kun0wt9l84dj7dvle3ktw	10296
bnb1z3wpqx7phyqp0krkg4ulzw30x2zjt2hhvdtefc	10236
bnb140ym0f0mvhusw4n294ry52hmtseaklkyffjml8	10229
bnb1e7c7fm309yq65vx7nak0232zt9lh62eujxfhnt	10000
bnb1unrx9zfqvyqplka7hydzgsydt8p0y5hw7ehk4y	10140
bnb1dmqq9k5dghc3992q45wsheqq9wvjeumszpldx9	10000
bnb1uq7tjhdxddmajmu80w6kwutkpfa873l332gvmt	10206
bnb12m8awu57mpxx8jyaf2g20z5ynhsmtr8kjlmr59	10080
bnb15clp8sfv0jrdlfp7wcnx0xy2ckwk4ftt00sh5c	8679
bnb1vn3mh8whctfvzqecxcnm9fhs26hl4cmf36cezq	10148
bnb1cy89q2h2k84kffynsvnlr0vf75xhtyck5t9xe6	10079
bnb1fq5rkp7vmmqnmnca4a3xlrp6x3wtwtegrn7yhy	10138
bnb124w0yzh5fl82pjkcs6vn8khq90zsexmeng9qn6	10038
bnb175ssce5lx8mq69f2pdynq3rwuck3h2fmyf99w0	10008
bnb1hpsrt58fqqey6xrlhzfwphdpj2tw5r0mv3vayy	9848
bnb136vyll3taevqahu8l63plc43yqa0ku729g7tdp	10046
bnb1r6847va3achrjxxtszpsuf8m2kjrzgyqzg8uk3	10036
bnb1mgc6haeuc9594nfr90sstrh6n3f6dpt2wlw38d	10021
bnb10k9s4vlj26ss2a55cfyuh55jm67cx7fxlkdlet	10006
bnb1jed0duuua28cnd9f845kdx9e9y0h7hkzcmxypj	10000
bnb1q088cl283vhx24vquj9uwytuevxrz98dq3yav4	10000
bnb1pp5szct76xg9424x2d53d37kzsszssjsl8f4ve	10000
bnb1tkhxs7u3ws83w0v4whve8sxxvnhchk9cmmxchc	9995
bnb1qx2xkgmz27t0s7f8fc4xlyc7485ytr37rpely7	9918
bnb1rs60cdj23n28spfcchrkg3cmpnvkwxeacddzuc	9806
bnb1pkww3q9ch4vr6uuy0525n3j3657qhhkpuwfnz2	8406
bnb1p00ausmd6yt7lvqym7x25ydw5n7hhxwpdq5d5r	9300
bnb1lxap0cy3mged0wlflaw4fvx9e2mp3rnwkhyaaf	9877
bnb16fn3sdt558xa3gjhuyyhwmnyhezhtx9f50w9x2	9781
bnb1qypt5lw7c9sa2nvfw9cmdwwt9s5fjjngww3mvj	9783
bnb1fnjna9pxa0qfvg3e68lhj674nv887gycu98lny	9835
bnb1lfmzj65r3spv8jwqnrp6rjth50zvw4jkx9pe5a	9784
bnb1dqzvulzuwq5w8wej2w5mxw89py36p26qz73p54	9778
bnb1nt5ty0259mjqa95c7k68skf6ar9mhamwgdz7vs	9731
bnb14jntfdgm4eety8r83nf0g8hsrjydml7ud4gmv2	9695
bnb184euge8a4pveeafhk4ytap95rdmf0lxq40vwvu	9685
bnb12ddksrsa2sdrzpt643uu068f242m8rlk3cukm0	9671
bnb19qmahgxltat5qehuu060ndryp7fzltdlagmjdy	9572
bnb12eythxeacd4wqquga7mtkle0x5swj6fap5cav3	9561
bnb1sxr28jlzup9gckus2jly3j2gtwkqg3msjy6hsh	9559
bnb185f2h2vu4xufth96p5r46gw0p0t89mljr00xen	9550
bnb1hr9h26x9c9zj9dkkjn8rrn6pjxfxsjqznkf0pz	9537
bnb18gaw8eyxmswj0vxdtd2ua6xlkt6twjnnymw6pk	9498
bnb1lrm54zxzq830l5t7n7w6w2vmus72j6sw8j00ax	9480
bnb1n7vd2frs2lltn07r333dmgtl7574j6cedgsjkx	9361
bnb1u7fc6nnc6nyysre2wgn283swywxda9ywkhgzyq	9273
bnb1pwazeu55aen7ze3yyzdp8kgqxru2tp4whnhr7p	9254
bnb1v87dy28978et8vsrssrpcfqdn2v59y60nvgkvx	9028
bnb16g22ty7974vsez06phd5hy6ulwx7zkctzy8sds	9185
bnb19760lyf8tnlrq86m4h26wr568tz3cd08vemu9m	9114
bnb1hmwz4e37685j2tzlt8guv5cn4dtwz4vj2zmnu6	8789
bnb1mes90fgapscq49qy3u8n7kteellnshyl2tz4az	8972
bnb1e6d00p27qn2arkzx96urdknjp8esfrnc95erzx	8979
bnb1fy0erh8rkf8r74cgalex69ylp7mfdd30tfufp4	8909
bnb1nr0707rdh0nptwpqrv7j36u4s585j7fgtpj4nj	8875
bnb1dhnge5xwvrhs58dcwg4hpklfg8xywjajqex2vn	8873
bnb1mjhsuwdq7q54a0jklac2m00zdumkr4pyfsmr2t	8859
bnb182c45t9wna0jc5jwpwrexxa7sckr4jwaswy88z	8857
bnb1n2dc9jp3afu5qeajxv0w6d9cj7vwhtx2k0p6jc	8369
bnb1sf58t00clyyugv6fg5myrpnm6zzruxp5qkjzf0	8672
bnb16m640tz6yywwwfvkjtvkludhm5uxwqqkd0av73	8493
bnb1za0xm0dsut4sz899q39dz4q4y4pezmwv4z0qs9	8571
bnb1a79mvkwf05n4nvdlvkk59tfmsx3valxktffpue	8563
bnb1n3klj982pseatz8d5g85g2hg8k24l7d85vrzzv	8550
bnb1clxucgcu0kj85e0fv08fu3l6s95et4hckhvtsl	8464
bnb1hxepem8n9ztcv2rscxqrsxfkmmswnq0fe9hucf	8465
bnb17cv2vkkx9pp3r0ewgu8w508njd7j6ss9995r5n	8455
bnb1rpc8pyp8fhgek57ne6p3jh4t806dhcc7kv6vza	8404
bnb1hduawkppfwg08rq6erpvcelmys0lmpfzt5r3eq	7444
bnb1lfypmvznr58jrkw6ck7px5tve2wjdsel2ahz0e	8402
bnb1yf0srj869r4wjr5spplzf8um92hjf5ndgjl2uf	8293
bnb1m2d8eq2gs49h56qcrzs53cjk6aya8xw9se37xu	8329
bnb19y0wrtk5334mqwcrtzqwymkeafl5vdaxywuxea	8039
bnb10ee7xaq63f8yl6njs9md7zs3nrjak6h9tzj52z	8224
bnb1eyd0wv26w75krla2zpgcmhv3xeq7zcr9wd7jft	8214
bnb1qrme50srncmfttz8s6f2kxfvxlreywkr4ymtxx	8138
bnb1cuefxafwq4vsep7efx7stxw6ynuljj3y6a2ng6	8163
bnb10dkwapwjth6grg65pg6hytrwhhj0z7xhcg4x0s	7500
bnb1mmydtak38chkasc2fs9qd80g3kp9uccr9jfmvr	8090
bnb1kdqv2rv7mneqe4mvstee6lgf0g62zd9899qz30	7125
bnb1mnlx0tarwmtkgx4ld36t994w3cn94msvr2yk6v	8067
bnb1375tzqwyjptccjlnylzkz3q6zslkr98y0cj48h	8053
bnb1cgqd7fkpct86ghlnm37dz7d2n9lagy60aw82h4	7995
bnb1pnpl2lqumk57pdvaw5zdung05tdjjqfjl3ayh7	7846
bnb1l9cgh95z7mml3mq37zv7vv4s3jz34ygqttq7k6	7763
bnb1w5e6htsx55xf4fpp2yyawlgvl9rt06u40nh9dn	7838
bnb133aw2zm2pt8tmlhplg0s074fgy83k3gthss804	7860
bnb10ajsuttwg3qd28qlecfppr2zl5nx5wyf735mt3	4000
bnb1prdkexdzkr5mhw0zw8nlysgt7wtum0r2eltgr6	7652
bnb1vgupxvwj3czxxvzc4zucswzkyme26exvxpvr5f	2000
bnb1krf8p9egl6jjxv04n4snt7z6vdzn276064h5cv	7687
bnb1epfnnl4rfg9pj6s73ecvr5enej8evm8djf38nn	7680
bnb1jjexcgjcjtl6nfrg6wd6tkhudu77jngc3fzrq9	7375
bnb18eu9xmmexvelzkgck5ps3jgt44c245xz640yc5	7008
bnb1xsmsnp7gu5gyjlzvzp4gzaxwdavhfpgxznsnlr	7198
bnb1eanr7w0saq2lsxlnc9uj96m7j73raykmdpu5wm	7242
bnb1afs3glmmxqmpq403p0d8xrwyedrqhn6u6gtjwp	7571
bnb1rnxzvqklz5j0g745gtwswacknmneepdyv7ke3c	7569
bnb1t57mhrm8hkakjr4ug3a7m8lzlmcdj8427cu338	7416
bnb1yg7xjzqhq2pcs97t0axrcskq732pvcsmwm6ac9	7350
bnb1ss608acpxq0wxca89k330s2r3egkpv0q6q076f	7454
bnb1hq84032ezza64xazq9gpye80lnhcc7vw3qdddd	7490
bnb1mqk2grkjethuk6gn7t03zhu8k4s9xcglhdlsld	7470
bnb1f82mh2jjn84eghn3awcxdhmjd6hmh65rtx9y44	7444
bnb1ka9wxyw3h6kmhyv0w2zc92xrxar9qeeacg0xu4	6422
bnb1q5xfyr0ajzk5ehqmez4l7kd0fn2ccsrre9jfve	7401
bnb1048mpkna4p40y6gmkcn63akw25x9xym7wkls0d	7275
bnb1c4z6fyfvmmpjk2z0dqfmue2chtfme5mhgqgg75	7313
bnb1u833delsr9qduepw0vtkmw7a6j5f3wr9zt665h	5814
bnb106vex9cmmy2kc70p8pqx0z60kxzxe9uf7qxm09	7268
bnb18r5z09yngwrvkm39x9ms536u36lenatmk58cr9	7298
bnb1s0t2zm3ylhfjhzlh60euj6wz4mrm97d5y0r9gm	6117
bnb1ml7hwleej0ahdhlags9netntgjavfc8asdnzwm	7264
bnb1t8f47y9jw78d79vlcl8qa6ldzgz562lnu4pvhz	7248
bnb1gzzujsh6mpvc4w6zdw65jhhr2etecaxewr6mff	5079
bnb1yyvh2s0uuwv70q2sjhdttmj57c85sy5432ywsf	7200
bnb12ggy287ecj5y9lvphwqc98ng4cm2g954jw2z4d	7191
bnb1mh7ddh08mfmrkd084295pgrny783ckv53dqjp7	7170
bnb1e62ywcgk2nv2fwy5nzy39puzyqj36f7n86vndg	7123
bnb10ccet2wmyltj0llkugty0qyjdzmxy3ug02vlvt	7105
bnb1dfcejdy6r0j0zqtkxhjl2r2zsyjagjqkk84ny0	7008
bnb1qpd0ejextaqcur4udqkq6zmsxuvacuextseahz	7081
bnb13vq8m2vmjr6e6p4mnsms4nca5zrs5junuzh8d5	7045
bnb198z6y8qndtxx4qskpr05jmkswv24g8fu84xrsr	7035
bnb1vr8rjqq9deyuvd65y5758zkwlcrkd4xpmcw4xn	7005
bnb1shtx4q0z43feef69sflzcezxar3u3gl380rr50	6549
bnb15t369umx5jr8pv62zkv3tgug352nf926atj3fr	7003
bnb1ft45l3esk4ynp9wyylqg2ms0jklvwjrhks29ys	7000
bnb1k7v8kdtsdrhqd4hdxusgxh6wgja3d86lnjc4gw	6828
bnb1kne5k8xu4pfwd2mrl2glctccpczyh77jjsmfu6	6928
bnb15dvcq2595u8ghcv6p3lnw0zxlehweknnygwwje	6994
bnb1xvvnlp02zz8lw02q5ay5v5cemsysm3h0lnqtxf	5606
bnb1h7mckj282hq7cq3exg6ah9444ythn3x9cld8fj	6975
bnb1y5m3jmqgg0e5v7n9fc3jcfsfg5eddvn32hkkrx	6967
bnb14q5pt2qkfvsx3h90re83mk6ve26ke7tr9u0y94	6889
bnb1dvnzlkm6czypyemf74ztlwvmuks9mp6zkypa8d	6866
bnb1s90uykywr9e4e8yw49l5l9qdj97yftjyshaf3u	6847
bnb1ma79dapf5sca0alzhedwauqchvrjdhgsgf8c6l	3864
bnb1ekzvfzjkn8lmufzqmrkxkhtweyyl084ulj39p8	6596
bnb1dxjvktecj0cxurc27s5lnena0fk30kunhxv33j	6518
bnb1wrz6yv47j0mcjuanalpk9an0dfme0gxv0vgxgl	6424
bnb1syvmm0t8jner6t9zx6jf2c3lswwm90hutt5e4z	6500
bnb1xfkr6thf6e88ute523n75ay5yx229lfh3j7pe8	6159
bnb1fnf9kppfa69w09vegvnxu7nkh8yw80yfhujr2v	6102
bnb136evdqmcpjfsehfrsvk97pdxs2xkgd6k4hq4my	6553
bnb1em9nsygepjt5zx9h75y05wgjluz8ywgehhc2yr	6515
bnb1ys4ktfsmvez02rnptepak0sajvgjtnl2ygejse	6501
bnb1fr2z42pvm8svc5n5sv008qwjhvt65ruuxl2t27	6456
bnb1frz9tjmt2jl2a2ud7elnhyz6nq5xgupe55htd6	6415
bnb1hsakn8w2qu6eud9dfang26nhz2g6h32psh9ldn	4480
bnb166yh56yf4e0k9rjq04afga728sggl0czt8nrrx	6367
bnb1tgx8s4h902uw3vrky26serlgscrjuygazp9836	6317
bnb1kgswu025w5temdlkvxneezv4pz8rcpj4d03rtj	6316
bnb129qq0cgn3fjq384qe2zde56n7klaf8fp7kdp9q	5814
bnb1ypl77fddyeqrx2h2gpkq63ztnulta6f65utwzw	6240
bnb1lcsrekgqrt07yl070d22l8q7ajuatc7jmaa4fj	6264
bnb12a8u8khfq78rnqytt9lhc9f7h9cyhf55qy6rlr	6263
bnb1zj6pxwk3xg0h9tkt23y4ztmmfyejds55aavjep	6251
bnb1x9k0lkkf5n2vqj30ktsrh6glhdg4nvkg0wcl8n	6192
bnb1uupqv4wh2dermzkxvqftfwj9gf923u2lxf0ya8	6141
bnb1z6z77keuq78zmnm7nuvwszrcr0fsnkncq4stqs	6048
bnb16sydpwht9zvvehyajnctggy3dm7yfhkrqfvr55	6166
bnb1f089ur5umd47s22pzta7cmu6cuz7fdk6uh2p0p	6117
bnb13d66p2zsv9cgrxnegtdyfpsttmsmxmux6z38ly	6142
bnb1pnx6ngvg5gtfkg3k7xv7wrpqakkuyjkpfmm0ku	5814
bnb1sxg7389ldm09ep8jq5469583tducxr5chlkvzp	6000
bnb1eayps26vn83lzr88y0ftz475yw5m9jel5wsal3	6000
bnb1fkxlpy0qvx5jaapv2ak8he7nys4pg9lc969jn2	6104
bnb1chzql8hjjh93n2w946ytknf6f3w5fnqys278zv	6090
bnb15ec8kt6uqpjnf0rx2ertscyfmdq39cm65ms4aw	6065
bnb1q62catxmf7kgq5a5m27zqqauukn3n2my499hkp	5870
bnb1snyfc7jva3fysulp90jz46cgdh5twfy36zfcfw	6030
bnb15kargly2atr90gswqsv2weqcr90l3jrugxqquj	5905
bnb1dz5uzppd8yxpcw0eftzffgsvxj6r9crszuzn40	6017
bnb1gvnneevr42ree4ylsh5sd2f3cqwrk2kkpy02j0	6003
bnb15znh3ahlmfhkf4zcmhdyh2zsa6s0xa4rt4hra9	5865
bnb1tqetjwr6q40jd7gafu9vxj0k0f2uah4mcjgvfp	5965
bnb1mrx8f6tsn9lt8n9u9j6924sw89yqglemr6wlz6	5923
bnb1qtwvvd7gfahupmrmcee7a0tx8lncmwxe6r2hcn	5868
bnb1z73qfvnue5uams3w40yaczafy7pwv7f92rese7	5663
bnb1ptu34ytjmsjhtpds7qhq7gzgs9tp9dvxh8z49l	5547
bnb1zhpz3tjqq7kc9dgycae7uwg3lemtdf5u0y7dee	5813
bnb1qt53uw5r88uhhnla65pujzgaa6pe6ll8pc7e3v	5748
bnb1r8n9cqcd44pkzrslllzanzlvreev40hy7nastg	5000
bnb139cr9zurcygf9u39rvx7a2a4gc2mv4ux64sgg6	5729
bnb146x07wrf6u4v95h2eka34drk8rwncvm9s8n4hy	5698
bnb1wp9c5slhxld6mpnrduzy5wydqg0fvdrjwzu6qx	5641
bnb18yuzq552dqwfmcur957n460zq2svksaexnwrmz	5562
bnb1nyqgeqwaa7payeclg72qyzyucvugl8n6a90g39	5264
bnb1h9zxfev58qxjf435crjwc0jp4yhr0x3289j6f3	5584
bnb1ee26vcmxqpnjj2zkpmaaa4jsdx8dev6m3hzgnr	5577
bnb1mmgsjknn7sqxme4vy34mjmlfm0shkyknnhmcyy	5512
bnb1j8zng9ev6rmct3wpwk9zvuxxx2neny3fspggfz	5547
bnb10h4gm9zpmd250qgq8963mpqs2j9y86njuh8sar	5503
bnb1tr7q5lgu58n96rv57gdn4v3pp3mv9hhv87n6tv	5466
bnb1cq2xecggftfnj9rrxf99pa2jtmaaewsedlugzl	5461
bnb1jj64n7p6gsmq6tcnawxnusgfzj534fhdxhcnj5	5445
bnb1hhlelez4vkd4n2cslhtk6tnr75zmq2qp2lay98	5429
bnb1tnrsm5dfwt6yt5ejqyz0hmhpnfsu7w3z22x59a	5420
bnb1uprrnkr7yaqlepgpjukl982z3lx9y2es2zjtdc	5376
bnb1q5a7zef4ly8dp6nput8n8x0wsm5cetf6cf0e2f	5348
bnb1khffuuul9u0q4mxjt3la4qkj0ekn9phdm406e5	5316
bnb1phxxwsspgf8ecer3s62pnpt9hpnsmtavhj2n77	5349
bnb10pqd0gkpmpluspf2zjecdq4v4ft56vdx2adsh6	5339
bnb1ut6xy0064gycl3c7f3g0jxp2qj3h2quddx6jqz	5256
bnb17rmmhxv9w07k465sfsawr5p3f20y0a86z3xx9a	5300
bnb1k0pcvcevlzckucfqveypm6hrmd58qy62s6hdah	5283
bnb154t04gl76njvlfkukthqwq3vhg4l6jy940c070	5245
bnb1wj5zjupnll38mervwwe9ghlc4adgn459m9p0kv	5204
bnb1rwvch5d0f5aqql50hfmxmhjagfhnmnf9gz23jd	5163
bnb1h2re75lvcxfx5y99gzqadeucr462n4r3kf0jgr	5249
bnb1fl0zv0xjhvpg5sykcau90kz5aj7jk686ak0jpt	4868
bnb1agnj3j2mvctxh5ck3d8t2nve3f3sev5mrcxsvm	5160
bnb13237ejj35shsrpsx4n8f6t7wm7f6msu3muuz7y	5153
bnb1kczlxy5d9yyymgduh7vce5jvye6wqcv238nkla	3283
bnb1gtcvdjs66ayk8ftal7z37qgk863s7wyhzl3u3x	5176
bnb1zpn7fyv9kfrvcf7xuc09qmcqgsgwh3hm2mxfsm	4987
bnb1dp2ld8ljne45wetssxsz6ufj7kxyw6d88a3z43	5133
bnb1h4wfr2ppjuq8f00nhqjrglg03y36hpra92fya4	5134
bnb1efzu5w8fqr3mdmhmyax3005lerekmwadtygnyg	5116
bnb173gml5cj6a0x3fsm0uyp4vnp8gr92emtzq2a40	5115
bnb1xaygypct5fdk6relc85g9kup8p4sw3k7qu0ld9	4524
bnb1q0yjlcn33jjah5dur0rupc9f7yq52edjkzt2tt	5096
bnb1pvsyl26k324ne6sn6xu9en9gmzcd84lc84zzw8	5043
bnb1rtjc5r9ufr70u9vv76sy4p64jgavpkhqla05fj	4713
bnb1upw4segekv3pn8y9p82y0mqk3ac8yav9c6n87u	3000
bnb138kf8hffzye3fzr93426dnk8hz3f0v2uy3jws5	5061
bnb18g7ulhx2eg9uqc6azt3psax36msdkkpd8p2294	5019
bnb14pxmayh44ygftyzryfths26s97n9mvsedk2s45	4989
bnb1eyr7lxsjg0367zs3kwsw7zw8ur2srku3g4g8ap	4999
bnb17dgg2uuvqc75lg437r32wzs636fwp6xkmf3396	5030
bnb1l9nu6l5lxgyhf39jlpmxyvryg3c7ulrfvc7ws0	5031
bnb1vv7j6lmayly5qpamfwew87spp35z2ejueyt372	4949
bnb1p8txksgk2c8fw9dhwfxhml2vzeevmgr2nd0t59	5001
bnb18rtwuwfsfa4mjlt0v448l5a8p4yp8w8dmy84c7	5000
bnb178ffmj7ce7a7we365fc45hgnqk4c9wte5c8qfv	5000
bnb14wlhs5dfyt3nmmqyq6cjedf9m08jmr0yzglawn	4994
bnb1xmym472xzypg4mxetwqcw7wn55wh5pekll3w9g	4976
bnb1egkqcuk6glynr7qs7n75s0zf6rvn6323em48xv	4842
bnb1qefxa29rvsh2wqe4mzn985e0eekp4gteu3vs2x	4931
bnb1ktzst7lsar7m3jzx47hnwpyk23x2f6yzlfayp3	4917
bnb13j4xwtn0puedu20n9aphmns2ynflmk5g9jtmae	4814
bnb16ajuf64zqpkkw0kg9g5e9pr508egnech4rrl6n	3193
bnb1qqeu72wnj3g6rw4qp0q0uxawpa82prfc6dcsy5	4852
bnb1fj20x8zj66kqnj8tpl877dy25ktxdx0zpnl5ev	4820
bnb1cje5z8ttc4z43ffdhr5q89ac6u73vy2qyfj66d	4841
bnb1zfhr5m5c7lja465s3jflsjxvyfy0lznxpz3vcf	4404
bnb1tmypdtu4z4mzvlpz60etmnecakdy5yttxfz4gt	4500
bnb1t4eq9ghwf8xcmzkuvlfl5n6pp5d9pnxrxk9udx	4797
bnb12qyay9w2fmp6qku4lqr6a5l8xkclt79sypfzx3	4602
bnb1qgkwn7t85cavj9dtyjl54qhztd5sdgzcgwpxh3	4735
bnb1qpnvnvggzqv72vt6gdq88v9pcj3hzsxwlxyvtf	4577
bnb1v9dgna23lmsn437m57g84rw97dyhn7xmddztp6	4690
bnb19wsg2zjt5t2aytjjteur9lnch0ex306dfenlru	4678
bnb1553zyg28j9pr7usjc7cx5puvu4u7znyhj4pmm6	3950
bnb13hy6gge00elf4hx5l8msazyjvr3xjwtdf5d69n	4637
bnb10smwlawalzz2fplj5772ymj04xx0slt52tsv80	4566
bnb1mat8npzxpzjm4dzetq4vj23lye6wwe23ln0rq5	4658
bnb1ztuysyrfhv866rtac752g0yslkxuetgkhrwj7r	4653
bnb1ueka8sht9jghnpkcqcmtl2urc04d3gqmdrz87k	4549
bnb160pjusqjedxmrzcfg8yj8hxryezjknlvfdgue2	4622
bnb1fmsyq5ykl5vk4p55vzf68egvu5dhzugr82278l	4498
bnb1yv2d5jap8dnrns5aghgdne3xjjpfk73r87a6na	4557
bnb1plrh8y036wnh722lsc6ufx7lazdrz7m66tdl7h	4490
bnb1qtl978856v9864s6npal57wu08tyn30f9npr5e	4480
bnb1a0al7thhcamhm6069y8kzjgffwh69xkm9gwfaj	4468
bnb1w86r3c8s3h2gg53np4pwjxkkz587ywf2al4vql	4501
bnb10g43tekfc3ypv3px2h3jcjtv5chy0acrhyhqkz	4462
bnb1t9vvw0vghgwcv2u3qwfhg2pp6h2ru5hmnamtd0	4453
bnb1gu339509qec3n3rvjwu39zynm8v0z67cp28awh	4162
bnb1uv5t4n48990qxsxvg3ak5y9trlt8ujuva8ese4	4447
bnb1xcmayyzgmnxmys60adkyd5uzfentes8u0alx28	4424
bnb10ymuac5fgyqppageqq95mux2p2aksyhhw72c4m	4432
bnb1k08kd58jjfh59wutxcy3n9p8f0wqmcdy67442w	4356
bnb1lr5dhyke67ms9mxk33z5r09mqdeuml5ck7m2p9	4280
bnb1hwhwyhjya400zd55c6l95s82s7g4xdtapaa8v5	4318
bnb1jk4y5pztvngl4exxepqyy0gtzz63avcx9dv0ut	4373
bnb1dn4eydu2ggukvwz5lzegv8sk7r6636607vf7t7	2100
bnb12jzza498kdzd7hxevksddq2m5f3f9ncjgfe6m4	3964
bnb1d3f0apadnml60vnklvsacn2us4w0z477xujzkv	4288
bnb1396hn59xgdlv004najseu7cjx0kdvye8xhqqm8	4160
bnb13emzrfrljh50pyd4ua6lcrrkypwjh8x67tk7dj	4252
bnb1q358qnlr880mx45tz8xvqqpqmup5maraqqnfjc	4248
bnb1kfmvygat92s6dt238utqe2kv9xygvsvf0rwqxx	4184
bnb1vz723d7nxhrj54xsrtcy9dnwlnhgq5wjejjyu5	4202
bnb1hph5vfw7ec7z6t6mccwk686c6rtm64gzxx8p8j	4117
bnb1x5h86esfpxfn074m47wshlum2rp0y2w5jd98d6	4058
bnb1se2sdqzymk2qlhy5atrmw727zluu3zupfgwryz	4167
bnb1aqjys3p6yp4f2fl448p8rdm68mgh0hsj9dkvtk	3973
bnb16q80ym3apgr7ykck9qmmxe00ee2qsyqqk2ncjm	4153
bnb19qeuunwzlzllry6jyxye7zf2dxrc5lnq6zewtd	4149
bnb1xwya2sm28qvfpapuzagmfhylr665a9h4rgavs6	4136
bnb1gja7pecz5j7rflmh6axfs9yefc2qldgnkhkduc	4107
bnb1wuh90k7d26dl7jaae36ze5y6mhde22kpej53yg	3974
bnb1w554tyv0tq7vdpeazqf5v3805meyys5r683ua6	4051
bnb1akcfv8hs5nhr2wakc9x7ylgqshkrgwnr7nz835	4107
bnb1en9uu3505uy3g0n86w3634nl97akm8ypkm6p02	4097
bnb1dpdv863strffwpldzamp8mllqp432e4p6d82yh	4066
bnb1mjdse6xxfxxfl4z8tnmdhaxfj0vjlt2q0hdllp	4001
bnb1spnhphcn0xlwjqcdstrspqagdmjrpq00skklxu	4015
bnb1l0uwgmzczyy5cl8vgwed5g6l0nj774lxts3fgp	3143
bnb1k8r4z29gkhjsz7pcxmggq4je04n4rghq8c3vaq	4055
bnb18er3agrgu0523nup0qytqs52884yf4ff0rx4jy	4041
bnb1pm9qgxhm6rpzecx9ppczyd0hmye37f8u7gqlc5	3961
bnb15l5yaa0lnvtqjxzd7w3ft4ht8ettz7gjk7rkhx	4012
bnb1ctrzxljmrgnnvkce3ajlj5yaml7220znq4cd30	4009
bnb1lzvumkuhr5zavlarq2xnuncfm4hhgx49wh7v8f	4000
bnb1a042j5f5gmp3v0dpuhh9j0gqyazp32k0uvhhxx	4000
bnb1j0prr089n82c5paxmvfy8mgxeeevafp236yz72	4000
bnb1kd5r9gddely33s3a8xug2fqzh5w9nwr5f43284	3967
bnb1yyyhpp4q0apn4qeuyqqrx2jueg2c587wf8flf8	3982
bnb1f9a3mwatucs39qxwnghwl90nqp6kg5atgxfs5x	3954
bnb1yv5jphllhsalk6udzf9uxlmgexy23wk8kxvz79	3903
bnb1jct8xysussj3k52vvx5m34ehatvvqfz6zf0vmc	3913
bnb19m6y6vgstywp6f99fqe334692e94gd2g48kfcu	3934
bnb1vhxgdg8k650awk8v9d3fayvuratx55fjra8hj9	3828
bnb1uqv5sl9wred4egjlyfvjz72t744zrw5c3t8x5n	3922
bnb1ft0mvnap9q537dga53vuvju86vvdcy0gtcwy9e	3912
bnb1ynwgr2jv6pjlhpx4gj5p5fwt9jjp7mdhvrg84n	3811
bnb1q6h5rpeaw0plfg5xtlqq4lkvyxr02f5fpeq8m6	3837
bnb1fd2agxdg68sfm44usad4yl866r46h6u990thc7	3885
bnb1v0qu6hqz4tzgpsae568p92lens63vty02clpk0	3767
bnb1rn7lhddkk4ezwff6wszpzmm42rpfv3c26sggsx	3757
bnb1xdmqz3l463rc0dg2ss73cxksvnpwd7y390nsjc	3808
bnb1l38vlm7rwrgy8gx7yzp9wkq55r76vasswtv24u	3807
bnb19s3lhefzjscv4kzjetxzq0x7v5ey83pgw72vtr	3796
bnb1c7zwzen7j4cyeyv5ruufa654sr94mxdype3t77	3780
bnb1t4x3tykyugz9jxhtm93ksamqyh76swpp0hrj22	3620
bnb1ghn7dkypm3y2enrqjx827apvsrxtv2cz72mv80	3269
bnb132l7j9g9e2kn6wxw6mfgnzn79cjzarxnpkjhgd	3754
bnb1dwxpxgc7t2yt0qznspf30x9ve4676rjg527vkc	3752
bnb18fx4jmn9p4egh8yknkqtf36hp55s8qcsc4kyjm	3699
bnb1c5gl3stacry8q8g49fmcqy7j6dr4sqafxsuuep	3457
bnb1s8vrujk0s7dpc8nsc04ka48z8ymsdmf6zt2sqa	3717
bnb1sgqpm2a6nw0jeaxt0zs0watr8put6y8tcsgrw8	3742
bnb13n4a3lkjl4u3ec7s3epxl9y4eelcrek0mz2dgm	3736
bnb15yt4ymqgawgngvg5r98kr0v3qssqcvhqqpsx5y	3605
bnb1recmsxkpzqcsh92jh9elgnhhyxkspqqg974w7u	3681
bnb1xe2jn2w6gefd3vk0zalckm5pz4g95nc3sghva0	3613
bnb1h3w75dxzzkpt2vzp6sq4v6f9uj9cf3z967t54c	3665
bnb1k5ktqwcgrf0nn763um2mxvskanjpmrf87fp8uf	2940
bnb1v3w2ptspghggcfc6nclvzawg8vzzeasmsjpt0h	3616
bnb166pngqahg6sn2z27ztx9vrpv3nrdgahlfddyft	3578
bnb1x8a95gkq2h0pnfwmusvkgqvqgxgrpujzamtp2e	3567
bnb1w4g3w7p0dawhcdtvvzf69q9exnj727ltxjv5ar	3550
bnb1w5nj7vtfnc3s7y0x8t6pv004vpcsnkj8s9460t	3561
bnb1lz49zywjz5lhykd8z5da9vjtnhaklp6td8xvcp	3521
bnb1p27sdg30e7ls06jddr5xnjhzp9t8cmkld0303l	3474
bnb19q68mfm0rvgfrdsnu4lmld6atmxcxwcdm3687j	3472
bnb1hr92gkj6jdmcaqd0z0msury9e34eewmmuc4wzt	3462
bnb1r28td6ewqnx8szyjlaw9nhpeklm0af9yphnkns	3274
bnb1pj4lhjtapx7ghcrmgay3nf728rq6rq6d8ag4u7	3437
bnb1lc2kln7ny3twxjrvcsgq675rdxtn0a8lj8uqjf	3489
bnb19dzumq8qct99e6rymdl3pu0c8nnrdklt2efu6x	3476
bnb1y9q6z5j3ufsjy32h2sn0f9ts0032hfqgvlwqt3	3336
bnb1zpfnz57cppn403kr0k38q782zx07xtl77vfa5q	3472
bnb14hdkv6dvs23gn06mazvyg7x6akmtw6h6tfnpnr	3468
bnb1fgy4nk0lhx5c7lxxqws84nqcwjqv6uruuv98rh	3450
bnb1ltkqqar9gflzlsufftwn0ncjct4gd62h0qcx99	3035
bnb1xj5wgwd9cjcmw8mhtqt2k2g2ydj03pkufk9ceg	3405
bnb1pyts7zlezm89vwj27tu3cv4lnfezm6f5he9rtv	2606
bnb1s5h9kmvevmkr26sud2g272rs64a3ddsgxf365m	2951
bnb1v2uljghngzw5xltnvjfweatqvt2vd6at4ynghm	3310
bnb1ywgurts4pkex7x4lvwqf5f7cpy48vfxdzl62z7	3354
bnb18w97408dmz4gsgrg6e79svpy9tfyg8lm0qads3	3302
bnb1zg7venh02tuc9zdk0dkl88wlvyaskud93d7ql7	3204
bnb1034utk5uhgyu2htmlzsm8z9j3vvc5ctyd9tkyx	3351
bnb1avw0ahyfrfqe53espmtzw63aj0awxnljq83vj8	3348
bnb1axkk7vnrgc90mcjuke5cfwypm439kqmff50u56	3251
bnb1gnn0mvuw5j8e50g7mzwgsrchs70c923ddnpqvz	3332
bnb1ax2ul3arcdtfuge6fpl0p5qtlf9jq3defhylrz	3322
bnb1jluwr2nl68naxs9nvx0mux6m2amdy32atteepf	3300
bnb1vypf0eu778wtzwn4t2sgwr6sdm5h925dfcwqep	3206
bnb18vdvqp5h983wd9dzc94p5t9egrvt3acv7jwc5h	3243
bnb1u8ntsgndkje850kswqses3h26lx5ckd545gc24	3233
bnb1fq2vkxzltczwm8srgtlpqph9jnurd8e42gjyr4	3000
bnb142n6mffcr5nskg66nnjh5x38rvnuqwepl4elhd	3202
bnb1lm58g2mklrc0x0tvxcd5z9vyx508qpp5pfejnh	3169
bnb1a0tq66zdxraxcmvj8h037h449pq4wrxn79k8u3	3143
bnb14rg9ev58w6d6sqjn08erzxy820h5003ad7emk6	3158
bnb1p60u40ln46hurmz8708xhzakm26z6r8y6ny0fv	3131
bnb1xqc0tgsu0a54zrpkmtsmt5dth4gvjmv42xvw78	2460
bnb1rh5rpn2g5n5yy8rgytj9rtpj5zfxzd893a2kye	3108
bnb1d4vkzqwutcfahzc3thuvqsh8kjdzguqhjrndpu	3104
bnb1clgu43mv592tz0ccu222xygxy0r93asvv2whxt	2966
bnb1fhcn40qxpm4jxf5xrpk6s72xcch0fynphvy9e8	3091
bnb1rd7t4k6s3ffpkv9s77yhq4lmmjc7dvcac5g7vq	3001
bnb17yk72p7sl8jjr09u7xmrhn4fqdkg46l40fzpxx	3006
bnb16d5e3lehpcyranw24nlm4sdwpjl9rltyzudysq	2995
bnb1hjlvzem6zhjllhfektggrw2ksy4js4pe5tny30	3026
bnb1nyme79kd0y3zxgsxldn3pxp7vg0atnvhqkfjjd	3001
bnb1h7p5l9ft3lu48wexad83hnqc5uk7rgv44yplxl	3000
bnb1j0aa2ewgxtw33jl66zdex5zwxwvpqp9y0zcw43	2989
bnb1vxs0z9pgl94me8tgkvzlg0eqm4ueqpnw33ergt	2986
bnb1avr92rvq3mhter8h52jhjpa9eafhm68m7da0py	2912
bnb1vyefc6nhkcxl42j3jekv237glv0cp5qtty4vpa	2969
bnb1nrxd57qcpp6mafuzrhjz4yvyns7psuld474adt	2942
bnb1wfvs5wr58efkvsume0fhc8ut2xgxzqtau36nt9	2950
bnb1t28tus7qgkqnqw9wem8x8s0ajs5geuy33dzv9k	2939
bnb12953mal7nwzc54wddzfg9x0w2etmw853pgw5za	2725
bnb1ny55md9z39kd0s73qtz40rfun0zwy38m865mqn	2692
bnb1zdlqxpmfmu3svsnsqtjudq630d4hu0ag5zqu7v	2877
bnb1dkwqzquwyrck6ka2ffaqjurreaxpkz3n2lchc3	2865
bnb1qk2e6dayp9g236s84s5dwgacnxsxz2a8h4kkql	2808
bnb1fg4pg2m5p87qwknpaum3ht78yx5exh7tfujzuc	2623
bnb1xa9w3hzx88wclmh06uvpa7dpzseyp9sh60yzzm	2785
bnb1lre0y6f0apnfxzenan8atr6pkrnrh7w543sppm	2758
bnb13v5hrpsyq33x96u9gccnf9602greud6svrwxgp	2788
bnb15r2pd66m20cgnvjs08cdh2p3xldxs42dxan3sd	2744
bnb1nypc574dsg9nhfg6ck6p7lekw935qteu9gccnq	2654
bnb1m6xvdl4mdk0neq4c5zm9w87z794j0hnhp54d8g	2727
bnb18ftvh5e8nkwn6468ay3rdhe7ja54hks9aul7gh	2714
bnb1yxetku50ae0chd2lunrqft0f9w28xd42jsvk7a	2650
bnb1fhks7ldzcafh33e683hu870me95dpnu3kh5f7y	2687
bnb1y6glsj8r794danpu3c3zcl4z68v2m5yt004mz7	2435
bnb1esvguccxrrwf5njfm77yumfntp0zv7jz3kxaye	2670
bnb1z58phvt6yxpc0qlvd826v7p26pc7z2usttanyd	2667
bnb1prczmw9ev6sweg33ggl7ctmrq2qwq87cyk45x3	2591
bnb1mwntftfjchtfdty5sh4rvanm7vemryyz9xh68r	2622
bnb1s3etjrmlslq253m4v3qw5sv8hz05pm3867ym6g	2607
bnb1xfhpu033020t5npemnyt4yx4kq9sdpu6hvjcjn	2619
bnb1z2wq87trjw0dmx5xjeurx2n47k4pt9q9ckxpds	2618
bnb17me8hh5hk6dv27mz23384jntn5nhml96mvxc5a	2595
bnb13crae28mqy42ltxty5r748gfemjgluva366ayr	2591
bnb1gm20hstancmq8d5h35cvcxtuq7qz466mh7fj58	2598
bnb1t4nac022fxhwpz7gpwt5vvvjncmcwf73gda5ka	2590
bnb157e26v9slx6durmmywtdy88t30el03ngec4u6l	2572
bnb1ra8awp7hlmrwpmtqmagp89w0j2uv5625m5axmt	2529
bnb1gymdamn9can3epusyfg966s5gv9jy909ee48z4	2552
bnb1pgmehltvkh3ckru35h95ul7jfrlu66lkc2lcts	2499
bnb12svujs0wshaly8emjqmwxuxv4uwa3kvqve6s78	2516
bnb1w9rlg3dst6tq58y3zn0eampmdjwl7axnac74ks	2550
bnb12f0p2wn8whmykymundfrkua6xrzvxhl5mu8dtv	2000
bnb1n5sax29prz6d5k8adpq6v8kr6pm6rl8rp5sg0j	2456
bnb1gewz5qpn70tk2shk0s6zemrpgfjv5qf4cuj30d	2200
bnb1xdfnxqp9cuzcslkft39ny6rwzeulkx6lfk27az	2500
bnb1rfv5zvax993flc0a3qandng5lfp98fjxhxk7vq	2093
bnb1pvrl5krjqq7tf5mlzwrp3lm48n6h2865mhka4l	2499
bnb1wdhgtcyxtjwu2whnrv302jejamf4r5xxgs8njh	2349
bnb1cq55803wck4nwrp9q0yaefs0qhuq62n4lyk233	2494
bnb1e9uxcsx2kerpm7fza34f20nsq08z68rjjx7pp0	2484
bnb1kc6ewjc0ck3mgpep2gakhykp9e2g5udw275lss	2484
bnb14gx273k72u9rh9ue4ecfpeu0yg3lglt5cp5z7d	2447
bnb1tyuuz557m5v0pyupuz6qdf90l37j5fwz48c8tr	2473
bnb1n054ad38a5p274kz0uxuvwg7cv78w3xmgve30x	2471
bnb1fmkjzumctnvdn8udanm3t9c9h5mxyv670ds2dy	2455
bnb16zks743gmwftphaw98f4m4mke2dtshdr2wg8he	2403
bnb1qq63jv6zxw6egj3ddz9kmu58fn3tkfrqdg0ahm	2293
bnb1ptjvg3lllcln965fxcvpl5revt2fswktsnf4ld	2449
bnb1ta4uufm80a73e5qw2wl8gxe7npjjwe2aufkgzc	2256
bnb14j3qrp0vhkh07xqehzdfnpr0xd5207zjut7vuj	2430
bnb1caely7kauyu3rfqq3dhzajagzm8mrqvhtat0v9	2377
bnb1j7ujprl0eu3aej3rsw4m8vyz28xgd5hfrgfc5p	2387
bnb1m7demsy6kkhny5tj8vypsagx246lqgn84sadts	2379
bnb1m0ltn8d0y9eajkh09w5j6hw8r8554wewr0aumm	2310
bnb1t3xemvj9ywjhq7vjdlzpafed0amuq9v5mmg5gt	2040
bnb1yvrq3km5y0mjh7yxjy00rjc0fm52fnlts25e9s	2350
bnb1qdkakrwdhe0u6ky3tghf3lsqk0e6waytgsan55	2342
bnb1rn4xw9ptsd08g5gqhqcq9dmp82sn6wrgwkm699	2300
bnb1vu7kvfhxpkgkqqv09uh3vvkrsne6k82y03l3ye	2321
bnb13hgchg6ndnavaqcmdqnctpmrrqzd30jfp6tmcy	2303
bnb1ml7gslskcyz8yp7tqjm2aqyjjlry50map9s5k4	2313
bnb1h8nuzn3sh5kmkppqfrk95z6x48apptpmv7cvx2	2250
bnb1yv8q4gtg6sdkvcdtzmamvgr538g78ey59c7h5n	2285
bnb1s5uzrnm943c3ruemf5ga0vrp0x89mtypsy5p83	2284
bnb12ygrszzaf5lgknwvvh00pmcgejyvkvkfm608cf	2277
bnb1tg2g6t5v0zk3e6c30m7uszfy62t60es5m9zpzf	2265
bnb1gmkjpg8dyzq5yy3gjcudlfue3nxt4rzp9nfukf	2256
bnb1kg5wpqz242mhhxxqx0xmw3xkjl2qn3smaw2j0x	2206
bnb1tccrpfmrszx9j2zun8x7fueyvkzraz8a0hdw7h	2233
bnb1hfcvzk70fvjdqak389y48qpd05jk9wpan2rtsy	2227
bnb1pfqla3ms4mdsr4vkj667jnlp3nn9dxw65eqcqr	2213
bnb1acau8jqply742jzgdmuqqahvlfsv447n867fqn	2206
bnb1h7x2gnvd0gxftd8nfd6h5c4wyjapc3ae55vd52	2191
bnb14zq68cykgw8m5slkmmq8jnu5hsv06fh2zjlwsn	2000
bnb1ejw6v6kz8hcw423v29yg2fmf7c37nrwac5zlsx	2151
bnb1trenr8qrm3sz5xg9tcsnu9yf4y559w7gyt42xw	2119
bnb1m8avjzhzc0z9hps0ygcd5jw2csgj9nsn282uku	2050
bnb1awjz7yxpzw4yvxfy2739wt58nztcsta84edx2k	2105
bnb15hztq9fygfz4s0dxs7xzz9gd8029y76uarg3qe	2100
bnb1xen322z6kfdz4mrqhexr744c5khsw7uggh2pe7	2112
bnb1squ7c0m4gsclz8a3hm2xfl3zx7wqa966fhax4r	2082
bnb1z2az70sggtsxy4ft8jqlae59gzn08dk8s82ttq	1864
bnb1d5uxyyk2nwlkqv4jqrklmljp58zdf0dqwsk5h5	2086
bnb17hwpd3n97skq9prfcc8f3wstafezvcrmza2u6e	2076
bnb1spnwds2heut7m0j33vz3tl30ts0f32lc9exwr7	2060
bnb18uq4mdpuylhj5c95y9zv4vkuh9th8l52vsdqw6	1998
bnb1mmae0cp0f7dtcy34t9jsr37fdwtge66xsrjpux	2000
bnb1r8lkrtutlc4n0ttz0rzlfmlz2jj033lah5syzq	1963
bnb1s4cmttz0vlz884x7mqrc47wzm3d7nf3snxr0nu	2000
bnb1nsd3yhha6cq54qu2g9cr5z55heys6ehydppgs2	1985
bnb1amsjet7uwp6xf2xumv0ahgcyenaxdpnhug8rst	1975
bnb1ggnjfl5dplmcr8j44z4x6gfwnywykygs2tr2ps	1981
bnb1632u9rhkatqqmrf4y9hsu6kgwfnfszvhw940gh	1980
bnb1la4teehyfe780muh4fzvrhrhks0r6f6vwjfnj9	1961
bnb1dny7u07ht7k9lax8j9ptez7ey69ype7jyehpzc	1510
bnb1nxfk6u9h887fd8pza9xtwuyxt0mpzmt5pgj7n0	1958
bnb1fmjccwaeqrwlx7u4fvp3qldh6gx0hqj7vfsmqk	1561
bnb1r26gq7pwap5kvvaddtrsqcez5tzr5pg58fvq6u	1910
bnb14crt47qpu75p7025huhekfeql53ss3tyyx8cu4	1895
bnb1hv4gksf79y2z5znmgyqj8cfxy7qka5cxfls750	1908
bnb1slxfwsr9ex3tury8qp9lnsvta2cza34hgdtun8	1526
bnb1jgk2maa6p5njc296k9m2jrfj3j5w9zguywvrj2	1895
bnb1ujt90k43llx2gduceeqz2kmr2l7jfl4mv8dtsl	1768
bnb1zmyu37nv7cy4dv8u2jevxdsn2kw4m83patqp9k	1753
bnb1vrua95cgfcx8ehdkuq94s6l7atm099jscy3gfc	1879
bnb1c0arx8596ccduwtxykhnye2z6c2w8fsjjqj30d	1789
bnb15ppvh5czw698yqkffxel608p5kdfu4wdqzarus	1862
bnb1qwzut3t3w2l54tlfdpcqvvff6f87ds53u6x53c	1823
bnb1v05ckslevsm56ekezhqf9ldkslvd7zpenduk50	1844
bnb1d3ppen03l4y9scxvz5p30j0x25v9k4969rvaw9	1490
bnb1z8z62dwsa7s8nt5k0453d5kz7y8djt52qzdfvg	1000
bnb1raquzyk9xhq295em6mg5yx4h304vcxe47wsejs	1835
bnb1vr9tqw4lg6cpderfgyuqhpwzhpt4l2wl99t9yy	1834
bnb1e6nmnnr7ft8sgzrr42h6adeqjql3rn5u8g0jzt	1817
bnb1l6j0wqc2uvn530qw5zzvdqt0jueppy7efquqns	1822
bnb15x56utzc3zqstgkv6cw9pdc8um66ytutp38qe8	1818
bnb1radxtvktg4ce7snuyfkz3gv6j5xckeem2nm6mx	1785
bnb1ket3m3wel0pmwcxl53t905s3eff6pr3hwgwdjv	1811
bnb162j04v5tuhhr30ynlfgnyv3z3k59ena6qwndzq	1767
bnb17rgya8gw4nnelnlt342y5cm6sylz40upjc8ml4	1772
bnb130582uh8n2ng9awhqh0rmxwd8fzc902yg8yy2z	1771
bnb12s662u6ryddwl23v8wlrfdhp2lk3wk62uneakl	1753
bnb1tjryu0d4typp6j0k7qkvyr96hgalc85ea2sqjw	1752
bnb1qxz2sdq0nhctjnq702m555xwx508yvlyrcn0jn	1
bnb1r04p29xa834hckf4pnvuy22dxezm32tfl43klm	1748
bnb1jgc7ssz8anqmf6dktlmy83kr7ar053qkf8nl6z	1534
bnb18c5xhprmkp05a2ke4fcmskm0yjlygyysygzfss	1732
bnb1njy6u7dyxs482ues0fzfwhzndpgm496jr8lpaf	1708
bnb1e3ss48f3ehvgafnfyqqsu227fxsqv73lqjfzr2	1696
bnb1wz8jf3lwwpdzc4p9cmst8d7wcey6ll5l0d32q7	1702
bnb1pssc9ptklja42y62vqgc7cerepjm6kznjnuth0	1694
bnb1j9vqmqnwa88x7ewfk2g95w709pttk33aqwa55s	1670
bnb1tydge2vnr8evq73c55thg76zl320uvsg5efvhj	1626
bnb1nd4g23dllhy74qcsdqcrtlal24vk0pqkjz3hlf	1662
bnb1l4hflash0xtrdeju4wxn8lameg69fw5heed6y2	1583
bnb1eh4t3pdectqku4t9c03e4qsr9amgnyxe3tft9d	1641
bnb1zw5c0vg4nl9pfgg9h0dhfytpzc8mmncd5lar09	1631
bnb1m4mykwuvgjv8fea4vregpwwj6t8eyc7ldw0wud	1640
bnb1mvfg0n0437zgyyvhxlvd787s3vrdjzg3hv00ya	1617
bnb1aml58tx45pj6esq7ykgn0slsf2k565f2gwkvwr	1634
bnb1uhw3vta46y6ymvrg8xsl2tnuqae5d4v6vv8a9s	1300
bnb1m70z4wre5uuw4m7ru2asc2q2tuqfrde05773le	1628
bnb1uhlsvhf4ahyr5wz55st94erm48z4rej06e9kg5	1623
bnb1r6xxc9ufzze5n2hlt2vq5j52wtamysj2ax35qh	1616
bnb1keylqdmehw4g6pj9sjgzg0g5rl09s9dldjgda8	1477
bnb1mzrfr5sd6nx4vfylyasft3y0hewhzxjxpenjhx	1578
bnb1mmxv67a0zmls0cnwpevcqjj7ryrqplrwtyccfx	1453
bnb1r58tdmg7x2ly23pvm7pxvcwn6qmyxata62s6uk	1583
bnb1h4uejj09xmncz27yghjyl46jgf2f5wuefpnvza	1560
bnb1nvl3qsnpweu0dxu2j3mhvpss25v57nhj7unsav	1554
bnb1ten9yujz0fxfjdfqdxl340vc2v402sz7mc9c3y	1456
bnb13sxuv2fpggh44fe0n5fwhrshsqjzw9wuupudr8	1538
bnb1upuy4dfemc2gechyaplaqsa2qa7gp0g4wa0ae0	1524
bnb10295q4cjk37qn2glvhr3yenkazan7x8hk74pps	1523
bnb1nyytapwe0py8ar0qzan26ex3kv985f0f9h90my	1500
bnb178yfv4mtshsnect90y9twkt3tnu9wdfz2jj96d	1396
bnb1g2mrk975d03eau0p9xk69jrn2x7z3443wg8zr2	1499
bnb1eztrswffc7nytr3kl9c52tzpdz0dk0ccmlm8e5	1476
bnb1zyc8u04quge6xx9pmsel8ncus4dh8vw04w2q8q	1494
bnb1u0zczxfw074fukdhq0422x635vvk7sutt2maxy	1406
bnb1f6mtmaceagkeg3pvfdm8p6w2sx5yp8dv9jhwcd	1463
bnb1ydz8u4zdyd43p6qssxa48eskxarfcyfusdphy5	1463
bnb15wz3tur7xvx5p0ya2yvt7qxrzyd8ny8wtrt6m8	1450
bnb13eue2vhp7n49rs7demn6yxlxpdzpuseztggl9d	1425
bnb1gf8sy22prepvvcuev25ycjmkds67zvzg644tr6	1250
bnb1852hzn060naycarx5u4xk8lp59tvypfxukyspv	1415
bnb1p9l8w2uk2z3q5ymr9l6tmygjnuh9gckcw7kksn	1425
bnb18jlkedpvhne8sqgx6epqa78vrj7lj5sue6w957	1191
bnb1s0q9sj825z8nlk94elky4nzzzv2rhae3ejjjxw	1406
bnb18r9ujzrrwcnvjfy7dvt8kxvv6eh0axxsptajs6	1396
bnb1v6fwju5xgsgknw56u5hfwpyfyl0zgztqjpadk0	1140
bnb1qsmt92dc5ukty6g4epsvw24lc33kj3vlx0vwsy	1366
bnb1vp798vrv0ceyycns8kp67l06c5sx8kqxzvs405	1194
bnb1p08grauakwn799n4sw08yh0alcrghmkst7we9w	1365
bnb17pzplzdg08hulg4jnkgh63nk3l8vxsuwd0mqjt	1358
bnb1pxjdpe2n5nwp6j4ugeum0wqlxwkfyvk958g0uj	1350
bnb1f9q2k2n39uuv3qa7rkhvavlgnqzq0390ckze54	1343
bnb1g2kh8wf4qxq0p3vx9q07mhc0es5sqj4u7fvx3e	1340
bnb1lv2v2tgcmzhhk55v62gynxryvvvzymzjc95vlr	1268
bnb1tf9ujpwgsvj3uk7gu8rp7vv3v3md5er5yxhwgu	1321
bnb15p4lgzx8r0lrvhpnl9cn2fhp5m0yy34y5azc5q	1323
bnb17lgvgxgnjjq5ghxtljq6jyvckd8y9udldp6q7h	1300
bnb1ees8h5ushgj66re3zrq0s5h8pcm7svrgwuuh0d	1316
bnb1pdzdgcxezqmxj0wj3092pnpppz96j2zqlh78z8	1309
bnb1enmxuan6egwg079tzdsjklh0ku0fmcq53u8jac	300
bnb194a8cndtrxnrpdnqa9yklzz2wh69nrtj49saea	1282
bnb1kvyatx4wn2eaee3u0t2cf0epcysneayprk54cv	1200
bnb16t8a8n2qxwkzks5kzphj52qzywvd29d4jd5h7e	1281
bnb1cmvvusgmfyzkhkp4jx0fw2lhqxsvxr7uu9t5dk	1050
bnb13u9ze6wte9rh5u408hx0utsrrmmgyup3pnhwqp	1268
bnb1tead52fnpcql4rv2x4nzplagvph5htd4yqpsp4	1152
bnb1n3zdgexc2qhemwfnka0r6hkll4hm884ad0trsx	1239
bnb1lw7x47892yjgf799awtarh49fnz23g50v7nxwu	1248
bnb1wwxamg73rulaaklxt958vf7zw9jh7aejv3c499	1245
bnb17g6q9gtx8q7xdpqf04wt8zmwr2tgc3efzl3lrp	1241
bnb1jmwcsnkg68d3dexac4p3czctru324ar226mlg0	1134
bnb109wqug9f5qcru028zuypylkygqccc00qt4sp9t	1200
bnb1s7h0jj0etxxhdxmx0gfgx5jq5yf67xcgqayxre	1207
bnb15ctq6mha07e0y79mcpv4xwnz3k8zl7e9cmge0f	1007
bnb1c0zpzpsxu57vlv2d99fqwv0f5g9h9yvq8nye3l	1119
bnb1m809gp5x9fscj9prqyqnqqh0p9ute4fzjrmw3p	1183
bnb1wjg7wh6p0uwfupj3xnk97mg66rtpdut4cevxuf	1078
bnb1xsxwa5hadanylqaly5xdzlcyl5qeqfaw7trlzl	1174
bnb1avl87yms2stpnxqlhafuk8lq2s8glrq48aywxq	1143
bnb170qxv8x59sta2lzkl59wrnsnlnqtz2hdkg7rz3	1135
bnb132m8j2t3gj6eku7x54edlz3h5rjrs0l72jpspf	1133
bnb1rwqsjyp3wkk40ylyt0030nw5whu3nekvzknj07	1126
bnb1sjskr8t5hf8rdjc47ltfhhsucvqrkul9dhg9dc	1123
bnb10nta8qaa4eg6la9smqqmtm95at9s8g2muzrn2y	1121
bnb1gnw6fae0xl6rrp2qzvyttfq7qvwv59almedjya	1046
bnb1n8n9r66he6ju6dxhqnd5glwd9vdluj56njee42	1114
bnb149hu4atuqv6ql729hde9xxgu7578sxuusceq5x	1100
bnb1rsggsqurex7ggmp4dxf8xxj2deeqqz34z5qykc	1098
bnb1ll2569gdf9j9amjaz8l52dzd2370wlvpuf8xpf	1066
bnb1fpnqvscyecnea2jj5xtrngudtja9r50ehctwx6	1012
bnb1c99kve6fm274fz7v8jnt0huean6fe0f2u294sn	1083
bnb12xwy82slc8lcghl297u276552rw0re7ha2jcdk	1081
bnb1a80hd40jpk9zd6amp2yclt93ssfzvpckpwfuk3	1081
bnb1spyqxhff2g76gzjrkwymaugfk49hs588tz8j60	1065
bnb1dvlunvaa9ru3sqdh6km3wdnwdtl6gnuvjejqzy	1084
bnb1rze3dncqtugwan0f8kptsuwj5g4zx7wg9lsu57	1062
bnb1tx8t36avy3h9x3npefn40xhzv56lhmhcywxk7l	997
bnb1kpclqufs7cguz4vjmgp8h723gx4fd7k5szsl96	1066
bnb130077t3xhu65shqp95669me07mkp80x78umffr	1072
bnb1t5s9y2snhaa0e7mpppef9haj384m2ssku08zzv	1069
bnb18ygr88sgznxwyfkd5lmah6qfnld2434zsym3nd	1042
bnb12yl0ntezxysmw99hrkme2gn6hy3q8ctgrzd656	1052
bnb1te50hcat3pzzkr4hy5thlwzx9hfqv7zc70q3vs	940
bnb1nhj3d357grpu0uxxveq4df8g4nf8kg9ldx6qtd	1029
bnb14jrrvwacpsaku3weljy7sl2ktpu8fc75y4hyad	1030
bnb1vfjryppcg6xfm5xar5xr3fg8s4hmt9atgdwxwt	1011
bnb1vlqrn7uk052m6epj9t79gh2489je0yfevz9k3m	1038
bnb134ll25xmhm3em3dmmvynzust7aw3cw9ncd7h5z	1027
bnb10qeezkrd5n6dmwkhpqc004hll6nac0lm433nhk	825
bnb13036t9m592njcguknj6gngj7y8pmhung3uxvvu	900
bnb1qtc6z00vtqjrhrj9wm63lwffn92zlasa5lzmdv	1026
bnb1akjdxevl8vwg9wg75vy4x54y702v0h9gu6q5g7	1006
bnb12vgyy3mdu9xw9ydzaehpnh5rg0yl6szacu62t3	1018
bnb1ppce4hwpedg0ws4t8r8wqpv4zls0mmgh6dd9r7	943
bnb1q7jynusul9zzuktjsqzawfxdkl5460m4q8lahz	880
bnb1u6x3nevcyl3398gkyh0wrs8p3ahq4vcesuhnsk	1000
bnb1wm9wqx50499nlccsm9llx6a0tmjje04dxcxddf	900
bnb1gv43z26440vjt2r97g2nwgkw8cp9kuy2tn0ggc	997
bnb14ux9afeyyy4ug7dyyf6qxwfqs4numj85vu2l9y	909
bnb1fmrgfw9jzdmjwc3602dqt32czne2357sh7mw40	958
bnb1umayapmu2t3urel86zw80zg0ylnmq6zdf6whm5	921
bnb19973ue8hemdhrgv2uz8zgqmqmmunqjqlul8u6p	953
bnb1zrjnml3sxf306p3jaezt23xle5z2cy74wxr369	942
bnb1vrerp7zae9zsdn7qyxsuynsk2w66tyyfplyqn7	937
bnb1yvsz2k5pye7rwjtf78frwkmkdqcud0rkwvkg74	908
bnb1jtdpsrsjcgcd0cedj40w8wj2pjz7l2tf6nlkr3	919
bnb1qgga38gx3e6n3m236nejr9n7u754j39anuh6am	924
bnb137kruuk3x6ux9wt60wcd2eyv6zw7fnrwze5wn5	909
bnb1xhckvydqs89ws7cpyy7g52e72aucyt5prwq5ms	913
bnb1j4y0ykr6qce93stc495zupffjypsj4adjzw24n	906
bnb1z62zl8935y3u8f85rrjxv0svk6j67r4th2wc4n	903
bnb164s6yrqs3j8zzhy8lsefvlprye4n2jpnllt6wh	898
bnb1fv6ekc2acndgvvtp39gyc7gvd4n3cw5hd9naxv	837
bnb1ke0kjum4zxt2l9eqsc2lxz6da0qm4kae63sr25	874
bnb1relmuz2xdtvm77c7qdsqpg6x2l3up7lwrhkey9	877
bnb1cj72vmdqfkskdfwdglr7duknp7gqrvy24hked7	878
bnb18q360q63yxc5etu47fhqcvknxkg2vtmrl4tw5d	848
bnb1ky2w9a83xu60jmlh0hhp8avf3wcx6z0e2jlqwg	854
bnb1xv7kgt9h5wruhyl5ye0cw0eytn8ka2vxjrmtmy	847
bnb1q00k8gvqaqxjha2qa5syl0s22d7julh2tulj6p	843
bnb1jxv397dhskzhqz2adyxp6guwfy6dh27fmwputv	838
bnb1mntpz3h7n7tg092vh8f4230k6j626ymrflwel6	1
bnb1vqsshug7fqu8x233se2qzn0sqjckxqnpuyw75t	836
bnb1mdcg4g5k3yt4ypc5wqpej00rfyvlkec7gx0wrl	832
bnb17gewc2uhr6gnkzaawp7efuvs2mzd8lflkn80sq	733
bnb1765ugxkdy7rqgtpcy0sj9l78ckcmqqnr8xxuvr	810
bnb16r23qz0u3mfjgl82vrql93j4jm0z9anwksejeh	814
bnb15gxs4qfqdvtgh80v3yk7pl4jlwyrlm2awxxrut	810
bnb1t2v32am0wat33jex2fdrsqs9tlhpc7r6w7ge3y	788
bnb1jv09hzggkdwkg2vj0k9lyxl47968ldn7rq9ugz	798
bnb1pmv0m0cwdk2zrcs7lpex7p6mv3xhv83sv95tf3	794
bnb182k4kawt8alsvnch39kg6js39allttlqwspgk3	773
bnb14ag8ryzwkgpvkz7c00lhjw8pvp2mj7l3p32d7u	773
bnb1h44jgrjtw76h5ezyjqgsa2kve4mx6s5rfx9jpj	746
bnb1dhhxrpy5ayvh548uh2eveasptjv50dk5ujcyma	720
bnb1r0zfwlr835awjnccenywaq7hwz3jgegmtqja6l	766
bnb1q0rgvhwclmc2y6t78zkmkgg4umamtw4ahkz2nj	724
bnb1a2zgjdpefqyuwwjx0n4n8sx6l3fmg3yc7w4ppz	740
bnb12u0jh6nw4064ckvgnyymr2fxfgdx9khs8fm7a9	738
bnb19mmms63nf9gdxrkj0xw77akf2z5q8v8jyp3n38	727
bnb1rucnahf3yvj52l5ljah2gh945pze2qxz7h254j	583
bnb19wh0dusjzvwxze7pg8dcxw4x4yg5fvtssssaez	687
bnb14tqkk2nygqwadejrmrlv7kwkz6wggqfxm4p2xa	724
bnb1s0vk0580xc06f87qdw5htj7wad5cdsmk458ulk	722
bnb1ne2aed9t0wt9kf5cn4e3r7kfs8zjq97vskj6x4	712
bnb1l0dfy5fel2z7622myjjs624t8w7k2ta273ge3j	136
bnb1gquu5t34mkcypsfdg8qalk2d99s8xx34rrrkfg	703
bnb1c0m4dhn9p7ca8l9ct8zce6vkumj72gtxvy4j7a	699
bnb17kwk6esla0rk0yzxk80gmpg4xgk3rek796s59p	549
bnb1437xjp0gvdnpnemmuenv9fyf6n297s0tcssxnp	669
bnb16xwd37e32uljducdtf20ue44cgmllfywrw80lc	677
bnb1enav8fh0xke39wfsf5752ha88639klv7jpqtcj	677
bnb17uzg0t7evv5ezuj8fpa4g5qe72ljye4vyr4nzx	675
bnb1p8rg24v0m62h49qu2c5mzkqce0rkmjnaevtg5g	660
bnb18ssyqx3xzpetpwh3pkalck08x2pgphwdvdfzqe	659
bnb1f95r29xcwnhnym7mn2axnk5ycv4rl03d5qhpl0	670
bnb1n0e0tn7ujsftdqm9ap8cfykzvmdl82p394hnt8	669
bnb1zhrntynhdgfk5nn6d7tncmc47yxl5nxznyxmva	662
bnb1va5v3y4ahprzgm4xsxmja9d5lplfavjhax6q0r	660
bnb1mfdxey3h5ehy4wtyawck439j86kl4w7wlhuqxl	660
bnb1ktc3j0j4eg7k8j7yenndk8aj8tvsqhyjae5qav	656
bnb19v6c2asq9h2zjrawt0ju34fqvex7jt5w9fuxng	659
bnb1xeujq9nl3jtxxtv9xefx2r76f3dt63hggef92l	625
bnb1rve8xzp032x9l08ej402jxakcjymf572klzrnt	653
bnb1mkhjq9slz9g68k3xc09wjv0nhq393pgu2hl8y3	643
bnb16gnwqqkhjfca7kwtx6fgzdyk7vvnznm86gde5c	569
bnb14gdkzdnx2ysg26zvgffxzjumydkx3vp36rdfql	637
bnb14fvn93n4dsquymm7mvnp8wq0a8snp8ylaf375y	590
bnb1wz0uv538c7lsewll7f85ggyk8rm6j3zqsgjqwh	630
bnb1xl0x8faat7atrl2q2nxxjp57tvjctcldgmx809	621
bnb1mrdlc3kvqvu7875z5jtcjzcp7tpqvfg7vh4s0v	614
bnb1vjryyhqxmqfj4qlucr9h776v8pkm2k5ayz4umj	608
bnb1ak8whaaua60y5qcw2kzhg5qt66wse6uzhcssd7	604
bnb1awzmscclrdwvvqam2egc3meaxjsy86079dfe0v	600
bnb1dq2ms3k6497fgvrafusecugj7x25v4dgvwaqmm	466
bnb1pmdffgyjxgnmcfn0a8pq7mf8scys842l39sksr	585
bnb15wucg4daf2gzfrdl6h40kms52xwrz9xk85t645	593
bnb1mmu3jnt702ax8s8tnstyz22k5v2zuvsa8ns9vf	586
bnb1t4w7kfe63amr4h8egydwnpamjqvr2jqlm64d4y	584
bnb1ufwph75lszvt5l6a6pnv5u5jxt0lf5fu5zplkq	579
bnb1hcpst9s56pgz63tesys7qvcgftgqsz254sxwwd	500
bnb12usr4q90gl0h2uuytev5g6t5lcukfq8du6rds9	561
bnb16hma6zsp03jy0lkz7fy0qj5pxy8mx6tgna93zt	569
bnb1lk46udh425kukqvrchmsyqeyvah4lq0phds9s8	559
bnb1w7pgxqtn7056e3flfvms9jlmt8p3w24n8rqk2y	562
bnb1vyhd72mp42l84r7j6529rppgn3eu4n3ggmymy2	549
bnb1dzhp0m0rdmjwwje20ufmm3mrd04tyurneqawre	560
bnb1nxvj7x73zgjhd9ar5a65lgcezd06aynkxfxxp6	74
bnb1naf3dqgsd88pm9u8h790mpmsgv5mefnwgy0697	556
bnb1cdelhlt6rx8urklutnujy6suj4u736n5mz9lwj	552
bnb1t76nc888khn5yvsx56y5gyl9aakm6kxja9h2hd	550
bnb1qveevplpu4ndyrs67x0hlder4tw5w6amcrlwus	544
bnb1g57wcrjqvexumpec4nc9n2f5ryyz5qhr783090	529
bnb1rzdp2skq3xnsf8s0ejjngdsdkgf6r9x7qjvkkw	530
bnb1l8exz74rukgjzjsjlur9gz823rsqncmvxlrnhx	523
bnb1vevk963k4cxgctcqcf33tl6whyqrn5ywqmyx6l	500
bnb14uezkye7spft2mhce8undkhzq8v5lwprtyk3ku	517
bnb1wrjd9ncps5d2t7gntn3te7e2greaqrgtpjhvy6	503
bnb1tvpqklheum63ek0z5lssgtqv080tkjftu0qtrl	505
bnb1z9eew4rllevrq3qypgmq24hxdz70e4n04xt0lr	504
bnb1r2j5l9qe82npfxh5d5fuky38265k6zt7h6lf7l	500
bnb1fqjja4mpde8uqk80ntq4n9mqpl4yuuc8tvc749	499
bnb1yfyuj94hf7cf0afek877twa9wkxujjv7074axe	497
bnb1mh6a70xfpan6sq2fcjquyg7tve4qp54ceer5m7	500
bnb1hscxrcgupfvae8whxxze3dfcl9uk7z7xc5nrpt	490
bnb10ym9ll8h2xaexxxrdqhkrzg00uxc7gzqzyc38l	490
bnb18s5e7rhl40qrpzhvuweul2l0jkpcqwnfqawtfc	485
bnb19gj3uepn5ra602dpvmkjuuw78gjprjvea6fjvp	483
bnb1wsyskgyrjl67t5f9s4ymncvlwm6pqmc95pf0l6	466
bnb15yvq7ua5lrlftl8czzldlp7k7w97y63es48z64	469
bnb1k4ys97wcuuuk4fqku8j0vt6sst35whn2duhy77	472
bnb13z2ah5l42532rsfuvvc63aql3y3n6sfh9hjkfp	92
bnb1nk84xeyyyt35qjczdwfnjw7v6vd92crzrcww47	388
bnb13cs99gj80zdk9fge56atx7zsdltz47p035yuuf	463
bnb1eh5xqady6py227vk7ngm4kpyzntek0sh8kxqv6	463
bnb140vcsnztmy6c90tsawnerctu2tjhy760aqwecz	458
bnb16avgwhqa5mw8zvleehtf3p635zn8tflhtngylx	460
bnb1ul3tth6pe4mfmle8edvjfswqpg0wc7uqztsy60	456
bnb15fvnf4tyzl42jecggzvw0nkkv350xh86cwvjuu	400
bnb1k7wywsw2mwdccgu4jsuunp5zgglr653x8z6r30	450
bnb1k0ahjsk0dl2u4rpjdsamlyysvtu8aqfw9wurkx	395
bnb1nty8e20424gxes2wnvmeevzwclj4mfjqlzxc0u	400
bnb1g6f47vajj08l67j2tjcauxye3kzmww32nj8pr4	441
bnb1errsq0kyjp43uj00f8cru9xkw4lcw0wjdj6l7p	437
bnb1trrhtlrqhjzmn6hj39crmm36357tldtkmsamnc	436
bnb1xfrf2ylk45h52upm6d83gr2c72k3uk6amfv04h	430
bnb1qqm4wjp5e2ksz5neuxtgpy8crr9xj6wylf5crf	408
bnb16e94sy7gdxaz7c0pq9cuxz8e59tx709ykm77cn	428
bnb18g4ay4shcftnpjggxkj9gq9dhhnegtg2jet3uv	426
bnb1faf7wd7lf87uw9qtcvjeklcewm9da2p455ucry	422
bnb1mrxxaycp6588hqctvedvzyeaq647x2rxjvrj0g	422
bnb1xx5hjkh2a9rs0d92zywah3emm7anwa8appxmnf	410
bnb14xwfgsd85v4ld95qj5v5hcrl28se6xfv8ywyxe	344
bnb163le3sx539scepxtuw4hu6ww2jklxl8er3435y	420
bnb1syf0ue5sdaqvz8pnynmnnpvhj7n57dufnkgd9t	387
bnb1nqmrdhp6f2vae4u3f30s04wd4gfv3u9mj86qrc	404
bnb1uehrre7sdha2j2d3z6hmt89ph9dj6rvm30pnug	409
bnb1zr5djjvd4mzxkarh9mydypry9jynkcj4qf4svz	407
bnb1l470qwl68y3a88esm3wa34z79fnapc52tjnq4l	403
bnb1g9v6tdyv3gz7jdp0qx9qrmkw7jcp0ym7q9q7af	401
bnb1kzadchetyxvxsx88y8j68qgty9sxs8h6thpylc	390
bnb166jj4anhx7ggd2s4l6spqepgpan23vrh9x6kzw	378
bnb108plzz20t6qwydlqd3rwddp8qfkr8q2m5z46f8	380
bnb1957ec68e8x9jlwe4dmjna4qm3wmsm39nx77f7x	326
bnb12yey4zvhzd072q6ds7h8md7nh5c6xdhz0amvqh	305
bnb1djj3hdapedydrp5wamvctc6myp65nt87zmnkf6	357
bnb1v9r6kxwcg32r6mcmkte2p6ps6c9ka8fpdga6am	348
bnb13mp5t7prcdwqyx6mr2zxsed6jx033lu7dm7msf	355
bnb1z03jwx76gsagq3wks97n89s0gs6fz2p2zm3npw	288
bnb167g0lwryhq788eg7u2yrqkmfst7gpkzyktqz5l	300
bnb1r7dja45296xgxuw70rwcs83kdrhkg2qndmwuet	348
bnb10hcaa6f0jy57zdxz22p6vskuvazk6jyx9ru2dg	42
bnb1tjp2ww5r0p7xddpvusm87krxsstcwectrmfusa	340
bnb1xdtslzqsjkptssvx688lp52peeyfzkcydurf9q	335
bnb1l0f46e5yyetpeg67tmdma40gn5letns990tas6	332
bnb1llljhk7u02fl4ztzvga87zagt89qrzght4ypv9	329
bnb1vt06p2nv24ed9d589kmahfc5y9jlynajezej67	325
bnb17hjv35kklw7wd2tna9hu62eg9jc4gz9egal0el	320
bnb1at6j638eyel3a3lmhvxe45wrgy66hsvafrr92l	325
bnb120mx7xv06zf6mg53jj5d4xx6haa58688kmujwr	315
bnb1mgykcx8ml28mwc9hlt07estqmw33ket5vvx2h7	314
bnb1d2llfy6r8meh2efe7dx8n5acpk0wyq5pz8443l	300
bnb1ww0krud4txhvxxug7s4ele32pjhpdjgu8zc0tt	173
bnb16wcx5zgvku30af6dxe8j6c6dmd3auft4pafmmj	271
bnb1r5dh7yvxn8atazt6sjcgu9jvahcgmmm3fffwaz	100
bnb1g5drx6skah0rm4ejefdfahlsyfkrneuudjtr3z	265
bnb1jkf3yh8agjmycn6rynnzq8c02uggl8v30ddh0v	269
bnb1ztpft6wcm5cc8vflku5ftlu4xhlfq69cysu2fg	269
bnb1pxryql45hr8rw5ry60xv2gcnp0ptzke648xvkc	258
bnb19rnmr90wxjsmazwgupau88avm6zly5p9370qqw	226
bnb1aqa4ny0z72w24jdrgrz5jmhj3rzlz4rdlrxa8d	256
bnb1tycq26ase2h9zwuefd8uxjnkd9sn0ejev38txc	200
bnb1ja6m05v7ccejcwqdys6cz2vfu2q37pj92zrx4x	246
bnb1qwdnpffr9lvnjjepqsa8xnv3szlz2lkfahj65f	240
bnb1vzv3lemdeym5uqc29an2n4wrquz3alnvejaqdq	1
bnb1u29z2cc5jyx3je85tjsquyvafyz9l367frtjvu	237
bnb18u9u6td2nkd7v7q2j7ac5st55kjeevke6yq4e5	230
bnb1fxyrxzx2dp7m7z3fwa5n708y9gh836kj3c9y77	240
bnb1tnnhrt9hphzqmn7xc3ts2azekvtmm693tjvglu	234
bnb1vgsf7a2rwmn3l5wh7gmzdygkh486dgtqnf2fs8	233
bnb1h3xgh8fmujtpyp9twfzrr99yzl0l5e8z2es6y2	232
bnb186fsw935r7qdeyhrptvkzxnd9yjulcwtprzw52	233
bnb1l0cz4ld95n74ey8jaaeydkpkd5qlmp2dg5trhx	227
bnb1vpe3ezgr3nv3yktlrtghl0a48xj39fafeuecgu	221
bnb1spn4d4ktjamqxl9atww8sre7rjehpr4x4ezh4x	219
bnb12dy4jhvnmvmts88qwq5yq279yjmh0h2x7pw3lj	216
bnb1y35ywtj4w6jkpllyp2gqqgy3r2uj9qsh8mxyug	215
bnb1j3sp9qdr9awwwshrawukjnzgjdktcty34cyrmx	214
bnb1n4yptlvz8przxrmg55vmg3pxfsts8ckuscvtt0	207
bnb1lk6hdzntsx4ukcxfamhc6qr6gq889g3nzzxgvf	100
bnb1smt2sw7x2wh93pa7kddr0vcu30cp45cdvwmnyd	200
bnb1w97hhq96p9ujftff9nfq0eeqmg4ce5wxx7pfyw	201
bnb1wma4er070tphmv8dfqr9mknp9ztw0tnqz6mw06	201
bnb14c76cxzhq52kwxp60vtzpdazhx77ncrl4dfnca	202
bnb15nenw3zueq4a8scjyg9a9musdr3s4ujatmvqws	201
bnb1p7cp6kv3am46eagg40lqls9lfpsk8tf3aqffj0	200
bnb1ze46el46yjrrye720czs2a3yuyaw3t2c53yhnx	197
bnb17cjygxq28a9urf5y32tz2d2jsy90dz5yvt0fel	173
bnb12f0ejhm870tp73zgxqrkzmfgu5csmxz55r7t3l	192
bnb17c8e3fzdk65vkhpka8yfs6shwt8megahryujyf	183
bnb199fuk8rpmgf9c0xf82cajlxn9rx7vguxvc937r	183
bnb173pgpamlmlhph4mhwcnmk76mzycft889w8kj5j	183
bnb1leu50hllnrvw6r4c356uc7gut2d7dqa77hjglp	100
bnb1zl5w4l94qu92qxdsss4msgpxqy5rl6gmrcj8ns	173
bnb1pjx8dck3g87q549xw8n8qdsynruazdayhxy8z9	166
bnb1c33g33yyxtvuue6as0vupn24vw6vw2dgm9hga4	173
bnb1zha4czkg7aztc0cu4xgvvc9kh2vggme2lylzzd	172
bnb1z4xmpsrquttjlzvz5ahkmertxl9lu3nztym9nx	160
bnb1sj6vzk3vrvdnwwhmldxxtn0t8mzg0h5ll4cqgm	170
bnb147u7s5h0ft8znh69n6kdd8qmzyf06gp8vndyqv	164
bnb13md8u7sgp62wcjpeatdvd9qugsdjcfzn8tx34k	163
bnb1utq96zs0txt50ax2gqk8q67kwj8apcwmywh7c0	161
bnb1jwr9zd4vqetf0ey2lfglqkmd4fgavge24cahc4	161
bnb1z8v6f2hkk2hmppjxe35vj5yp3mwnutcwenmexj	161
bnb1jmq7wz4zdc7umdkwkq02dk9czu6rxkjpa34ap5	161
bnb1h42s2fu0hchfw2munsce0jeuaudtj6syns84jc	159
bnb1t0dve4qyllux5kc5pru4ud37ykd6gfck9acng3	112
bnb1q7cz8way9g3dw2mrm6un5m8ep33jhx0k43sajz	156
bnb1s5l3l6h6xf6waay6qfcds3wxchyr68ctnm5rqt	152
bnb1fctl59havsfnjaaenz5j2q2cswsmuypms9ack4	152
bnb1dx0qzeqf6xxf76djee6yup9pmdkxxe7mqa9nfc	150
bnb1gq28j7shehpt8k3a77a9l37crnl7dph5sa9d7h	150
bnb1xruphelacaj3gykh3fnm0y6gvxxyy6enh3q0p9	151
bnb19nh5z6h4cllcdg8rp3jm7pdnlweu60h5l9zsp3	1
bnb1eca0tjecthcxgdlduxlskjdj8zg7d88lewx2p2	149
bnb1a4x8zjk3u5rhpsjqc6cprz4xqxun4ng7xhztkt	145
bnb12dtlqeayclfw7w97kxwzxqxp5mln845wq43ngr	145
bnb1syrp98r88eu6rt5uyh22sew6kpkrm59g3d798g	144
bnb1e97pzux5tkqffhcmffa26m8yd0c6sncrkw67n7	143
bnb1facup2mk2vcaahgap62apesrfhsllama7qdv73	139
bnb1sl0k99xwnzyt5n0hxglglhwvtpa0pcsflw59mw	139
bnb1ak9f3sne75l3u3nze5h6t87tykgaalyagx88qa	140
bnb1umt0zt3pyt37p47r227y4x3pej9g38w0rsww4t	137
bnb1m8qmfe7dwvhptsgxpkxyuvjqg4fqf8u5ahn8ku	131
bnb146nmuv44a3k3m6knajqxe860gvvz3sy2jrvjdc	130
bnb1k2nyu8v0wvrwchugnnfmensryhc00wq6shmw4w	126
bnb1cyayyf65pd0ajxjkf64aup8heqnp2szgashr0l	128
bnb1543se0mh39jf884durkhvcnvjyv55fkstr07c6	50
bnb1249anpntadt8xtgeff4c53h43amek3ssju004t	126
bnb1cs4aq78atxxl9jl0ws4a6zk0m8mycan5s6rwjr	125
bnb10u2m97el67l0kht33hcs5p4vtj4mjs776txlcm	116
bnb1eevtajrl5jm2tcrxw2sy4wdha3sqylufn9pldl	114
bnb1smahg0rn35ga6ql3dxuk7uwns6u6ec4sdsxc7v	114
bnb1px04lsa9vv65yrmgljfgwr4gqs3gllsmdgt5mp	112
bnb1hjlxxsveqr95mluwxqv2h06m85svdyz86avtul	105
bnb1eeeze3gqlh73fzq5yuc6fha8d4rut0hzzy8c8f	2
bnb1x4ndakrgcv7rgnzwcd34w8ajhkrdd0t57zd2pu	100
bnb1xlrn3vpm6fxxhrznjp3w3dlwray8wn7af5a9vk	100
bnb1l8kmwq4nxwe68gzytlqwr7slxv288ft77nduws	100
bnb1wyjm50m4hzkl9rhyq76yycpwdutkg5lu0dpe8t	82
bnb1hjxwzyvnqq2ajlg4h3tj52uw80gzczetulgk8g	79
bnb1jrnd4s3gur23tpr64lrky76cnysvh36z3dhdt9	79
bnb1hfwtwg26zvj4eufh3rrq5w0uu5xq78zss6g4t4	10
bnb1khnycprytrdtllu2kru4ngv65x9g8zhau05s5v	70
bnb1ppe58vrwnas9ssuz6yqyrlfte0d99xtv3zv6q9	64
bnb17umtl88kzw22z8qa8g2lh2qe8d9uyhlv656xmq	61
bnb147775ptq322u8y070w04q87mzxfth07a6rt4k6	61
bnb17hmdwg4f8d73767p39r9r3r5nn8h8g5vs87jm4	60
bnb16ue8aypmp7xteeq7wysw8qtewxytz98dwamrwf	51
bnb17gtcjkggupwhxu8rrpnyrslekd0mzrnk7yfk3g	15
bnb1wsx0pwds9fqwpptx4qstzk2cd9zj49eevqxz2r	53
bnb1zql6ceqzvlnswzy2whaez7f9scr7v69hv5gktq	51
bnb1d4fnst6wv24tnh5yjz5f23jtvmrlvuhns7vz80	50
bnb17cx4jvgtnlvnrrk2ya05tsddtsglvmu0xu5w2l	50
bnb10yruxsxw2hy2unwrz6upre8snyq9dstz3h8ugr	50
bnb1fmfrkha8kend6el2ywqdfrkfegtr7qkwc7taep	5
bnb1xgrfng7metfu72cxkmxga6nzmajevg304h4nsp	49
bnb1rl9393ca8qyjh9u52arlqdjdkj2pywg8gwdegk	45
bnb1jjzgrvlmwcas03vkca90t2sf03qp5582kmwyxv	46
bnb17n9ztwy3yc9ajfm69q3phf7cus825ys6y7u86p	40
bnb16zlp62upayrsac5n2nkch4xywv8fmccrqge7cg	43
bnb1hmc20ltw0vj6hrtcx8qffhrktt33apnlseuzsn	39
bnb10fyvuev2f44hk2tet45vlxrnraf9pm7jankrqf	39
bnb10edw7k890d8em80d6awz9vlhzszuerml5frq8m	10
bnb1077thcrqnfdlhpwj66cwvdxm9nmctckuhuv4t4	35
bnb1l0h97n75x58jd2cclf84m3usp4j0xy6e595xxa	26
bnb1kj5c0sf9tyfxxsyf7zfxar4k5w8h5ekatgkjzx	30
bnb1fheuzeawes5h5a8fj3702x5r8l6vsykdyp2v5c	30
bnb18r6m78ckdvar4ezcp2gnzssjt337hya2nnrven	30
bnb1zpu3e428kscc3yvmuwqakxdwwper58rl4sa7kp	26
bnb1xp9z4qaylnx7cuct58s2389nvkds7vs47gl82e	16
bnb1k9afpvwc3n4nem7vd3mrd7k6yugwyx9em76953	16
bnb1730yvn53eqdnzpe0npg0xrjumeu7xhfs2xw7sv	13
bnb18mhrwap8jpdjxpg4ck77mmk5f560msh9t80afx	13
bnb1qppgwudnres9wv9qfapp07x0qsjq9f3lkxmmrz	11
bnb1uhk5t40nwtau2gjyjya2yfshszrsadnhr2elwg	2
bnb1xwalxpaes9r0z0fqdy70j3kz6aayetegur38gl	9
bnb1u2ccasfwuae40wht4zr3k7gunvklu4vcfwd052	6
bnb1j6lh9cd6h2dy78t4pee9pvggw4pacyqrhrruv4	1
bnb1w49eg0lguy9vaq4ke3qxsazd6qe6ex3m6zpag8	4
bnb1h0m4jjhztauxdy6l8fdezwmv3srhxkkrhdyusl	3
bnb1z8h5kqacyvd5py7eau9ssydkcejj4n9xs53k0z	3
bnb1txz7vmrdkld795rsauhm7gm4pyklcmupmxvcr9	3
bnb1gl30nqe39fhju3939e8azwpl2qm2g6l0chjge8	2
bnb1jcr7s8azm0dqsqcv3z5a3ffcykufwye3ejlpel	2
bnb150chpt3jd5rpxw6cu035wnzp5prlqs98th572w	1
bnb1jfck260nln85qy9lacc5c7dfxppueaa2g976vh	1
bnb1s8jgw9qeuvfma6j7e9eyldt8wcfwapgagpp7ku	1
bnb1guadq9gslygmn22clw8358x8rum4ysqf8ckhjd	1
bnb14gdmj5dast2yyu9gtfxjtjvy482v3ykp8p2csu	1
bnb1ussndzxeq4lu08l8xsl5kpg2ry2hptvenq0kzq	1
bnb1f5cncewcmv53lk5s5fujvndmjgnxgg2ja454ts	1
bnb1syrtwmljfxygns58xp605ccz6js7jzv58vxrk8	1
bnb15gxjn4hffqkag3vv6djqecr2cg09uldd9ht762	1
bnb1mwthp0c69d8ur9dcg4hzh3cqxgst4n3mfkp2c5	1
bnb1r3n8axfetuj86h3z3u30weq9sqve237z3e0vl4	1
bnb1ucj2vxqsvca8zzvhfexfu3wfnnjvgwqat5yeg7	1
bnb1z56ffh0r03u9f95urxs9epsgna2anrfxxd0d8r	1
bnb1vjvz4fzu8x0nvcckd9qh2lmpvh2hytesffmwmq	1
bnb1zy3g3dw928af6vewvjpg324gwv082epnc94tvk	1
bnb17wmamyl9ypstmdjqz65j6y6pmaq4rr3cyy5yuj	1
bnb1vetaau2v8upd47gty2eaq65nuk5l3jjn7xe6ck	1
bnb1w4z85q70z4rcg48hpmc428aj90e8czzu79jphc	1
bnb1sj0sedrus7tnnywr0astw7a44809jljrtwx8td	1
bnb1plhkl3mgkzn70680ttx9vx4q3ej4n94sqdz9c2	1
bnb1c3uwpnj94r9tm6ajg6hra8rr2vqnq0ul60x504	1
bnb1vp5ak37k0735jpscwrs7p9c5z3e4ueed7jugwg	1
bnb1y06j2aacngrxeqnajgpsuyxhtxg6av704yq58l	1
bnb1zhnvdpnq5w5cvu85hfclu47ddlr95xyc3relg3	1
bnb1j8g4dyrnnwygwycmmgjl35dmqgrvfmsyewpchs	1
bnb1kus6xe34r2vz5pvs0x8sc4t9gc55h5s764hg83	1
bnb12mwdsgttwvxmt6emv9ynx3p288d44jkfcs480k	1
bnb1rhfmna2wsjs6w5phchp3favg0tqz0h00n3ycm4	1
bnb1798s60dxzyhj75pzfa7ms0ntzw2e2xa5dmcfkz	1
bnb176pmen305akf4tw9wydk8wrzug4h80zalec27d	1
