bnb13gmnynvlkxkzpnpfttuxsww7kt2jskp6wntqv9	44802.74
bnb1jfck260nln85qy9lacc5c7dfxppueaa2g976vh	61188.41
bnb16zcr7p6tzfcnhlp2glehge3zm3c06wgfkk3ppd	923054.28
bnb16nxntteq8x9qmqle8m60ndadp3cw002q04j9dd	101000.00
bnb1c2x0363wtr60quzy483u9xewgesqswpqrvav5e	504451.91
bnb16tvezd4v32eze76vfpve64s4fka5lfhcuvdy9x	26553.20
bnb1qyl5m0zh0a9v7zkgm7xlrzx3jhrnx3vn557nv7	11635.20
bnb1t843eldgxzwlll70dj0zwr4phzgtx0nrtu6e2z	31820.00
bnb15tcnmznknk9xdza5faqe03pymfj3a8u3tmc8l3	868554.00
bnb1xunf2r7ssh42qshhhsxtqvhralezgdnjnvk003	18704.00
bnb1zcsrdhzfd5vvsx65psww78vvj7y9c6tuh3sk9w	1097793.67
bnb1f3setp3my3yz9mqu3u2zc7vgcjvas9vd0u3dle	173413.57
bnb1zyvkhqr5c3520rhwerntdxt2az556fwqg3s6q5	98407.86
bnb1zv93hlu96jeg6k2qxdrwkvu37f4ylgy9cpt6dy	15000.80
bnb1859r478lkzxl3y33uht7dw75r5xmr53gh543vh	3820000.00
bnb10n3qdcxwm4h4karwqhz5ywknmj5cxc7x7mew04	170461.37
bnb1cmr48486xw3hda63gygx4wkvuvt5yzecastcwe	9768.00
bnb1fndp0jmwft2tf4hlx244yvunlch665mapga8vr	21273.57
bnb1tc3kve9lkwxjrpslwx4w0fhd06s9yavgpxqrdd	16285.76
bnb1fzu4nnvg5vjthee5j2qsmj9kywxg6mvvg4t884	153369.30
bnb1azlzyuu27tdxjg874qr494247z6jj97dv3y486	606005.76
bnb1zpn7fyv9kfrvcf7xuc09qmcqgsgwh3hm2mxfsm	2800.00
bnb167r4n7guzm924nhccshhhum004hn8eu3p78a0g	1630169.47
bnb1myst9x9cy57vqf3z9d23du9x0cq4asmkyxez45	33729.00
bnb1jed0duuua28cnd9f845kdx9e9y0h7hkzcmxypj	12471.28
bnb16k475042gh550qwn5re3j7wfc484c743cdns7s	16830.74
bnb1t8mua25fp0pfu25z9np08nzn0v3mjgy7fvvl9y	769399.24
bnb1uyyw4agetvvm6mvfrp5u6h9wx75nd6ncynyt64	81302.05
bnb1d8nqcg600umrkkmv3ejg8h4awyywu7quzyhd9p	700005.00
bnb17a8cc9wamlj25fgwpvym3e9n3sqsslfe76m5s6	114249.34
bnb1rlyg29lfl9rhjnztjtrd9daqt4sd9s97mu03ey	621100.00
bnb18s0yptz5205ql87jgmc24ud58v8t0z7sdp45sy	119692.07
bnb1yrzqptqn4ycks4svwt5a7jdfwutndr0q29j7ax	1038024.00
bnb1rlhp5uhsysz9qf5gq78kxgvpkfcg0qv0ldu5r8	1131064.00
bnb1kg5wpqz242mhhxxqx0xmw3xkjl2qn3smaw2j0x	4711.00
bnb1vclzda3lcy2m05e6vx9h8308e9f948lqqcrj8r	335546.00
bnb1xutm7nm9l46c9p5xvx94xuz08r3qadd28teygq	6560605.36
bnb1329q5t8k6qwm3yu736p7rlpcg6qp25rtzyp2d6	161366.00
bnb1n7vd2frs2lltn07r333dmgtl7574j6cedgsjkx	6912.44
bnb1k6dqfm05y5jlx2r4afwyqazsmlqzcdxgu9p54c	2010.20
bnb1vwq2as8p63jvgl64cxs73al04s7n6wp65nv9dl	76545.88
bnb124w0yzh5fl82pjkcs6vn8khq90zsexmeng9qn6	25380.00
bnb1g70pfy6m5f5pvxd5du5aqtdgvxz2z7flln96lz	51478.93
bnb1ykja4rnkrav0xlcrr5y4mczujm7f5ast95tv6h	55310.00
bnb1g2332j5hv9qvje7vlvxsav86he8l8eswxf8fzm	0.00
bnb1w4ktt8uf0gqju50w5v8g3jw5u6gpyvy9z0ke9s	70981.67
bnb133sp2s58cjlqlrgh7s6a4fqwg5auua0j4v5rpd	58037.39
bnb1qkmtzr72mpvayl4gq4y9kdyzv7r473q9kryn6w	1986028.00
bnb15gxjn4hffqkag3vv6djqecr2cg09uldd9ht762	7452.72
bnb180vu8m9zsw8m9ty4qvjsczh5rlrtmzs6ct8mx3	90144.60
bnb1v87dy28978et8vsrssrpcfqdn2v59y60nvgkvx	12069.00
bnb1xqrsghjjcqcpv0uftth7klwy35h4nta46nexc4	7781.00
bnb15znh3ahlmfhkf4zcmhdyh2zsa6s0xa4rt4hra9	21741.37
bnb107lpz8zcxrqsl2pfdzm6ajnkmf0dshltuzxpmr	552209.01
bnb18sj7alq4xjwpm65swjk4a7acnekqymgedfe3lv	22775.00
bnb1fc5dm669l25lznql5jlscnltjxcnk6s8n7sag5	558759.78
bnb1nqckk6repqcx32a9suu3dgy2hcml0ws4j4tpan	67458.00
bnb1a36nsnjakd8cmksntefckvrrcywpw64hql38gt	0.00
bnb1pj04e3nkkgd3t3xcxwe8z4p25vg5svm7rqjm8j	57650.00
bnb1dhtezx56u362a7609pmtd8jw3ccrpvah3qksg9	49217.40
bnb1zrjnml3sxf306p3jaezt23xle5z2cy74wxr369	720.00
bnb1gtcvdjs66ayk8ftal7z37qgk863s7wyhzl3u3x	67480.32
bnb1jluwr2nl68naxs9nvx0mux6m2amdy32atteepf	476084.90
bnb18te0xhxpqwd3ddsmxq6nlwcghhwtvfm047axqj	56474.76
bnb1f040c8he9tswy7qckn6qnttnh239uyw9hg8efe	10535.00
bnb1fumegt3dmkzy09zdt0sfxz282m8dlkca47q5lw	10019.27
bnb18m42xp89ykqz7gljyjtwers703lj4u33vhytjm	90496.00
bnb1xdfnxqp9cuzcslkft39ny6rwzeulkx6lfk27az	1858.11
bnb18yez6ept6x089cukeqcj4lnfpvwl6ca2x67jgu	22893.00
bnb1r5dh7yvxn8atazt6sjcgu9jvahcgmmm3fffwaz	189638.04
bnb180hp2ms3a862j4u0wm5l5gl4z9t33fddhfwea6	77813.28
bnb14gx273k72u9rh9ue4ecfpeu0yg3lglt5cp5z7d	3469.64
bnb1y06j2aacngrxeqnajgpsuyxhtxg6av704yq58l	1137452.59
bnb1uhm7phhcw3a4tn8k4jq50e7lh0z695am0gu2yw	48121.00
bnb100r3jnyydvu6r800h0hjtu5jkrn3llk22ppxr3	15706.35
bnb1vkw0rsjv4ygjd0cwczay6t23re52e79zu8wj7j	429766.86
bnb1j7ksdx7zkadze7xnuk7n0d96s8esr2ywh9llmw	125000.94
bnb1sums0xu5waxhwd30d965tvp7ayezu5z4dh4gv6	148609.80
bnb1cj72vmdqfkskdfwdglr7duknp7gqrvy24hked7	237291.70
bnb1lgyux9fp3qnff6zkjdjknxdkaw3cwclyx43khp	219795.09
bnb1suk7qa9fyeylx7cx7smyl9rk6qxt9fk49cpy6u	3570.00
bnb1nt08gyeqpaq23wwt70652q7qxsc7ue6mgphdav	8611.41
bnb1ypl77fddyeqrx2h2gpkq63ztnulta6f65utwzw	234183.55
bnb1d0ch3xr8gggdecmvaeklrsmpmcjg6dcm0segsp	174025.76
bnb12c37jwarlcfl4svxdryqu89dxzjrduejkz6tss	89963.65
bnb1am5590t7tev9wlp7hlrp2qsjp693p4f8wn699v	836226.00
bnb1mmhmjqsenyy2xsa3eefqff73u8s3kakp6exfj7	135675.51
bnb16zd8p8geutyqwld4u9uwf0fk7u9ps7k3pxp95y	11273.35
bnb1rjjx7382fzjw92chx0n5pcs9gvd0c44tltt7qf	21421.71
bnb1qv3lehm9t705qt0mg9nzzkcymjkv8j7ymk7klm	142404.56
bnb17uyy50cg9kkqrv4j26ym2759e4ezs6fyk89zcq	131121.90
bnb1kgfr5468a7vu94mp5jt7qpzfuqcn8ryc82q52w	87672.56
bnb1egx5rqs7yaj5au0npwhjgny0s0gpthsk2snc0t	34705.00
bnb1087n7v9vdh2j3semze30tesn7h6zuth6tsxdyt	540010.78
bnb1nlxa3z3nrgdg8zkv550ua3pllm5sqc66vwc9ca	63356.24
bnb1tnrsm5dfwt6yt5ejqyz0hmhpnfsu7w3z22x59a	7588.70
bnb1t4nac022fxhwpz7gpwt5vvvjncmcwf73gda5ka	1911.41
bnb1h066plzq6xr5v94jft9laqys0afl7fdeg4h3px	24410.46
bnb1dqr0qjy7v0srhr9e0g7trcjsdsvu8p09jf5n33	306135.96
bnb1nudt74776dequ8lxwwdl49j0j362krqglae662	26498.00
bnb14sqxu0c0s53g3n8rfh9tk7f3qlhsuph6x65cwv	31531.76
bnb1hz8f8ejs6uy3fdyg99fk38pkmm3grxf2n643y4	19999.00
bnb1p06d5wsuuqsvl4s35zesumpn0svpynluwmymjr	1298186.25
bnb1j7yldl63fxjhsk064dnvywaa9f0g3ka940xd73	15114.00
bnb1rkrkr7gjpc5n3lwulqmdrvygup9zyhzy799t3t	8576.68
bnb1sj6vzk3vrvdnwwhmldxxtn0t8mzg0h5ll4cqgm	142.81
bnb1zr90fjgxjsjzsj9fjsd0rd7zkm5hqqdd6d5ncq	323015.49
bnb1qx2xkgmz27t0s7f8fc4xlyc7485ytr37rpely7	62442.00
bnb15xnf34069exax34m954p52vn4tltldtq7yp494	70479.20
bnb1jvulqla3m60duttrkcq4yv8l7zfm8aly5ddlka	41073.95
bnb1x7dswr6c4u8g02cnd6z5lqk4tvc6v86v6mjxkw	878709.75
bnb17rgya8gw4nnelnlt342y5cm6sylz40upjc8ml4	6642.00
bnb1qhefqvcfgg7y3m3wvg29g4r50958nwnt776eay	6017.78
bnb16znr4gq8a89eg40qzkvnp8vr30efxu9mntgykq	14880.00
bnb12tkrm0qhrn3pe3vnrfkt2vj0d3el5h5ncs3gh8	1180837.69
bnb1ylyf0auut2sx3y30kgwd5ss2zm9uqeuwr77y6s	655219.59
bnb19wk4uxv903masjla37qu0epmg06snd6cf6fdre	268931.69
bnb1yfyxdqfmwua4wj75wnc30tv0ll0m2jwxyx6xyl	57640.83
bnb18x9tr8garka4zsrfjq640tlegw3r4a22y43etw	30300.00
bnb1rsxmnwf7lhgrgzr6878kjlatlk08mmysc6wns3	197030.34
bnb1f2t5gr99srrv6gr0ldna8xufztdgfhxttgy7kg	73671.96
bnb1tu4h2yeumjh3dyf26jfcfl4nv54rfh58yyhs42	204020.00
bnb1637hwjptdrmln46v7vvj3d9mzktrxdlrsnqhj4	298229.23
bnb1y4m7jrvmvnsxhzghayyy5295gwfcn7uc9r0x4e	1872768.69
bnb1refww948ngpzhmc2jfxc8r50cacwmmr7jw2vtt	728660.20
bnb1tj8wzl7xrpqs4xmyeequ8sw2vqjny326mnyhzx	495351.00
bnb1eyqt550qgf982nd2jyduq9wpmsyaua54d4fevr	10674.41
bnb1uwfvycxpar8cz9h5cjzlmxfkdsdg0mezefdkj8	227604.51
bnb1ju6eehwue87tayz5u7pvuh33eke8l84dumf0mp	3385733.00
bnb1qelv08zkl623u5uv98cwpqrcdrjweyf9ufz09q	82060.90
bnb15khvelp3gyla26zfj850a0wt69lmxw8e5zuk2c	0.00
bnb1guadq9gslygmn22clw8358x8rum4ysqf8ckhjd	0.90
bnb1qlj8n4cmt75h2y6dgwse0xkfn55srheswj03s4	0.00
bnb1ch3u3tukjjghglhjeypxf4erzjczs22wv4v3ds	0.00
bnb1jgysvygkdf4ycqr92vu4juvt8ej5t6r07f7pp7	0.00
bnb13qf7ew7t9qk8jcpqw6n4e79ax9vwp2rmtn3nt6	0.00
bnb1utl6ffwx8yl9sdwa2ahtyzpcd9dm4uqah8sdje	0.00
bnb1wh57slxuk3e30g6lr7fv7wkwwcqgyaqz6k0ssh	0.00
bnb1lkn0nzvv73sm0980e66yqdkhhmd8fe23pmy5nj	0.94
bnb1se0kwzsmzwepx9pxzrfycpar86xsys93ahp8lu	57690.67
bnb1dmqq9k5dghc3992q45wsheqq9wvjeumszpldx9	38505.00
bnb1c8whfhqet3w4v6u3vw3xa8mlxstja82lght2v7	25000.00
bnb1v80d5274dmxt3h3vhrcp5ny9rygk5m0knkzsxc	0.00
bnb1646yxaa8qk6w3u8gyprecg9kzfwc8ged67w5pm	15530.00
bnb1myzyxl9c5hxvk62pvsn57s3w596af998y3lxwa	31593.00
bnb1gvnneevr42ree4ylsh5sd2f3cqwrk2kkpy02j0	23290.00
bnb1pjexmh4fx5xdymlpfjtzvl23xnz00e6l2f79aa	77362.13
bnb1mu4dge3np02qmxwjcvvjcg72czcm3pa5ax79gr	39230.00
bnb1x4vn6rn6rujsqd2wnmg6exq900jv20rqdfl7jt	13976.48
bnb1kldfyslphmpn70frclgptncfjyf0pyp243fh5x	6827.48
bnb1ugskclmklwhdl3wqwnk0c88ampcu6luuuqyjcv	158.24
bnb16ue8aypmp7xteeq7wysw8qtewxytz98dwamrwf	63700.00
bnb10hhfeyykqdj9h6le4sd2r4r3pcey5sjj9exj8z	11918.00
bnb17n204j3qp7n5nrcxve808svfjhyfqr2hacm4k4	89668.00
bnb1m0p6anm3hrucpdcguk5r7gsfkwan37h6x9dj0w	89214.00
bnb1tw3rhz2n96c5mdgyf4c0y7zd66gmajjde2aq7x	9206.28
bnb1gjq5dqkwpxc06x5jcp58rg64kex590t03ucrss	2530.00
bnb16zj2fthk7yhydekuffxljykv3uugetl3u08tt0	1800.00
bnb10fg8z9dumqhmfhm5s4ghyh9che07hplvk38k6t	12905.28
bnb1w7hc9rltf8l5st9rrptrmjdrgryk9uqruk65c8	9926.50
bnb1qtl978856v9864s6npal57wu08tyn30f9npr5e	3323.71
bnb12vl2vpy5xmv4ahs4k5fh0flle5vluyj8ufx8mw	0.00
bnb1un9e99dlc0zmfajnm8f7gwdd9j97suxr9fxe59	28112.65
bnb1c0ehe7tlyurqhvrd3zx8fnafekhxe9m0htzquk	51117.00
bnb14lsxfueydec3wm0xmqhemeejzt2nk2t8twkxjk	44869.45
bnb1vvv3k6kjpqrre8fr3htjhutxwan9vag6jrj9dk	102129.69
bnb13shdaefp3npa9angc9sy0dlsjmgs55cxy5r8fa	0.00
bnb1dgdxwulcepwdjdlmvx2q9cz5td0tdklqyuv0fc	7279.31
bnb1rhvp255lsu49k9rh4ccey7fcz0556227tzuwuz	0.00
bnb1jrgf2fvkjfwzywrndrnykkc6p36mt3ytfzq95j	103632.00
bnb1zn5sx2v553wdpkrygrry2952hrgczk7z62ema7	0.00
bnb16p0sp5nlphcr9y6v02lan7z3739udvwagrg85x	76574.87
bnb1e9agl7fu95yww436t5g83fe5u39ucsdckyhyaw	0.00
bnb1jhelx9fv0y6k7fcxhfjdnufnq9jxxx9a2ncemt	0.00
bnb13ug5mpgs4zjpw7n46h9u45adsxsw0ch73q2fdp	0.00
bnb1vgmhv2ry9p5lj7t08lyfa72qtmp6ngjjnvkn6v	0.00
bnb1qdf8x6ey3097jze4puv2s78f9hg2esnr7rasuu	0.00
bnb13a7gyv5zl57c0rzeu0henx6d0tzspvrrakxxtv	0.00
bnb1axqc2gan462z6npw3c33srp4950mr5x28uc6wu	0.00
bnb1zdwrqv02qqdmacf03us36u468a6q2deyan6w82	0.00
bnb1ldv93cm9nxkzsect4vjg873grmvhk8swgxy930	0.00
bnb1qx0huhc4qumqvcgnfpq7kymswk7zz60kxsnlvu	0.00
bnb1khsjvfl2crl9s8wk2lgrjtjmwavdlclpwnl5t7	0.00
bnb1vq66djgnwav22m296vphal87m57z75pr40zm20	0.24
bnb1v3k8nkyn022jva9lczxd9r7wfeu9udz8qywcux	150820.00
bnb1n6vfgk3r8rcml34tvwldhwav7deynyvln2prsc	19774.00
bnb1n7vkcsnq6zgy4gf37xaye9zhjj7kmt486f2996	0.00
bnb12n02td2xgrm4d3r3g3f7ds3nu3zdxhte04gznv	0.00
bnb1q8l5auwwq7flq5vlq08fxxzurznv0v8m6gx0gj	1132678.87
bnb1dhtyg5jgvw0j9jw37tstznyz0f6kt9epzyq2sp	0.00
bnb14exuadfl7ngarc4n6d67rqkrqsjrhuvvfwkzty	575557.53
bnb1vt0sy6l4r72ua9gjynky03um3gux8u0s3xfvpm	22700.00
bnb1ndke6h3sylnar0sszryjaccnhhxt2mzxkpgvkc	34525.07
bnb1hfyj6nqnsge8zjlxneyun6gnl43e3kscgvgk8s	100210.00
bnb1szspkerkvnl3qy6t0g5jgfntpl4m79c429xqsd	149497.20
bnb12ta2lrz4h8stv9t6ku6za88gwhhpncmkdhdg2f	4517.00
bnb1mn4wl7fn78a08f62ctxnt6kl2jgkrra9mwuzsn	29185.10
bnb1unrx9zfqvyqplka7hydzgsydt8p0y5hw7ehk4y	49845.27
bnb1e5ewkvyh8e8mrmrr5w65kvtd03zhvfuw8qsfuc	44641.56
bnb1zxnr0a6gxxmv3cup4dtt5jnk9dzamtt0cj68yl	0.00
bnb1kqm2ecnxpydr5hpcv7x9rpqzv7zxk2gl6y6454	13332.02
bnb178yfv4mtshsnect90y9twkt3tnu9wdfz2jj96d	48703.79
bnb1aeexvc3ugrkrcssaa9zj3v4tg8z5cu4ynfqwzz	0.00
bnb1l8t30s0eevunzw7v6yev2afldusew6ap7mlaal	
bnb1hjpa6z9eh37qlu2l8th7t4lfu9c067zjjcx86f	0.00
bnb1th5sdrf5wmx30q3ym30a6ty5zel5zslpsgzzg8	0.00
bnb13tdxfdv0qwa7ry3u4h74wjk5y0rm5lxnk5rxg8	0.00
bnb1553zyg28j9pr7usjc7cx5puvu4u7znyhj4pmm6	50.00
bnb1hzke64j0vynmm9eprx8hsrrzpnf47cmyvxd6xm	0.00
bnb1jqj45vzu3jr7xj3ev34qxskxa95rmczwaxy3k5	0.00
bnb1qgmhg9a077qdmq4x4nuv8jhw529zh0vc5hly08	
bnb12me6l98g9tc5jmdw5x544f28zn36sktru5akkg	2500000.00
bnb1sea7shprks76xqwqm4xyyzszuupnsc8w7dmd5l	1559042.00
bnb1devefureacvt9lhwlwshs3j5w78m967clghws2	1527272.73
bnb1mwchwe6lq4m5f78clp05ermumzv0wwapzv09d4	720478.47
bnb1nckmzqs3tgaernfllxkw60v0cvj553dwuegz8d	565850.00
bnb177xy982fqxc6qk9zwfnhhqgd4n55vd5wfsgx7m	509512.00
bnb1zk22tfw3fyl7z0wdmxl668y5qq70yvz84gf6xw	319799.88
bnb1qfexvdqmd43lnndy36c2ckd4elahaxd0q9nfg0	310200.33
bnb1kckre5jptlxwdrwjwruc93nh3tqh3y2m864hp8	220444.12
bnb1fg4zezx3w7k27l3rg03te46m9russws8djz2uq	219437.34
bnb1y23lz9an6540gw0xfcryjznrstg32ksl024d7r	199851.00
bnb1ep3nf4mafemfrwlgyl7vksruezngweq3udmxj4	197424.40
bnb1p0mn2sh4p72zqvzjaw8h0nk57s9re506y4j8lt	151293.49
bnb1w55mqjwalhf0e002dwf07k73ywv79vunjn2r92	148625.28
bnb122hfjhyu62qrshf2rhsfs2xvag09xxx5mtqu9r	141350.00
bnb134fk6ywlrhaxwg9jzuyjhsj2sedrvy0k7upsap	140000.00
bnb1sj0sedrus7tnnywr0astw7a44809jljrtwx8td	137477.40
bnb1tzjlppltm7pre6v0aanuntx8p6rcrqdgdpm22q	133000.00
bnb1nlwp6zwg5gk0r6prtl339at5mzun006l0s7a40	102268.00
bnb1y4q892gh6c0d6qwcntn7elen6xjtfz8gyc44uq	102000.00
bnb1mlswfwylgskq7jjt3eakf45myfe56yaxfnztjq	82051.60
bnb136vyll3taevqahu8l63plc43yqa0ku729g7tdp	74849.00
bnb166fw6frtj8duaatgsulmy7wkm40484ada7j2pa	68700.00
bnb1vlkzn7d03n9xtz0f4tuq0nfpplvxeenqdepmv8	68592.00
bnb1ehdfr4lt60adtwa529gf9va7xscm0vg45up42r	67430.00
bnb18r3d5qv5w77jz9gap890swqa8mg6fwx883lts9	64415.74
bnb1xr5e7ep9pfflp4gy4e6md0mk986uw34awg3ktu	60645.00
bnb1pytd0u3s87zma89ge0ae92k4mlygkml5culygx	57784.00
bnb1t6q635w940ml8az63g0fu4nr6xaa0gdjpq7fur	57694.00
bnb1z9hhrckwtvgkuylw7audd5w8406xu9q3qnrsf3	56825.00
bnb1mw0dse480untejufrkfgchkn4y55uqnpqt2sq5	52104.40
bnb1sfj05y8gdu0w2mn7w7d9n2dyvm0x4yvq0lfdp0	51100.00
bnb19dxth5fqfcxyykkftd4yydvdxxejp63ym8yymz	51000.00
bnb1ptv557fzzfr9qagqss4nlqj2pueahztul8jygt	50000.00
bnb1vhf53um9ypt36lytwyy84206paz6hgq70sl4cr	49177.42
bnb1hwhwyhjya400zd55c6l95s82s7g4xdtapaa8v5	47615.00
bnb1ka5lalveaqafq32a0g0cva5nvs98mm3v35ufcf	36596.00
bnb1at96vtr6jcllqp4c23z29ch4drwemkfyzgj3th	36596.00
bnb1prdkexdzkr5mhw0zw8nlysgt7wtum0r2eltgr6	34384.35
bnb1y8xazlf36kencpsmp5mvwwhj7eepfkf4ztykea	33724.00
bnb16j70p6clkgtvhrnm72xd8f5gwplsyuyt0rc6we	28300.00
bnb1h7p5l9ft3lu48wexad83hnqc5uk7rgv44yplxl	25888.00
bnb1plgrnrmemjap06lc0fs5gyndwhv3m8dvef76pp	22743.94
bnb1xnh2uarjk6hlun7a6h8htq86j82x3rpmves08e	22160.00
bnb1z426hfsc4fq9ssu426vfnsz2eruggynkwnla6g	20760.00
bnb1whjp9gk9zlpjjve33r0y7w5lfcswtyp4m608wr	20447.00
bnb18c0qur6s6adayhhfgxgyy07cltrsmw64y38dts	20400.00
bnb1gymht9ffkxxj2ecdw5epcx6ua5nslr3mnw2u39	20367.00
bnb1tkfdgcn0ccuyelu3zf98a5p2g3pj70fe8pxrgl	18740.00
bnb1nw4e57udwj2yykrpa94wftm3vrkwq8zpf53zxz	17992.40
bnb1favmgkg6f326wsc35r343u3hytzl7g8gcrlc6t	17708.33
bnb17hacevwe0flmkvzr46uut28j0dmgmv7mmlh82m	16857.00
bnb10m7r845y84ya9ttdc2d7rny9kwap6dq3p9acct	15960.19
bnb12ecnrm7tjxkvzxvrg6udyreh2550tjw55kuxce	14630.98
bnb1aynjm6jfvk3sc450xqk3tjy20x26ek80cm4uvg	11980.00
bnb1ktjfj6ze9c6fgq493r5qmd08ar9z5kqp85wu7q	11500.00
bnb1qk5ugzxcavh2z4l9ayru36xclnjp4g9hnx4twv	10200.00
bnb1w2f0h0rn0lqj4mpk2un0cvzaxaqh7jctyg32nj	10160.00
bnb138kf8hffzye3fzr93426dnk8hz3f0v2uy3jws5	10069.26
bnb1sk70g9c2mm5rcdqqwlrez35ethhxgejjelgrlz	10000.00
bnb1nlun9rtdcyerg3vqu97mfcx3svdtuset58jrzm	10000.00
bnb1qruk490p8932q6yrgdu2fq3vky3xc7jyfm6fxf	10000.00
bnb100cv83e6egqtnav9c08www3y377uwhx3gr8um9	9828.27
bnb1yhaletwspqzw05agefcsh6ufr94h9g5l8trc62	8984.00
bnb16sydpwht9zvvehyajnctggy3dm7yfhkrqfvr55	8925.00
bnb1ekxr0ac6wka7nntstu7wucndytkkwu76prf7j7	8900.00
bnb17h2ws5j6k9y36dq2r2j4ut6alzlqpvslrxer0y	8576.00
bnb1tdcdcvskw6077qdw0tlvlhpd3hem9ddx3pafwr	8280.00
bnb1w49eg0lguy9vaq4ke3qxsazd6qe6ex3m6zpag8	8272.00
bnb1hmwz4e37685j2tzlt8guv5cn4dtwz4vj2zmnu6	7576.40
bnb1n7tx92khlcrjj6ugpehnat72kmp47umk68gff7	6750.00
bnb1xsmsnp7gu5gyjlzvzp4gzaxwdavhfpgxznsnlr	6592.00
bnb1kqv28qez2l0yngwsz0x57h9zmfckv2xtv8wwlk	5264.18
bnb1ac8yph5pqj2q0h5wmtwqm49d8gm6a7gw5mvpwu	5131.25
bnb1rs3ddenu00p8p7cpw6vnat9cxz2qc2ayxxx4qz	3510.00
bnb1em9nsygepjt5zx9h75y05wgjluz8ywgehhc2yr	3400.00
bnb15kargly2atr90gswqsv2weqcr90l3jrugxqquj	3165.00
bnb1mmydtak38chkasc2fs9qd80g3kp9uccr9jfmvr	2470.00
bnb1s0t2zm3ylhfjhzlh60euj6wz4mrm97d5y0r9gm	2330.00
bnb1mr9rq7x3tjqqp8mgxe2sxak6jkwwc5xla32u3e	2250.00
bnb1lcsrekgqrt07yl070d22l8q7ajuatc7jmaa4fj	1673.98
bnb1zt99556yqnspgtczk6xjskv5jk3w2n8qxhn43m	1462.50
bnb1e4rz9lcgv8p5kk7f0tvr5wk9ar2l8scy2wk04g	1434.92
bnb1rkz8wzt5e3csccuray95mt5g3sjzrehl4yudk2	1290.00
bnb1syf0ue5sdaqvz8pnynmnnpvhj7n57dufnkgd9t	1087.00
bnb1n3klj982pseatz8d5g85g2hg8k24l7d85vrzzv	1056.10
bnb1dayvu3md66ncgh2vlpzyrl3us05auumn0lrj7k	1000.00
bnb1xl0x8faat7atrl2q2nxxjp57tvjctcldgmx809	600.00
bnb1s38q5rt9fxnq5nhf6ln3g06p4kkuexedqs8vq9	579.00
bnb1alx80gqa7xt2kqgshj2e383s4ule6lc36h7usp	520.00
bnb1dgye497wf6l6dhkh24yqkfzqr7hv80a69n2ugp	520.00
bnb1gmk0an24ljkxgx04hueykqg88vwmvn8sevekgh	485.64
bnb1rve8xzp032x9l08ej402jxakcjymf572klzrnt	452.46
bnb1ja6m05v7ccejcwqdys6cz2vfu2q37pj92zrx4x	246.00
bnb1p3rnd40u084jdxx5lx3t9q7zh3n62jv0tdtmc2	100.00
bnb1l0h97n75x58jd2cclf84m3usp4j0xy6e595xxa	26.00
bnb1xwalxpaes9r0z0fqdy70j3kz6aayetegur38gl	5.00
bnb1qhx26x87tadk83hapzvhxtgkcjascpu2tumalg	3.00
bnb1gl30nqe39fhju3939e8azwpl2qm2g6l0chjge8	1.99
bnb1uhk5t40nwtau2gjyjya2yfshszrsadnhr2elwg	1.00
bnb1j6lh9cd6h2dy78t4pee9pvggw4pacyqrhrruv4	0.98
bnb17wmamyl9ypstmdjqz65j6y6pmaq4rr3cyy5yuj	0.74
bnb1t5puggx7pacy049j7dfxlf8496pwyuxnpmvrvy	0.34
bnb16vhurazeeahk7uj60d9p7gfztr8crzwjmwexn5	0.31
bnb1erja4eku84fcutgk24ta2rzexslqasptlhw7e4	0.04
bnb1t6tnm2rckd3pfptngj6u8466v3ah4fcdu78n5y	0.01