bnb1xsmsnp7gu5gyjlzvzp4gzaxwdavhfpgxznsnlr	6592
bnb1g5ygemc0ehqhavfcphmp3c3t3yyf93t52atmg2	242804
bnb1s8d2r55typ66zm7kc52309waekaf9ecrmd9dz4	50000
bnb1xutm7nm9l46c9p5xvx94xuz08r3qadd28teygq	1397430.83
bnb1y06j2aacngrxeqnajgpsuyxhtxg6av704yq58l	1020140
bnb1qkmtzr72mpvayl4gq4y9kdyzv7r473q9kryn6w	306538
bnb15kargly2atr90gswqsv2weqcr90l3jrugxqquj	3165
bnb1uyyw4agetvvm6mvfrp5u6h9wx75nd6ncynyt64	28309.5
bnb1nqckk6repqcx32a9suu3dgy2hcml0ws4j4tpan	42042
bnb133sp2s58cjlqlrgh7s6a4fqwg5auua0j4v5rpd	52139.338
bnb1gtcvdjs66ayk8ftal7z37qgk863s7wyhzl3u3x	61224.706
bnb1qtl978856v9864s6npal57wu08tyn30f9npr5e	3048
bnb14lsxfueydec3wm0xmqhemeejzt2nk2t8twkxjk	40637.993
bnb15gxjn4hffqkag3vv6djqecr2cg09uldd9ht762	7007
bnb1fzu4nnvg5vjthee5j2qsmj9kywxg6mvvg4t884	84119.3
bnb1kckre5jptlxwdrwjwruc93nh3tqh3y2m864hp8	209433.118
bnb1am5590t7tev9wlp7hlrp2qsjp693p4f8wn699v	600000
bnb1t4nac022fxhwpz7gpwt5vvvjncmcwf73gda5ka	1713.68
bnb1mw0dse480untejufrkfgchkn4y55uqnpqt2sq5	48623.4
bnb1tnrsm5dfwt6yt5ejqyz0hmhpnfsu7w3z22x59a	6804.333
bnb1zcsrdhzfd5vvsx65psww78vvj7y9c6tuh3sk9w	1020132.29
bnb1y4q892gh6c0d6qwcntn7elen6xjtfz8gyc44uq	102000
bnb1tj8wzl7xrpqs4xmyeequ8sw2vqjny326mnyhzx	415071
bnb18s0yptz5205ql87jgmc24ud58v8t0z7sdp45sy	15659
bnb12c37jwarlcfl4svxdryqu89dxzjrduejkz6tss	76998.848
bnb1un9e99dlc0zmfajnm8f7gwdd9j97suxr9fxe59	25759.564
bnb1vkw0rsjv4ygjd0cwczay6t23re52e79zu8wj7j	390612.26
bnb1kqv28qez2l0yngwsz0x57h9zmfckv2xtv8wwlk	5100.18
bnb1yfyxdqfmwua4wj75wnc30tv0ll0m2jwxyx6xyl	17219.975
bnb1ylyf0auut2sx3y30kgwd5ss2zm9uqeuwr77y6s	272402.65
bnb1u0jv80dsqzltqaj7flx893ew6gamzw0d64q8nt	1214190
bnb1v87dy28978et8vsrssrpcfqdn2v59y60nvgkvx	10837
bnb1dgdxwulcepwdjdlmvx2q9cz5td0tdklqyuv0fc	6600.993952
bnb1h066plzq6xr5v94jft9laqys0afl7fdeg4h3px	21887.82784
bnb1jhelx9fv0y6k7fcxhfjdnufnq9jxxx9a2ncemt	125385.8151
bnb1ahdjkup29fad9l9rp6xp8syg9lpju2kyyfy5xy	353496.18
bnb1syf0ue5sdaqvz8pnynmnnpvhj7n57dufnkgd9t	1087
bnb1w55mqjwalhf0e002dwf07k73ywv79vunjn2r92	138647.284
bnb1mlswfwylgskq7jjt3eakf45myfe56yaxfnztjq	76543.054
bnb1ldv93cm9nxkzsect4vjg873grmvhk8swgxy930	1137408.544
bnb1mwchwe6lq4m5f78clp05ermumzv0wwapzv09d4	704886.39
bnb167r4n7guzm924nhccshhhum004hn8eu3p78a0g	1205222.197
bnb1fumegt3dmkzy09zdt0sfxz282m8dlkca47q5lw	9165.01
bnb1e5ewkvyh8e8mrmrr5w65kvtd03zhvfuw8qsfuc	106096.56
bnb1kldfyslphmpn70frclgptncfjyf0pyp243fh5x	6490
bnb1jvulqla3m60duttrkcq4yv8l7zfm8aly5ddlka	37279.83
bnb1dmx467sc0l5f9ujvc235vae4v7fkd0grmg7ct6	475730.88
bnb1lcsrekgqrt07yl070d22l8q7ajuatc7jmaa4fj	1591
bnb1ypl77fddyeqrx2h2gpkq63ztnulta6f65utwzw	26687.806
bnb1plgrnrmemjap06lc0fs5gyndwhv3m8dvef76pp	22206.79
bnb1xdfnxqp9cuzcslkft39ny6rwzeulkx6lfk27az	1665.882
bnb1t8mua25fp0pfu25z9np08nzn0v3mjgy7fvvl9y	466565.3
bnb10n3qdcxwm4h4karwqhz5ywknmj5cxc7x7mew04	152827.573
bnb1azlzyuu27tdxjg874qr494247z6jj97dv3y486	512191.655
bnb16zd8p8geutyqwld4u9uwf0fk7u9ps7k3pxp95y	10116.168
bnb1unrx9zfqvyqplka7hydzgsydt8p0y5hw7ehk4y	46129.85
bnb1j7yldl63fxjhsk064dnvywaa9f0g3ka940xd73	13550
bnb14gx273k72u9rh9ue4ecfpeu0yg3lglt5cp5z7d	3159.96
bnb180hp2ms3a862j4u0wm5l5gl4z9t33fddhfwea6	69230.02173
bnb1kgfr5468a7vu94mp5jt7qpzfuqcn8ryc82q52w	36579.962
bnb1n7vkcsnq6zgy4gf37xaye9zhjj7kmt486f2996	1285889.173
bnb1pgdtjq65zknsrpxywau2qp3adkxr9kpmnujcyv	529465.998
bnb1szspkerkvnl3qy6t0g5jgfntpl4m79c429xqsd	140004.17
bnb1ju6eehwue87tayz5u7pvuh33eke8l84dumf0mp	2151121
bnb1637hwjptdrmln46v7vvj3d9mzktrxdlrsnqhj4	277060.996
bnb1lgyux9fp3qnff6zkjdjknxdkaw3cwclyx43khp	134632
bnb1qhefqvcfgg7y3m3wvg29g4r50958nwnt776eay	1665.802
bnb1dhtezx56u362a7609pmtd8jw3ccrpvah3qksg9	44125.984
bnb1rkrkr7gjpc5n3lwulqmdrvygup9zyhzy799t3t	6783.933
bnb16pgz7exjavg62tkud0esvrx749pmjlvlkx8u7y	545132.164
bnb1utl6ffwx8yl9sdwa2ahtyzpcd9dm4uqah8sdje	99851.343
bnb1y4m7jrvmvnsxhzghayyy5295gwfcn7uc9r0x4e	1679035.554
bnb1se0kwzsmzwepx9pxzrfycpar86xsys93ahp8lu	10651.452
bnb15znh3ahlmfhkf4zcmhdyh2zsa6s0xa4rt4hra9	19726.662
bnb1087n7v9vdh2j3semze30tesn7h6zuth6tsxdyt	402864.279
bnb1p0mn2sh4p72zqvzjaw8h0nk57s9re506y4j8lt	141152.49
bnb17uyy50cg9kkqrv4j26ym2759e4ezs6fyk89zcq	117590.408
bnb1vvv3k6kjpqrre8fr3htjhutxwan9vag6jrj9dk	93588.969
bnb1guadq9gslygmn22clw8358x8rum4ysqf8ckhjd	63327.2
bnb1nlxa3z3nrgdg8zkv550ua3pllm5sqc66vwc9ca	42821.46
bnb1t5puggx7pacy049j7dfxlf8496pwyuxnpmvrvy	0.34
bnb1erja4eku84fcutgk24ta2rzexslqasptlhw7e4	0.04385735
bnb13gmnynvlkxkzpnpfttuxsww7kt2jskp6wntqv9	16836.993
bnb16zcr7p6tzfcnhlp2glehge3zm3c06wgfkk3ppd	664959.576
bnb127qjaxur7nra6n75q7kn6sypcak74cwkqyy79h	0
bnb1refww948ngpzhmc2jfxc8r50cacwmmr7jw2vtt	587947.821
bnb1x7dswr6c4u8g02cnd6z5lqk4tvc6v86v6mjxkw	235614.56
bnb19wk4uxv903masjla37qu0epmg06snd6cf6fdre	204780.521
bnb1f3setp3my3yz9mqu3u2zc7vgcjvas9vd0u3dle	93519.64
bnb1cj72vmdqfkskdfwdglr7duknp7gqrvy24hked7	207852.8
bnb1ee26vcmxqpnjj2zkpmaaa4jsdx8dev6m3hzgnr	41828
bnb1syvh88a2e57de7t6sx03g6qu26c3r3ktqsy3xm	0
bnb16ycrfu0y0hs7p5u90wp47754jwrgcz8uj884yj	0
bnb1n4cjsrh3rwcsfhlyznhjrqvn5mhlkgvgcves45	0
bnb17wmamyl9ypstmdjqz65j6y6pmaq4rr3cyy5yuj	0.74
bnb1u8e3scu4t04ksx6j8yvunyj5q2f9rg5ayk0483	0
bnb1sj3as4hg5mvh73xf08arsfkendv3y74n8r78m9	0
bnb1qelv08zkl623u5uv98cwpqrcdrjweyf9ufz09q	64555.3
bnb1zv93hlu96jeg6k2qxdrwkvu37f4ylgy9cpt6dy	13099.9
bnb177xy982fqxc6qk9zwfnhhqgd4n55vd5wfsgx7m	509512
bnb1j6lh9cd6h2dy78t4pee9pvggw4pacyqrhrruv4	18330
bnb17hacevwe0flmkvzr46uut28j0dmgmv7mmlh82m	16857
bnb1rkz8wzt5e3csccuray95mt5g3sjzrehl4yudk2	1290
bnb1kmtgdgxqsu7xmc4fdql7t2mtt06y2rdq6tgkn9	31000
bnb18te0xhxpqwd3ddsmxq6nlwcghhwtvfm047axqj	16678.05
bnb17rgya8gw4nnelnlt342y5cm6sylz40upjc8ml4	6160
bnb1y23lz9an6540gw0xfcryjznrstg32ksl024d7r	199851
bnb14exuadfl7ngarc4n6d67rqkrqsjrhuvvfwkzty	545000
bnb19dxth5fqfcxyykkftd4yydvdxxejp63ym8yymz	47500
bnb1w4ktt8uf0gqju50w5v8g3jw5u6gpyvy9z0ke9s	63378
bnb1j7ksdx7zkadze7xnuk7n0d96s8esr2ywh9llmw	127586.938
bnb1jqj45vzu3jr7xj3ev34qxskxa95rmczwaxy3k5	1020280
bnb1anztsnc4pkwdfpyy9u2aeh3sju2uu7yj2jmhl5	34654.3
bnb1rjjx7382fzjw92chx0n5pcs9gvd0c44tltt7qf	19054.74285
bnb1lrr0pc3ev0y7r4cevxy4jw4waz6xn3y8k5944v	215379.9
bnb1jluwr2nl68naxs9nvx0mux6m2amdy32atteepf	28590
bnb1aynjm6jfvk3sc450xqk3tjy20x26ek80cm4uvg	11980
bnb12me6l98g9tc5jmdw5x544f28zn36sktru5akkg	5036000
bnb1f58p0r440q4wkzjeuqzcpgdxuxlyj9hxycsntt	0
bnb1lgak5eftx7ljpzc6wzyhyufrh5jenuykvzc5p7	1192463
bnb12n02td2xgrm4d3r3g3f7ds3nu3zdxhte04gznv	326330
bnb1hv92px3hlyle5x6uewzn6w3ng9fcetx0zksp4z	1305
bnb1l8t30s0eevunzw7v6yev2afldusew6ap7mlaal	539966.928
bnb177xgw9m2uy20pyu4y89cml7yw09q35z507qh52	0
bnb1pjexmh4fx5xdymlpfjtzvl23xnz00e6l2f79aa	69527.42
bnb1dfn2madcmggjwpn8hr0w8l4ghfa8dgnzumq96v	0
bnb12frpphkdxru0qlv4lfnvk3wsj0k72cu4dn9gzy	0
bnb1g2332j5hv9qvje7vlvxsav86he8l8eswxf8fzm	5503
bnb18r3d5qv5w77jz9gap890swqa8mg6fwx883lts9	64415.74
bnb1gmk0an24ljkxgx04hueykqg88vwmvn8sevekgh	460
bnb1q8l5auwwq7flq5vlq08fxxzurznv0v8m6gx0gj	852935.31
bnb1mu4dge3np02qmxwjcvvjcg72czcm3pa5ax79gr	36130
bnb1hsxlp9zw4alf3lal40z0f6g382us46yz2nt8g6	0
bnb18yez6ept6x089cukeqcj4lnfpvwl6ca2x67jgu	20880
bnb1mct2lja7g7hf7q8lppne4m7qtj2vx5umnu75vg	0
bnb1qfexvdqmd43lnndy36c2ckd4elahaxd0q9nfg0	293195.02
bnb1jk2uhkxudg49nac4tl2rj62jpaqg5fwhn7nsn2	5000
bnb1nt08gyeqpaq23wwt70652q7qxsc7ue6mgphdav	1050
bnb1h7p5l9ft3lu48wexad83hnqc5uk7rgv44yplxl	25888
bnb1446dmc8u7jssynxhmjzay9wcx0vd6mh0v4l07u	197629.56
bnb1sea7shprks76xqwqm4xyyzszuupnsc8w7dmd5l	1559042
bnb1xr5e7ep9pfflp4gy4e6md0mk986uw34awg3ktu	60645
bnb1y8xazlf36kencpsmp5mvwwhj7eepfkf4ztykea	33724
bnb1jkjufugqnvz8llfueureuhsv46z6jwj523fpr2	0
bnb15pat5ndghg6tma6z4890kpcvnz62lfm4uh9rhm	0
bnb1rs3ddenu00p8p7cpw6vnat9cxz2qc2ayxxx4qz	3510
bnb1zdwrqv02qqdmacf03us36u468a6q2deyan6w82	1435863.58
bnb1sj0sedrus7tnnywr0astw7a44809jljrtwx8td	137477.4
bnb1l0h97n75x58jd2cclf84m3usp4j0xy6e595xxa	15026
bnb1kqm2ecnxpydr5hpcv7x9rpqzv7zxk2gl6y6454	12033.02
bnb1ac8yph5pqj2q0h5wmtwqm49d8gm6a7gw5mvpwu	5131.25
bnb134fk6ywlrhaxwg9jzuyjhsj2sedrvy0k7upsap	140000
bnb1rve8xzp032x9l08ej402jxakcjymf572klzrnt	452.4605442
bnb17n204j3qp7n5nrcxve808svfjhyfqr2hacm4k4	66600
bnb1tdcdcvskw6077qdw0tlvlhpd3hem9ddx3pafwr	8280
bnb1ndke6h3sylnar0sszryjaccnhhxt2mzxkpgvkc	31475.07
bnb1zyvkhqr5c3520rhwerntdxt2az556fwqg3s6q5	75051.6
bnb16sydpwht9zvvehyajnctggy3dm7yfhkrqfvr55	8925
bnb1hhdhry4hlr5dn5edanv4hc82agh3eszlksatth	0
bnb1553zyg28j9pr7usjc7cx5puvu4u7znyhj4pmm6	1900
bnb10m7r845y84ya9ttdc2d7rny9kwap6dq3p9acct	15960.19
bnb15nefrdmsklypqj5t3a9k4z2week8zyqvugrr3a	0
bnb1tzjlppltm7pre6v0aanuntx8p6rcrqdgdpm22q	133000
bnb1dmqq9k5dghc3992q45wsheqq9wvjeumszpldx9	34979
bnb1m0p6anm3hrucpdcguk5r7gsfkwan37h6x9dj0w	66190
bnb1s0t2zm3ylhfjhzlh60euj6wz4mrm97d5y0r9gm	2330
bnb1t6q635w940ml8az63g0fu4nr6xaa0gdjpq7fur	57694
bnb1prdkexdzkr5mhw0zw8nlysgt7wtum0r2eltgr6	34384.35
bnb136vyll3taevqahu8l63plc43yqa0ku729g7tdp	71558
bnb1llggef0uf6p7625gajp2lj5jnaqrj6pkcjap3u	0
bnb1eu9zjsl4cuk6z3hva88kndc8yjntelv8ks5vaa	0
bnb1qhx26x87tadk83hapzvhxtgkcjascpu2tumalg	3
bnb1lejrrtta9cgr49fuh7ktu3sddhe0ff7wenlpn6	0
bnb10fg8z9dumqhmfhm5s4ghyh9che07hplvk38k6t	11699.28
bnb1n3klj982pseatz8d5g85g2hg8k24l7d85vrzzv	1056.1
bnb166fw6frtj8duaatgsulmy7wkm40484ada7j2pa	68700
bnb1axqc2gan462z6npw3c33srp4950mr5x28uc6wu	0
bnb1mwqfc9wkqx9z3n5c72ug0c00pm6ektm8ez7k7l	0
bnb16vhurazeeahk7uj60d9p7gfztr8crzwjmwexn5	0.31
bnb1t6tnm2rckd3pfptngj6u8466v3ah4fcdu78n5y	0.01
bnb128p7tstalfc4e9064lt7vnwjd7yyepr6cv059c	0
bnb1tkfdgcn0ccuyelu3zf98a5p2g3pj70fe8pxrgl	18740
bnb1fndp0jmwft2tf4hlx244yvunlch665mapga8vr	0
bnb1g70pfy6m5f5pvxd5du5aqtdgvxz2z7flln96lz	45304
bnb1m6x4kkpkk7ukjwzgthvq8saaqle3qatxlcnwzy	0
bnb1hjpa6z9eh37qlu2l8th7t4lfu9c067zjjcx86f	348055
bnb1dqr0qjy7v0srhr9e0g7trcjsdsvu8p09jf5n33	269137.51
bnb178yfv4mtshsnect90y9twkt3tnu9wdfz2jj96d	43693.36
bnb1tt5jglr46fey4srrfe5638rc62wxttaynxfaed	0
bnb1qk5ugzxcavh2z4l9ayru36xclnjp4g9hnx4twv	10200
bnb1devefureacvt9lhwlwshs3j5w78m967clghws2	1527272.727
bnb1favmgkg6f326wsc35r343u3hytzl7g8gcrlc6t	17708.33333
bnb1yhaletwspqzw05agefcsh6ufr94h9g5l8trc62	8984
bnb122hfjhyu62qrshf2rhsfs2xvag09xxx5mtqu9r	131850
bnb1xl0x8faat7atrl2q2nxxjp57tvjctcldgmx809	300
bnb1e9agl7fu95yww436t5g83fe5u39ucsdckyhyaw	579
bnb126tscwlkkjret97cl0x2tew2utsvwl9mcu8scz	750
bnb1z426hfsc4fq9ssu426vfnsz2eruggynkwnla6g	20760
bnb1ch3u3tukjjghglhjeypxf4erzjczs22wv4v3ds	500000
bnb17h2ws5j6k9y36dq2r2j4ut6alzlqpvslrxer0y	8000
bnb1xqrsghjjcqcpv0uftth7klwy35h4nta46nexc4	6860
bnb1u77n4taw0elcvx2qrvrljdfn6al9pp6s6ft202	0
bnb18m42xp89ykqz7gljyjtwers703lj4u33vhytjm	80000
bnb1ptv557fzzfr9qagqss4nlqj2pueahztul8jygt	50000
bnb1qlj8n4cmt75h2y6dgwse0xkfn55srheswj03s4	6060
bnb1dayvu3md66ncgh2vlpzyrl3us05auumn0lrj7k	1000
bnb1xwalxpaes9r0z0fqdy70j3kz6aayetegur38gl	5
bnb1nudt74776dequ8lxwwdl49j0j362krqglae662	23450
bnb16j70p6clkgtvhrnm72xd8f5gwplsyuyt0rc6we	28300
bnb1nckmzqs3tgaernfllxkw60v0cvj553dwuegz8d	565850
bnb1z9hhrckwtvgkuylw7audd5w8406xu9q3qnrsf3	52018
bnb180vu8m9zsw8m9ty4qvjsczh5rlrtmzs6ct8mx3	211597
bnb1j4gjanrvx8dgdx6aef4tqv0gcp0d52pxj5ltr0	0
bnb1gul4sac4hfz5z4rphaz3rfgvhyg4a8qt847ehj	40000
bnb1whjp9gk9zlpjjve33r0y7w5lfcswtyp4m608wr	20447
bnb1mr9rq7x3tjqqp8mgxe2sxak6jkwwc5xla32u3e	2250
bnb1ehdfr4lt60adtwa529gf9va7xscm0vg45up42r	67430
bnb1sums0xu5waxhwd30d965tvp7ayezu5z4dh4gv6	129199.568
bnb16ue8aypmp7xteeq7wysw8qtewxytz98dwamrwf	57000
bnb1w49eg0lguy9vaq4ke3qxsazd6qe6ex3m6zpag8	8272
bnb1fg4zezx3w7k27l3rg03te46m9russws8djz2uq	219437.34
bnb1s8w72l8y0d7wskqd5ym0cqp79ypmn3p3n3dqhy	189393.06
bnb1d0ch3xr8gggdecmvaeklrsmpmcjg6dcm0segsp	153351
bnb18c0qur6s6adayhhfgxgyy07cltrsmw64y38dts	20400
bnb1vlkzn7d03n9xtz0f4tuq0nfpplvxeenqdepmv8	68592