[
    "bnb1ddugqak87gy8dr45uyznag0mhk9x8yrzh62exz",
    "bnb1fnxv4rnteg9gnch4qspe8l2a6k294mv04mtfjt",
    "bnb1at4esg7rvutrqrlpuak2fvu96pfzndtsczfhed",
    "bnb1c0lylq9kyez25js7f3uf0jfwv9yuexqshf0xk5",
    "bnb18hcdn6r3sxaj5stzsqxutu0umr9ccgk2h8v972",
    "bnb143sxha6l38q0t43m5s2fz4vf09x76arwp3ha37",
    "bnb1ulrf6jd94k33tv5y0xvlc40skgw0efxnhnjsna",
    "bnb1yhaletwspqzw05agefcsh6ufr94h9g5l8trc62",
    "bnb1saklh2huthwgw3zlktq5p3z8qaku7anzde0mqp",
    "bnb1r6yz6hsvd5qegnd5l78k6auxvdyhhr5mveqghc",
    "bnb18p66ykm25xd8ndc4v867zt6ke8cl3hf9g4adzw",
    "bnb18ppvalfnfk0j6r6p4emn87e8j2astgwmzjesft",
    "bnb1s6cve79l7p89jx5wdr6fx3qkhcd32ekjkzry4u",
    "bnb1manvc2j2z76g28zk5dpzenjs8lqu289duxucr9",
    "bnb1ka5lalveaqafq32a0g0cva5nvs98mm3v35ufcf",
    "bnb13h3jzdsu8n88w5zlkarwyjcv6muwxtzhdk558f",
    "bnb1lgak5eftx7ljpzc6wzyhyufrh5jenuykvzc5p7",
    "bnb1c52s6afacgqp2eylfkndt2hrshv2wp2hfr7lw9",
    "bnb1ceg6w0efzmewpfdlkuvut4kvh382e0vaq8e4gh",
    "bnb1l4cw8jtg3qy3eftzxhqxzlrvlt47zt2gy3j52f",
    "bnb1y6tue05y7kxk5zrmgy9ftdh8qdxj9qreeaa6js",
    "bnb1t03pw0hag07tmr3ly7xen7r4mm7gghnjy347ax",
    "bnb1n7vkcsnq6zgy4gf37xaye9zhjj7kmt486f2996",
    "bnb1zdf6s5uelh0ype39pd0u3vks7x7w8we8q084gz",
    "bnb1jpztvtn2reme6j97vvz2s6nn85vtaccw4jze7m",
    "bnb18scee76cq0f5ylswcz9mhglzgupzkea5nnq93g",
    "bnb1lrrmta202wym6qhel6mvflp02rkd6hl9wu2tna",
    "bnb10u86m5k0sdwm5zwg887wzufs4r6yhq889j8t26",
    "bnb17pjmjedn6hjjlxaghdv6qgdqhmsrzpsz8nl330",
    "bnb17ntquqh8hpgup20nt5puw360jy8rl5ydrmt666",
    "bnb1c0kmp2z6f6t094e836wnzjf5flhnah9t7wsgj8",
    "bnb1xma94ytvcruvw59g9w2988hmrxdxy8vqpcx6f4",
    "bnb1k23vls0t6t6zva49xhwrcdlaeqy2pakqn4lgs7",
    "bnb16j909whvrtf8tf7uvf9y8c572ufgplwz4vl4yc",
    "bnb1zv7zpn88xz3l4m8dgul3kypfnsv45ckg87pmj9",
    "bnb1l47ceq98wqfggz9wgwcz444s05ph4dpr98kdmc",
    "bnb16tx5mc870evez45vefchv8njtf6324wswtf2h7",
    "bnb1sj3as4hg5mvh73xf08arsfkendv3y74n8r78m9",
    "bnb1fndp0jmwft2tf4hlx244yvunlch665mapga8vr",
    "bnb1d76m9tlrzazc7cx9dy53kq9hthhcx9sgu7h27z",
    "bnb18eqngup56glyqkwpdekuhwf0hnvtnfw3l7kmuz",
    "bnb1lhu7xgfx9kw8fs8v0aurp6gswmzrr7xlzduqxl",
    "bnb17wmamyl9ypstmdjqz65j6y6pmaq4rr3cyy5yuj",
    "bnb1w5xs769l7h4c2j8ds32ku308h5xse9qgx86l47",
    "bnb15vyje8lpm47tehrswwrg9fxvckhlc8mvc80zpq",
    "bnb13nhsxne93vmlt64lnzr8807q7t8zn9q487mxlj",
    "bnb1a36nsnjakd8cmksntefckvrrcywpw64hql38gt",
    "bnb1ua4eeea5e6q7ak0lz64qppjrus0m8jyqgpqtuf",
    "bnb1k6c7dfflvu82ph5d386pzygaymrswehyn5gdlt",
    "bnb1mn4wl7fn78a08f62ctxnt6kl2jgkrra9mwuzsn",
    "bnb1myt026qe8s23tpeycpkjuydj92srrn6l3elf24",
    "bnb1kfalq5ujn74cqcsddty09xyhws7amakar9uksx",
    "bnb185nlfwcmep7mec96dvp65w362d3uvzsesphsup",
    "bnb1myay208xhl2wvfuv5vnmy633533tfu46rzx0dy",
    "bnb1xflm8rvplf7645c52fc4ph5ja3w87hd86g8ghh",
    "bnb19wk4uxv903masjla37qu0epmg06snd6cf6fdre",
    "bnb1evaj98e90vup2wkqqw64lcu6mtvahqlnzmxq36",
    "bnb1flrxv70wy4zsfg5nnywez0jqqu89xf05w69y88",
    "bnb1vnwegcw45r6x4u0kh9yexzlzzt3s7nhr4yh78q",
    "bnb1zu7cavx0rdk94a5adygtzqmp3fftj3hp4v0cnt",
    "bnb10mvn7nkqn28cw620h8tr7egfz9uwnd8vt5kwlj",
    "bnb1kytmvv0ew7z86me9qesxr6e3n822yn22x0y9wf",
    "bnb1mh3vl7sduw3hv4ryfe5zdscnpdur7xtrrwwq0c",
    "bnb16pgz7exjavg62tkud0esvrx749pmjlvlkx8u7y",
    "bnb1qk5ugzxcavh2z4l9ayru36xclnjp4g9hnx4twv",
    "bnb14032v9yuxlexc78t7y8r9l68e203c35zpcunvz",
    "bnb1n40smzfgyl2d85m5t4ygazu4kxh9x8zfdj3ntv",
    "bnb1vhupytk70m4quuleh3n0ryd7twsacu9he63ee9",
    "bnb1jc53ayq33p4vnyezzxh9r33c0qn7nsejhzjp3h",
    "bnb1tjhnryq72qkw335lkkvm40ujh09ymmpmdel36m",
    "bnb153lp4t37kfr797a8wckgjf7l2t7pqq7h53gs6q",
    "bnb1ptv557fzzfr9qagqss4nlqj2pueahztul8jygt",
    "bnb1mtsmtyzzwwhs2ljkkdzea9nvq7rl4jvmwnqd78",
    "bnb10yttykj9eesq6wdcujjtp3y928agjmv7rm9qtf",
    "bnb1cjjnw0g6sx6enah3nqfz66carg2uq3w60d3k8q",
    "bnb15pat5ndghg6tma6z4890kpcvnz62lfm4uh9rhm",
    "bnb16j43d4m0l3jd6t55u7z0ac6mkd9fk4m39adge8",
    "bnb1nudt74776dequ8lxwwdl49j0j362krqglae662",
    "bnb16j70p6clkgtvhrnm72xd8f5gwplsyuyt0rc6we",
    "bnb10r6czf4xjp8k9nqdsv0fd3c33tqek0mkexd59j",
    "bnb15anrfhedq5hfcgf6qpkf88s3cpxn8xfc5rd8g5",
    "bnb1s7j45h3f4pcgsxejeksmxslngkmxyyu2x5ym0q",
    "bnb1wr9cyf6lcf69mtck5zrjucdhnfcquzysv9y0ky",
    "bnb1zx0qhr30wtwza8exjmd3zdedqah920wrh7rkkv",
    "bnb1fsy9p63h9vza4jma0vryadtf9cne55lmeupq3x",
    "bnb1nl3nsnugyejdm62laasu7ded8vfh0dm3dhe0q7",
    "bnb1f540u3m52tvh57cttlxszy5e4alufsmhh2u087",
    "bnb12ez67zgw8qkpkwsze528yn28kpj353u72xrz0v",
    "bnb1hvwuxqh8tgpe5yj3pzvqjj6ggm3n3fu5e9fmea",
    "bnb1kxzr78q20tknptjsjq0rd33wwvs9xn4qsv287w",
    "bnb1tnv2hvmj4dgtvnnh8m7vma2m9gms5hegca5ese",
    "bnb102as7t5txruyx5me2kslq4mn78gwnx9r9h4jcm",
    "bnb1wja8ggknuhwuur0rtpgfye90gn5yvzk0dmn88y",
    "bnb1x7a5maqtm9vqrhjj7vy4sqwgty6pskjjy7l9zl",
    "bnb10x9du9836mvfvr9ej05svkwf5u0qgglm3e67vj",
    "bnb1p8xrfkpa5pc28ljsu9nu46wxme5uxszygsc8v8",
    "bnb139ye6a3t799javg9evpp8u53r6kc06uu4rl9va",
    "bnb12ra0nrw0ahke682y05q0l4qnt2g5fdec99es8h",
    "bnb15npu7m2r5f67uqqv45mgzps52vv7lru7lpl4td",
    "bnb1h6pkqmg4n7x67v67vc2dclkj3vv3z0sdyv3rky",
    "bnb12vkv9ag59ahughp0udafus9f096lsctendfksv",
    "bnb1mmmnmud0ql7wp5gpeqnckgzs58mlve9jppxaau",
    "bnb1y4m7jrvmvnsxhzghayyy5295gwfcn7uc9r0x4e",
    "bnb1u5ez7u3qf3anyddlm655ms5lzjgw0vwpn70zng",
    "bnb1cup54dadlpcd0qppdcch89vvfyt7tjxsuhhzzt",
    "bnb135xuqtjxsls8nannkg0mn6slph28v4dgdgq72x",
    "bnb1wtn56vg6mhkcq6jt64v8845x40h5thxp4czpwp",
    "bnb1aqfh5732elgwauxuf3kzreytwk0ga3lyv8jcsz",
    "bnb18ck65r0eqe647zch08v4g2cgmead5xckmy26w3",
    "bnb12m3jgx0eqef3dnrfvuat9h6c4n3khuh00f3wxz",
    "bnb1kytsr4treedvjs4wml5rf4etg75e6mn62hxgl4",
    "bnb1wu5l54fr9eqy7rq489cheq90y48vnkng0vq865",
    "bnb127mj2hk8hv2sgfy5lenckpk2zxej5dc9xgxrd6",
    "bnb1tyqun34kf4fqxcz4c89vtpqttfw6vxju34tdel",
    "bnb1jkks9wctgc89yn75wun3nj2ahxdmyhc4z8tc99",
    "bnb1djdwc2r89yxmecy5ecj443vujj55v2pumm56e5",
    "bnb1umqpe5zq7mysvn2uxe778q3ehz8upjsg7c9elh",
    "bnb1k4ku8t20wp82e0st0g5zn7qreqym3hxqm838ul",
    "bnb1ke70tyx0nzm9zrqjhxws3wuv0hqgc5s6kap2pk",
    "bnb1fl8kusaj6exad8wwtde0aypuy920qf0a662vlg",
    "bnb1slxfwsr9ex3tury8qp9lnsvta2cza34hgdtun8",
    "bnb163s5j65xmzlgdn685kwz4srphhzkgs954ufy5v",
    "bnb1c5ewuf06rkealuusvzzfxu4rr8nnl63kw6sn63",
    "bnb1hwmjrj9q7rw8lcy3jr9tnhzwepslfpzat5ycfw",
    "bnb1whm3amnpclrtu0v3m88tr392xsmsje8cdmlfnn",
    "bnb12pnsuswmnn93zm9pjvywp2436dccth2ek22c50",
    "bnb1dqkn4tzu7quxyfujch5su82pne6nyv03daqs2g",
    "bnb13ur3y52lxul6xysrxrj0tusn3kpvelfyx48mna",
    "bnb1qvzucd359rcguuum855htfz4g0l5p5n9syht0y",
    "bnb12ta2lrz4h8stv9t6ku6za88gwhhpncmkdhdg2f",
    "bnb1x9sm8l40sf3zwhy0h3sxgxm4ghng8wjgjc4q4n",
    "bnb1ypl77fddyeqrx2h2gpkq63ztnulta6f65utwzw",
    "bnb1a8e8u39krqtqzwsjcj7wcaaq6derl7qgwcnf3e",
    "bnb14gx273k72u9rh9ue4ecfpeu0yg3lglt5cp5z7d",
    "bnb1hslnmvchpcq05pru5a73wq3deed5vn93d9utvv",
    "bnb1862a6uyv8t2n630aswrj338lp43mn8j2uyf78k",
    "bnb1nhhvzn5kweect3rxnxy9txfsvmjp9zqefuuq50",
    "bnb1ft0src6sckds7skzzclevptfxejvkp5rz03dlf",
    "bnb1vvfkzakx9c86a5lnlrhqsxdxphmdpf3e3h20lr",
    "bnb1qv3lehm9t705qt0mg9nzzkcymjkv8j7ymk7klm",
    "bnb1ycd9393u9gx77njneqtp0q2ck73frz8lyyvfay",
    "bnb1nn85hvfk27jhrraf4eswzucnl4dlrhqzr0m8p2",
    "bnb14lsxfueydec3wm0xmqhemeejzt2nk2t8twkxjk",
    "bnb1wp6l90q3mgf428ptzq46atfzax3ptl5c3uapx0",
    "bnb1m6x4kkpkk7ukjwzgthvq8saaqle3qatxlcnwzy",
    "bnb177xy982fqxc6qk9zwfnhhqgd4n55vd5wfsgx7m",
    "bnb152xzrguz7d4jkzm929psa92kmgcxg6fpk9c796",
    "bnb1ewn8duafg4c6cq23r9q7q3epgcwae3vw0sdw76",
    "bnb1fpptz6jyfj4ytnazq82ganzr4l783w5lku8pw0",
    "bnb102l226l2nqz5p5gv8cayekc9qqqmkxuhwf9mr2",
    "bnb1zx60tkekp50r8g0tkkukt42tj3aymxl5afhhld",
    "bnb1jan6nx3lec0rrn5lqaly9zc2gswgla65cwtje2",
    "bnb1kls93c5l4n38nt3vtzy2xaxpd2vkqasam6vp90",
    "bnb179j6fnvu47t8kcta2v3h7jhedtctdw4wq5l533",
    "bnb1cq5alfg992jvsamlkw3ytumq7sps5p8223qxdh",
    "bnb142zg4lmhtrmrgr5luh4dh2cn422gt56kum4jnc",
    "bnb1k43uen6tqce3rqyrdjznyt64wczsm07tjvypew",
    "bnb1aclrysy29cu7q8uz6tjn088v4an6akj2vxej6p",
    "bnb1refww948ngpzhmc2jfxc8r50cacwmmr7jw2vtt",
    "bnb1eqh2kk9ysct2kc6s7gygsglsa6evc3vaafz35f",
    "bnb19xqanmkd4jkt2048t86zlrtkskzll23ae2pt92",
    "bnb1ekxr0ac6wka7nntstu7wucndytkkwu76prf7j7",
    "bnb1rvhnrr7cvne3sfmnex2yq22y5wey5we7j2z0aj",
    "bnb1637hwjptdrmln46v7vvj3d9mzktrxdlrsnqhj4",
    "bnb12jfnteztk5pnydls6cudw2mn95huhr0rxygphp",
    "bnb1l9lh5d594rvtkgq3dvwfp75raey7ewn23usmsx",
    "bnb12ysm2kk5p8vhgmmmga2wk2pxxq0pq97m99yjtf",
    "bnb1wfe6d0ff8n97x3yryydn20ym40e3ze87qcuqc2",
    "bnb17p9vc645ss2xagxznr4kj20702mw82eef5m57t",
    "bnb1gz0rxpzyyrfq3jvwrmz99gstmgn9gt3knu96jm",
    "bnb1nn0hs5tclkgyaune87eu6de8g3njslunpfnaf2",
    "bnb1zyfsxkf9tvvncggvfznyg92am53gp72y4lsrwn",
    "bnb1e3kyy4zgdw72tw4wwc4y8sz2jm03huplq3qr8a",
    "bnb15mnzw4ea7t0qf50dkzscezr66c2e0k6uhtsvf7",
    "bnb1a0hftz8c77wlzkgxdslsvf40qved93epdjc0xs",
    "bnb1nf9xkpfsm8ujpt9q4t62e2lrg5g9pxcsh2qas8",
    "bnb10m7r845y84ya9ttdc2d7rny9kwap6dq3p9acct",
    "bnb1smlh9d4fjt3v472d8q2egut0vgvuzfk24mpun8",
    "bnb1nnja6t5dsfplzykdt7g0lqe4vndx2z0kv8955z",
    "bnb1ya2vwnh2zkx5p7k6sweg8qhvsgj9gvngg59y7v",
    "bnb16js2g68vcsyr924lqt7rd5f6r720uhktpcqms5",
    "bnb16de9e2nvlj20rcsznpum94p2kwehvv7c32cr06",
    "bnb195uyppuc3gsxdj3my3qarkury62dj7v8lyz7g5",
    "bnb1n6uaxw9dmn8kffhq4utvdjf47nprlqypdptkr3",
    "bnb1qs46v05rvuvzm2zmhsgj7lcexh5kpmv43tmecz",
    "bnb1zjd29ya9hse3pelkyywcwm72e38qgcapzqcayy",
    "bnb1tmrnnhaheck92ynrpcg0affq4vl6j053gtk7vj",
    "bnb1t6q635w940ml8az63g0fu4nr6xaa0gdjpq7fur",
    "bnb18xcev4lqtnxs455pnk9xm70rycgkapcuhggy69",
    "bnb1q0caf75ae97ecev3nn68nwtsxf9ldlysfxzen2",
    "bnb1a8ssazsdlrn3p8nt83pn74vx4wvz77f3lhlc83",
    "bnb1635vg4f4vjete5zu20dr7ug2733dsfvksw54d4",
    "bnb1qf8p07ecppvrydc97quap99vd2ac8m04kz4kdk",
    "bnb1c6cu4fm9cz872tzv6e995cemewvl0m5wfdys2t",
    "bnb17guz6uqny43m363k4evt7nlg9q3h5kcwsle9wc",
    "bnb1zy4wn6t58lktxe5kc7ryrjksd2c605q2w05d39",
    "bnb1kg5wpqz242mhhxxqx0xmw3xkjl2qn3smaw2j0x",
    "bnb1rcd8cwa4ezje4wrvp2h6cnntcy5rnx2mleygrr",
    "bnb1rjjx7382fzjw92chx0n5pcs9gvd0c44tltt7qf",
    "bnb1s749rulxpaadv4z3qxlx9ml76q8v4acgtpy352",
    "bnb1tkechwzmaus4g2jh4cj85pwql298grxynjzfst",
    "bnb1elgq3uevyf8luh5nxpvt0jhc926a486yas3l5a",
    "bnb1xnlg5s7lnmsg2ckfcqxt638v3tjssn7eux7xr8",
    "bnb1kpevstazjaytdc74excdxkzavmkwjsrxkq8nnc",
    "bnb12ecnrm7tjxkvzxvrg6udyreh2550tjw55kuxce",
    "bnb1hdstpljshcsczhudvmu2qt4fujd4m2jled3xcc",
    "bnb1de0rldy00u2l5dcy7hdw8rq5t6z65vaur4y4ty",
    "bnb1cj72vmdqfkskdfwdglr7duknp7gqrvy24hked7",
    "bnb1azmptrcq8w7e49m04vpz4sj7e2p46rqp4j9ucy",
    "bnb1gcjq9u476jn9mvrnua5dmz7trvftu84featjn3",
    "bnb1nckmzqs3tgaernfllxkw60v0cvj553dwuegz8d",
    "bnb1e7pssgc6skjty0ydg262yjma66qzulh45s9q6s",
    "bnb1xzh02q44yhkrww5mlg09u5mzgt4ae9rq0jervw",
    "bnb1twas5fav2sa4vc4g8xrdygh54vx7sfkz5yqlc6",
    "bnb1h5juzyk3g29qf6txqhaxmyeh9nnzy6qvqjq2rv",
    "bnb1k2z6c92sycjluqeqqy7nla5x4kpmd4w080t3ct",
    "bnb1phure3eym8yl6kk3zekr367tmtgy72cs8wtfep",
    "bnb16nxntteq8x9qmqle8m60ndadp3cw002q04j9dd",
    "bnb15z9v7u2h3nkxsyvqn0gjry758r0s4r6wdlv4v6",
    "bnb1pytd0u3s87zma89ge0ae92k4mlygkml5culygx",
    "bnb1ln3gx7vekfgtwuyxec2kdchk26tm2lwc7e2zc9",
    "bnb1guadq9gslygmn22clw8358x8rum4ysqf8ckhjd",
    "bnb1p67c5hq2xy8gymkcp79dd7m80rh6zn8274ec7h",
    "bnb1egrjdgtn660rs54jj60280m32ldsxxk3wag9vd",
    "bnb1fqfcm0gzm9yhdu6mkuntve5ysme5g4fts0jquv",
    "bnb15swkj5f96v5ghept2ftdy0fc8qx8s0h5z22xe2",
    "bnb1asr69j3vvagtdkyt0468lf5jdy6u2amce63ee0",
    "bnb1w6nycc0ag3wt5zak2fj5wa6vh9alr4kpgnewcq",
    "bnb16xevu9gc9f8rlnkha20k6g4k6s4tefrafexer7",
    "bnb15yt4ymqgawgngvg5r98kr0v3qssqcvhqqpsx5y",
    "bnb1psvqrqf3qsqcjwff4nn8lp46pv6x9wwhp8qmxm",
    "bnb10da6r0rgcztvgunj5cqerw8tkk7r22fdvdjum3",
    "bnb1lmzd8qayljxv25q7nljar2rcynulvq5dzt8rtv",
    "bnb1a40r0mtct6kznlxezmdura0uqk2qg9f8l7w9aq",
    "bnb176pmen305akf4tw9wydk8wrzug4h80zalec27d",
    "bnb1m0p6anm3hrucpdcguk5r7gsfkwan37h6x9dj0w",
    "bnb1svetjph3pwt3093vq8vr8nlrnnsj7a8q7znmux",
    "bnb1hhvch5jh5h8788qvqwlxa3k93amcxmwgpn8l4t",
    "bnb1q8pxd2kmwxmywy9lpanq9m0wkrfmhems2ggrqf",
    "bnb1zdskmt9n8k8c32sq3yhl865kp3a4d83d0kjmn7",
    "bnb1lxkcszk8qqn0u4mx3xrtdpqwkynf623fq9jjlr",
    "bnb176thrhreuw0fgkc9amtgfa768yt2dzzn524tg3",
    "bnb1g9jss7qkzk6vp25272a30l5a2dc03nulsl9xdl",
    "bnb1n2dc9jp3afu5qeajxv0w6d9cj7vwhtx2k0p6jc",
    "bnb1f040c8he9tswy7qckn6qnttnh239uyw9hg8efe",
    "bnb1hjc8r6vfl89295d7h03tqdc2jetsfgktwp7p8v",
    "bnb1uzaw7uauttp9vlcg3kzrdsg80pakwhjv2n28gd",
    "bnb1ff90txfuau0x8qdypkh265ffsg6r0862sakdmr",
    "bnb16wu9ua7h5367fq8alahjqdkzcgsq7uwtt6dqly",
    "bnb144yffv8tuh473dpaj92evd6eg6tq69409j6mfj",
    "bnb14kf4lx97u7xvchmnv8yl6tuu70drtsppfvf5ax",
    "bnb1u89vmq25pex7vjfckjtvjkpy5mwmssh6f3y7su",
    "bnb1dwcanxcd904tgf3k50grymr37ucp48j7qthth7",
    "bnb1h7l3jsxj6ekv52q25gvjghjhdffepauazmz24s",
    "bnb16rcxh09w5sh2ktncrsca0auqwv9hl0evh08spn",
    "bnb1nkvk5rdpu02h9rllwu7klfu4mcxr79gm849veh",
    "bnb10twgqt9krx9uzf3l3kptna88nx0dp60my77tmq",
    "bnb1ur3gtc95g0jncz0etxnuvnz2mdkwu7v4e5rv4d",
    "bnb1u626k5el60y0fyz6c3fcwf5efznn59kk0hmyn8",
    "bnb16qy5axtv60aggm08y9lh8pnt82a2wrk6h3wfkf",
    "bnb1s0c9wj8yfeh8gtu087asv0sxccv8un2wkvk7ye",
    "bnb1mnzwqrwzzy5vyd2zdzkcqlu9c86yyqyktyydm4",
    "bnb1yn25cljv6rm5aj4fzfsrtx37yk2ruf06r7vm7y",
    "bnb1tyrh68s803degv4atkeenk4n0g3ycafx4z4ldg",
    "bnb1puksxygu2ymz6sfeyvrmdjtldtl7r6pj2cwx94",
    "bnb1cgqvazc7dhe5hld6zxa2gdp5w543hgw3vqpanr",
    "bnb1597aul80ytfnnwt5z4kh35czv40cgh0u8afvkx",
    "bnb107gcy35pnrepvz80py229l5ky9cqeurt78uqlv",
    "bnb1h6llun55avtm4r0hvrg89lfesh3q3zkdfnsfjx",
    "bnb1fytf4425qjnuh6els75rsvg4mqra3dwxvm3e5q",
    "bnb1ekgjdpw2ezz8j8s7kl95ksdrpth0xy9vy3jk87",
    "bnb16g35rhuhjkegnpenxj6f8zgyp00y629jugalqn",
    "bnb1gr73dcpy6zywtpvk8yngv7v7fy9t4ndu4d67xw",
    "bnb1y4q892gh6c0d6qwcntn7elen6xjtfz8gyc44uq",
    "bnb1at96vtr6jcllqp4c23z29ch4drwemkfyzgj3th",
    "bnb1nlwp6zwg5gk0r6prtl339at5mzun006l0s7a40",
    "bnb1v87dy28978et8vsrssrpcfqdn2v59y60nvgkvx",
    "bnb1mw0dse480untejufrkfgchkn4y55uqnpqt2sq5",
    "bnb17zyn8txlpggmhat2fa3qxjfyj2hdvcr77zscsc",
    "bnb1nd88gqz6w5hnwmmg2438w88tydedzw2n375cm6",
    "bnb1f3sn6upa38s9uxseeh2jyqhrg5nze9v8cjjks0",
    "bnb12n02td2xgrm4d3r3g3f7ds3nu3zdxhte04gznv",
    "bnb1z8pdtduepmhnnag672g3y8zxwk6kx9hyap3gyu",
    "bnb1se8qh0jxackghnp8vq7zhk7pq6m33u29adlxmu",
    "bnb1ul3vrknmnfrj4yd0zx6sas5zpvagr2tm4qsp3r",
    "bnb1htqmn5vzu40tglswfpxt750fz90rvs6qehd8s8",
    "bnb1w4ktt8uf0gqju50w5v8g3jw5u6gpyvy9z0ke9s",
    "bnb1553zyg28j9pr7usjc7cx5puvu4u7znyhj4pmm6",
    "bnb1vhxhzm5yj5x7k7swl2xlwcleq5jxvm2jgnhjd9",
    "bnb1npvhsy4j0whfunqera8c4s4lnu6m28qhg4nf64",
    "bnb1xvpr7gshk29sfesrk45jrvc0payhu0yj3xekwm",
    "bnb1p0mn2sh4p72zqvzjaw8h0nk57s9re506y4j8lt",
    "bnb1nlun9rtdcyerg3vqu97mfcx3svdtuset58jrzm",
    "bnb1k25jr0mcq0wnsjk4ccnzv88rhhsku38e4ta06p",
    "bnb1rj09uc559tr4enqfrf252ndxy2umsn7qv56zqz",
    "bnb1gymht9ffkxxj2ecdw5epcx6ua5nslr3mnw2u39",
    "bnb1tvze03erkgfhsvd247drjj4vveh8g2j5w8s6p4",
    "bnb1kkesqjgqteuu9scjhw3uxlpgdukycxz84zklxa",
    "bnb15waws6uz9j8t92pqq4xsfwq22qcxcuung8tzvz",
    "bnb18affn0f7g2wjj4uh4skdu92kv5envdtfxqseth",
    "bnb1p7vqu4una3xms29r0qp8f6mdwh8szxkp7mxtqn",
    "bnb15umuwjaxymmhdyjujpnxwakywh2ra25knsszsh",
    "bnb1f0lw7e8zxf6259kpj2j8dm5qs2jt8920v3e3w2",
    "bnb1agkv2er434vnvsvnkgqaxtrtwjnmwm9zpha6tl",
    "bnb1anztsnc4pkwdfpyy9u2aeh3sju2uu7yj2jmhl5",
    "bnb1urw6c05snau8rmxp4p5h0khqrxxqp9xung0kcj",
    "bnb13fynp9k4szux9fvsvgk2e9yg96pzd8t6kp3m83",
    "bnb13nkh53x7sd0vca2xah7wllu0qpxwn9nfzh33s3",
    "bnb15224nk7awqxfamzvu9v43mkap94pupy2jrfsls",
    "bnb1ul9f2x5lruj53jl3mfnjrhwp5dn2wmuq5lm4r7",
    "bnb1ltqgfk45mg8wjxpezvs2v9huyp5tyztm0jhy4u",
    "bnb19lpc6der26c0gfedy0mmrn4n5lqy59s02790qy",
    "bnb1x8yqtzsktkcqgdjvw8dde38u3xd5nm477qv4xs",
    "bnb1yzhzfdrgzr0yhgzy5dh73lp28tps7pe0a62qau",
    "bnb13ae65g2wf8mc248ssz3fqdxwap9eltsvxjdyu0",
    "bnb1gatc2ej58lfwcu5ulawhc0dx8u2w2l54xhsrq9",
    "bnb1pg2xr3gsgkt98flutxfav9t4madg2mljg6yksz",
    "bnb178yfv4mtshsnect90y9twkt3tnu9wdfz2jj96d",
    "bnb1dhtezx56u362a7609pmtd8jw3ccrpvah3qksg9",
    "bnb1xf4asun4dmgh3rf2dg84368mvqc30dkh0ev7cf",
    "bnb1d5ytwz5euc986wk53j5x680fsddz2x3cxuxvz6",
    "bnb156ld5qefz2ck0xqgr8j7gpxr2q2qm5l9jdmdhg",
    "bnb14av0w4lvw3fjut5w0a4zyzmlpaaece2l7wj3v0",
    "bnb1futzad0clvyj0f68le4lftcrrq952kkwcn9nzr",
    "bnb1ugskclmklwhdl3wqwnk0c88ampcu6luuuqyjcv",
    "bnb175kud0jjglpl6jtxtsa9u7p0ez594nh6pjda00",
    "bnb17lunphx0g5unl3cevmkw0j7fm5jdj8ylp3w63z",
    "bnb1fd23utfkjusdq4g8yyvjx509ltfyl7jdag5xsk",
    "bnb1zf7lpum3al3xewlt492cdgmrv3shd42dy54ael",
    "bnb1nc7ja0gjl7g0kkyry9jj9ppyfgdznu3753tj02",
    "bnb1glwxrmn24a9f4yq0sje80ea63xtyfumh727958",
    "bnb1zsev3pafl3dqh9vrsk3cs0g3ew7ucunjm6e3mt",
    "bnb1kjhzssp093ljwgjzutrcrkeh7ffkq656p5uzcm",
    "bnb19szxx3lnkjerxq4mhdprdfy5lf9h44l5xpkkqf",
    "bnb138dg8r9kx0nrffwxvv8d7gcmf94qal92phe4pg",
    "bnb18h4nmcverw0qqrwrqnnavd3j8kjjrwkt2xz9j0",
    "bnb1j8vm0wxxv9dgm0tsslrlg0henvm5x98h37uqf9",
    "bnb1p2p9fcy0z2z77py25d0dymcauy0m9av9mmd4wy",
    "bnb1x0qdfdlacqhjutdj75p3tx3e4f5yr9zxaystuu",
    "bnb1y3vzn3ea7u3erw895wc3hsk6nftzsaum6tmyyg",
    "bnb1s8d2r55typ66zm7kc52309waekaf9ecrmd9dz4",
    "bnb1ufy4l6mcsllqnedf9q8a6ucm3crz5x9wg8rld6",
    "bnb1wejk8wnwqw6hmrqpwwtu34h06egxk7hk43kna4",
    "bnb1nlxd2lvza3m48zcghcg79sflcp8t8sm54em6yd",
    "bnb18dk8xemsjnlcmc6llkvs3xgss8pkhunprptq6z",
    "bnb1jkjufugqnvz8llfueureuhsv46z6jwj523fpr2",
    "bnb1rcsf66q35dgssppkl8gnc4mn68hvftdsq3lyr0",
    "bnb1f6t0zvdh54gf547q288zs0pgvjcgmmrummkrs6",
    "bnb1wdgz5cajwz4703athjzyxs4lj4tpfxhvqzqt0t",
    "bnb193ws3j07m7kng6yh6pr4zt78daw4ndqhxfs398",
    "bnb1uyyw4agetvvm6mvfrp5u6h9wx75nd6ncynyt64",
    "bnb15c88kl8d878zjrtl96gutkat3ray4c2cedkscj",
    "bnb1mdkmctdejgwkd2yry8hvuy6hgjgrvllvhdx0vg",
    "bnb1am5590t7tev9wlp7hlrp2qsjp693p4f8wn699v",
    "bnb1lghdlcl4wkgrtdsr6kthcra3xddanm5qdtw6mq",
    "bnb1t7kptjtwehqyjqke4wv0tfcchf66gtnarv07av",
    "bnb1eu9zjsl4cuk6z3hva88kndc8yjntelv8ks5vaa",
    "bnb1ctk439cnw3v27c6jre0vu42mp2envnnee8kdjg",
    "bnb1lcsrekgqrt07yl070d22l8q7ajuatc7jmaa4fj",
    "bnb1v6yhesyhe989ylzs6a8lqryu7962tl9qama8g8",
    "bnb1e0xd9xzhqqkrzz3gg74uyfutq47xzs0xaxd2hs",
    "bnb1j83a2ed2w398lsv376lvavpn4tfe3cs8rrvkuz",
    "bnb1lzesnlzf7tmyv6qg88jcczph6ugz5xdfy6kljt",
    "bnb1e80lzda6zqck4dx2lkf88ypd02eay52e55vlj9",
    "bnb1cw5tfyp69rghxg3ze5hw3ml5dv6z532ym9flzh",
    "bnb1d0p9v9ppqf5xkgnhj3rz385wkmlhlvl5n5xl6h",
    "bnb103cp7lc9xllxz4t5v6k3ddhtes940mdyp0vm3r",
    "bnb1suu93evu874f6skqsvl0uc4kjnr92gqd2nt6c6",
    "bnb1sfhfvzqpwc5as8dgfkk6r3jsg584ytszc5d0q5",
    "bnb1syuheqv0wrqk2dxt8rhkdf9p8h9repe5zq4kr0",
    "bnb1tw02rwrg869dxlkzl6zueywvgp207eljvpk69f",
    "bnb163ramyped7q7pa38xxzu4mxvjn7ky7r3fzmv5q",
    "bnb1429ez8t0c7ad0keuasylkcjal55j4hhl2nu6ll",
    "bnb1f8akae82zdq7nqcqceaddrr7uspv36xkaghcpl",
    "bnb1cetwwa6q26e5y0knw2ghl2mn5lvhjjp0gahvf7",
    "bnb1avpl0wdyjdsduvhwgc78mu67xk5zmt977cf8md",
    "bnb13q870gwuyy00p2d2w3l8q82q6p5mfesdx5xm8u",
    "bnb12pwcxrxfj5f2jp55nsvy2sj6ugxywhn0xl76a0",
    "bnb1hw3jm9rrvk9s8kf7s3yt0tjm5yvms4qrru5ff2",
    "bnb16g5mauu674g27g6zxc0649nzsgfls865zdz7aq",
    "bnb17jt67tfaxevsupn6spy6vcr7ht5ky78z3rd8lf",
    "bnb1ee26vcmxqpnjj2zkpmaaa4jsdx8dev6m3hzgnr",
    "bnb1mjyt3vwtmk8jwvfztz787chymdv860qgawtz45",
    "bnb1vcd934gtcf8dqn6dqqfvxqcs99lm6rrg8zmrgm",
    "bnb1yu9a8nsh2r6xxe3zcaj4tcc094kvky3rr45m6r",
    "bnb1czp30upxf27z4a837c6d494k0yhjku3xskdd0c",
    "bnb1r40k24lh498aer7u9aqur2qucsn8s49t24ye5s",
    "bnb1hd7xf5y5cn6azr052cgxsc6ak5l5gmgl3zeg5g",
    "bnb1gjq57u4qxlrf3llnu9lur2hudtmq6vs30wd0wx",
    "bnb183tl8evctcerf8jqkgcsgca7qczgv0a955qnhy",
    "bnb13unr75vmsc680dse6es7qyxyfu2qjnnrnlsp0y",
    "bnb12pepu39f5ky0lutd06uvymew80ssgh3hmql4v9",
    "bnb19xkklxad8c7cxwcvpc4vlxfnhq2ulhuecu3z97",
    "bnb10thk4fn74hw5h8xre3x46vtye5grq04lvwvm0l",
    "bnb1pud228lfes3eftj4apc0y5ppfz9mekxjntye5w",
    "bnb1qlj8n4cmt75h2y6dgwse0xkfn55srheswj03s4",
    "bnb165n66vep8zgvckd93pk5hzv8h94dtz3p5zzayv",
    "bnb1dhjryj0j7zfy0s2ppstmhel2mjl3fekgmgzsdq",
    "bnb1mqhhg3xlhclvxccj8phew9jyvxly7lykjskmlq",
    "bnb1xhmkruf6ksx6k47flr9t02d88z5ffpuq2xhs7e",
    "bnb1mvlfrck8jgzh6yuhyejvnul9ywvtea9du55yju",
    "bnb1ysjpu9eh2asn364xmxq6ph0xllha40lgpn27h6",
    "bnb1dup65p2h6zyd0dkn3ew0ms6n894rmvfvfyxjkt",
    "bnb1mvr850wn4ssu5vh2aawj6z9c99u8f84lg48vhy",
    "bnb1qnppft9k3cvet68rqajmwlnd5mdhc8a3rglppp",
    "bnb1aju9mvwkwp0apus0v8jdlpyf9s4kqnewd2p6zl",
    "bnb1qcac8s0d9atrkjlytjrpz5qhe8f85c0c2fxljq",
    "bnb1tt6seau3zmv2rakvtsxmrtt5n04fs5g3wftfae",
    "bnb1z9hhrckwtvgkuylw7audd5w8406xu9q3qnrsf3",
    "bnb1pgvhndplywsf8gfh0fdsc5spacr6pxupf2pkaa",
    "bnb1fdnq6m8jmkgv3ljanqp0kevpwmlck322lfzm3x",
    "bnb19z2ex6ncdjjv02ehcxqv97p7wvyz976gwqwyx8",
    "bnb1d2llfy6r8meh2efe7dx8n5acpk0wyq5pz8443l",
    "bnb1zu9eh5rpda87y5jwuvayukkxhanefkprey0q8u",
    "bnb1qk5ku662llh6mhxatd0acjc4daal7u7zempwh9",
    "bnb1ac8yph5pqj2q0h5wmtwqm49d8gm6a7gw5mvpwu",
    "bnb1ef30ayc5u4l3h5332hszw5q75y3c7v8ygfpe42",
    "bnb19dxth5fqfcxyykkftd4yydvdxxejp63ym8yymz",
    "bnb1qladywwucd0zp4nh8vnz8srzd0qfe06tqkn65t",
    "bnb15wsm48jkc0ctzj8r2cm6p9q4ysa5kymtpfl57r",
    "bnb1gfx3mfpuevtpzuatf8t497v94uh9euerc8emgy",
    "bnb16rr98pfrel9dlra5x2utz2u6xqqapjc9feeler",
    "bnb16r23qz0u3mfjgl82vrql93j4jm0z9anwksejeh",
    "bnb19qw605x0agjj0d6e38kgggt8pqe6dxzaprj0vp",
    "bnb15rf389vcdg2n799kkyc940hdsh9655gdwhd5n4",
    "bnb1xsmsnp7gu5gyjlzvzp4gzaxwdavhfpgxznsnlr",
    "bnb1p9mz7f06tjamhcen8e5tkfm76a2t7sgv4dcqfl",
    "bnb1087n7v9vdh2j3semze30tesn7h6zuth6tsxdyt",
    "bnb128f3nkr4e04yh9nv93m72lrm2ww5ff6ka0qqyg",
    "bnb1hhdhry4hlr5dn5edanv4hc82agh3eszlksatth",
    "bnb1h0jp3va7nsxqm6nfjszqfjw4qskgeqegcnfrtp",
    "bnb16ycrfu0y0hs7p5u90wp47754jwrgcz8uj884yj",
    "bnb13fclus6ay4h0qcdsdpyt3yu4ar2jkxf85qu2su",
    "bnb1qlhjw7wnqdfy5znjc8fu0jtu2hlmundwx7vff0",
    "bnb164trkq7u2779p0yyyjjkgxdqh80kjnq4sq33ul",
    "bnb12vqfpm2h8uv2aem4mgfpyu44f62rzftn6wg4fu",
    "bnb10a7gdqzmlqy2hzxc6u6x8242qnzyxjdkm8dnxk",
    "bnb1e7hncegfrwnnqq7n0tyghuj68ckj32t2nqvlcs",
    "bnb1n7vd2frs2lltn07r333dmgtl7574j6cedgsjkx",
    "bnb1x0adw2d3xs660cgfuwednntk62j4ve6a3wx7g6",
    "bnb17sk2heqj37xaffyggtvhu07p6pm5qrezyu6fp0",
    "bnb1ufc8tehras539sawwc8e24c2l78ephxdp5llkf",
    "bnb1j0w9t02u7n42mlala9qg6zrpl89akzznl7kp88",
    "bnb13z3ay4t32xecffu3r29zv9kdzjyp53j3yegs96",
    "bnb1llggef0uf6p7625gajp2lj5jnaqrj6pkcjap3u",
    "bnb1rdfpp89f7evssj9jqjhfmspfus7ky8trdlmwrl",
    "bnb1t3mreay3avgv5mc44khu4fdrcnl49mlftgg74t",
    "bnb1aljm8nshfe3kgtam8w8rw3l3k72658jxuv2hgg",
    "bnb158v9uv0n4u7j4nq2h06gfske8z47m23qk7a5ru",
    "bnb1l8e9xr37jv22e2y4aps6xrglmtq3atgxfmcxpg",
    "bnb1ensf00k4uqf3cm3vqazurfqpdmayjh5xums87z",
    "bnb1mmae0cp0f7dtcy34t9jsr37fdwtge66xsrjpux",
    "bnb19fllnh5wzq7qsnnnhh4hndjvpx674g2cqn97x8",
    "bnb1ff5mexf9f06pkj8vs9za0at0eau9nudee8n2he",
    "bnb1erlqylzz3y98j62qvtdj8htxumycqfe87mrj99",
    "bnb1jtq8rj65075gr8j7yr475ptlq9sj3utxjetgpy",
    "bnb1lpekja4cspn33m0c8u2dxchdm4ncepxf4t0sf3",
    "bnb1f9trw3glt4e8hcly2z74rtqdq3m0quu6ve620y",
    "bnb1d6et8z64fucawfvh4wy2pc0v06t3gxk82anzhj",
    "bnb1q8m0jlw7tu647hn5gtl0nv5qdvagl6wtsmlxdq",
    "bnb1k7yernvtegneq4jj4uy9znarxzwf5cy6rg8rzr",
    "bnb1lntuf3txg3ru3l3rj50p6pyk5ajenvrs5lmudz",
    "bnb1czmvkeuv87q28yxl6c0e4qgl3maw6f63tnrcf7",
    "bnb1dndcq33cxdw023zy6udanpcf5tjh83440tayk7",
    "bnb14h9mfzessw9qdcz9w33zna36tlpu7dwlf07neq",
    "bnb1u8e3scu4t04ksx6j8yvunyj5q2f9rg5ayk0483",
    "bnb1qwugqccg9qyg9kgm0st8szjf8mmgkmvyt76lv9",
    "bnb1tr2e2jq8m9uhd0jhqq7hwrtscwn0pkqavqfe2u",
    "bnb12mwdsgttwvxmt6emv9ynx3p288d44jkfcs480k",
    "bnb1a8uht7uu3nu3uxgeak7ewqtt6npdgcvrzpgyyt",
    "bnb1zt99556yqnspgtczk6xjskv5jk3w2n8qxhn43m",
    "bnb1j04wmvane5mfaat8gskv5fp82fpkgdt9fp6fgh",
    "bnb1ng8na6903s8fjprr0ym3ar2et30y9nngqyq2zj",
    "bnb1y896vrnq0nd9gmzls2dr4enkjg370833j4kvdj",
    "bnb1w3cldsvsv2v6mj92ja4k59jtywexv6wqcv0ut0",
    "bnb10k6kwn85746fx5tag55xd4859qxesk00upsmr7",
    "bnb1pz8t6nvp0fh5klzvwewtajx2dxpvrf7j597yay",
    "bnb1tkvrmfl4v0gccv6pzzt42gv4v9jseua8fs33vj",
    "bnb1t5pj6479lpjcvrexuvwxntv66qvtxt83n264pj",
    "bnb10rhluq6lfap3ge78fq8l2flhhmek2v336v4lau",
    "bnb1qxqcqvqemkunk3kdfmat0cfyx2mtvm0qcc7m0w",
    "bnb1xl0x8faat7atrl2q2nxxjp57tvjctcldgmx809",
    "bnb180vu8m9zsw8m9ty4qvjsczh5rlrtmzs6ct8mx3",
    "bnb1vp5zpdywjlw9ze7ru3mw309zet7tndrvlppmqp",
    "bnb1lrr0pc3ev0y7r4cevxy4jw4waz6xn3y8k5944v",
    "bnb1m34uq2cvswwzf4h9zu9wardga3v693jgq870je",
    "bnb1ldv93cm9nxkzsect4vjg873grmvhk8swgxy930",
    "bnb1uh0ac3y05ethy903l5sqcqd7va0nnpc7kgxdgr",
    "bnb1mwchwe6lq4m5f78clp05ermumzv0wwapzv09d4",
    "bnb14g5epye8xrcfnnn2ywl8998n94q62xqfgy9pk7",
    "bnb1v6muc7ukensmq87a3xkdevp5d9k85qq5asksz4",
    "bnb1cx5nprx4j6wadj7m0d05cvy7uhp3jucaf52sm6",
    "bnb10fg8z9dumqhmfhm5s4ghyh9che07hplvk38k6t",
    "bnb1a7ndff6fcw5lrnd0kzzs942wr64pwtaadnhe4n",
    "bnb19ua4gx32ag6fx5h75uvs0d95e460rjg3h9fjmn",
    "bnb1rnd7x80sdvafznfd4xqj3acy4w6y7whuqk4cz2",
    "bnb1syvmm0t8jner6t9zx6jf2c3lswwm90hutt5e4z",
    "bnb1qelv08zkl623u5uv98cwpqrcdrjweyf9ufz09q",
    "bnb1kldfyslphmpn70frclgptncfjyf0pyp243fh5x",
    "bnb1n26spmepdgfugxfuspv6y0anr6mgaj5sd6t60k",
    "bnb1kuw57mqqetqym8zxwfe2d4jhe4aq5nv8lz52c6",
    "bnb1nt08gyeqpaq23wwt70652q7qxsc7ue6mgphdav",
    "bnb1ypf972th5n0ckwv8d8xk4u59p9wavzx63csduh",
    "bnb1mw3n9ppa9kc9l3yujn03reekp4det3zxzlv3s4",
    "bnb1hjc4glfshljcxkuxqchdmhsvsqa40trxkdlyh7",
    "bnb1syf0ue5sdaqvz8pnynmnnpvhj7n57dufnkgd9t",
    "bnb1ugnhrc6y7vkdff450jmvnlst3hh98zp90h247z",
    "bnb1aqqxgvxe24gyss2hwmdnxyzqjyfyaucxcgdw3j",
    "bnb1hscksyv9xyp3msqfkzgl8s22mvhx7nju4uwlqv",
    "bnb1duulq84peqxhfdkfmxqmfvuzk4plhyv7gdmwm8",
    "bnb1fnjefppzze67vhh8ymt0phuyputmkwpnl85l6n",
    "bnb1deeeumfz97lmkv6gv0dd3efw9f4x0zmax969z2",
    "bnb1y6p8tqhllt5gsynme6wajg902hu59xx068s8ms",
    "bnb1ktfe70ws756xc6f6dryza5hn5ld2x8pk74jrdp",
    "bnb1pgdtjq65zknsrpxywau2qp3adkxr9kpmnujcyv",
    "bnb1ee297ek7de6x6l0w60engtmcv8dw486aywgfvd",
    "bnb19l9va984vxkus0wkv0r0ptnvz93mnvkv5skma0",
    "bnb1tyhsnl8249q72h6x637pm4kexavh32sanlwglf",
    "bnb1xnwa6vsz8drhtgkxz6kasqpkms4xjdeh20qw3s",
    "bnb198whz0vu5fz9y8a9ylu6ghj2wzqstns7zpaeyk",
    "bnb1v7rxx0gq74ut4qhdn7nsht4hpdlzplj3dnk8yk",
    "bnb1p63vxpfz60lcdq4egmykdtqrnwj3ra9eltpq3c",
    "bnb1jeqaq8svrqdzcmwxky8c4xx9yrh5rnp6gc7994",
    "bnb1e4q8whcufp6d72w8nwmpuhxd96r4n0fstegyuy",
    "bnb147es0l3az5cmtuwlfrzw4s4tk2rap0hh6lsv76",
    "bnb1tfmpaxyxq8lynstvct35vr4tyysm6esap0yq6j",
    "bnb1egz49rgqpal2mc5ywgpzv55zp4pjm9f8yg7uj5",
    "bnb1rzg2xrv0ljr47axjewrdzlanwzumrul9p8jhxt",
    "bnb1pyash723uzjefcj2dt8z7fke0e6m9wgqxaz0vs",
    "bnb1x0khww0jysa93shxqdmrcw066wtyqwhxe4h4zr",
    "bnb133sp2s58cjlqlrgh7s6a4fqwg5auua0j4v5rpd",
    "bnb1gmxqk6sxjtle0hrkj35mh5lns5mqvhsc7gpcch",
    "bnb15cuxxwa0lgdg5ag4yjjxh3w06fdh48grjz3uds",
    "bnb1xvxywlau2gcdfy2pp3e6hm378vnxwsy3mx42js",
    "bnb1tnrsm5dfwt6yt5ejqyz0hmhpnfsu7w3z22x59a",
    "bnb166fw6frtj8duaatgsulmy7wkm40484ada7j2pa",
    "bnb1pjexmh4fx5xdymlpfjtzvl23xnz00e6l2f79aa",
    "bnb1xqrsghjjcqcpv0uftth7klwy35h4nta46nexc4",
    "bnb1prdkexdzkr5mhw0zw8nlysgt7wtum0r2eltgr6",
    "bnb1erja4eku84fcutgk24ta2rzexslqasptlhw7e4",
    "bnb1x0p0d0vxx9ty9uzu3ds3lt5642dlwhkgkfr0wj",
    "bnb1p89xmrejmqpwmkye4z2pwtrw49n2vykf3nax33",
    "bnb1vwgskxa0vuzg54mhtx48w6zhq7wef4zkcvmthh",
    "bnb1zmwtmr3m2wxqdhhdv96cug098lycvngdj356kv",
    "bnb1dfgl5t4hjkrgtwsywhg0cwvpguchfupun6p40n",
    "bnb1ehzy0pl5er5e2swy22pakwvcthgegrtctfq8jr",
    "bnb1jx0esfkr0vssqr2m048xlrfwav4vsclj326ahj",
    "bnb1yl8c5fmw0d5arawydjc8c7apwhc0f6vdgl4740",
    "bnb1qjdsslkcxvjakd6yga05dqy7zpydvuyhn2gjr3",
    "bnb1x6pfhuwyyqnws9559has35vmxfeeh4u7c0rv9w",
    "bnb1y8xazlf36kencpsmp5mvwwhj7eepfkf4ztykea",
    "bnb1u099mk7j82kg2gjtsp8g7h0c2l40ydpta32s33",
    "bnb1fv2sdr9xtncla609z083nsxl2ahargjnq4xfku",
    "bnb1vlkzn7d03n9xtz0f4tuq0nfpplvxeenqdepmv8",
    "bnb1v3k8nkyn022jva9lczxd9r7wfeu9udz8qywcux",
    "bnb1caaqnyvtgmaws5amuv7mwwzqdddqv6dffuy4ts",
    "bnb1a0cuvxswn99p3k7z2tthfpptffaufdxym6jyly",
    "bnb1dgdxwulcepwdjdlmvx2q9cz5td0tdklqyuv0fc",
    "bnb12sy47tyqgzecg7f68d088a86z2s0k4xg6hcyvr",
    "bnb15znh3ahlmfhkf4zcmhdyh2zsa6s0xa4rt4hra9",
    "bnb1h7p5l9ft3lu48wexad83hnqc5uk7rgv44yplxl",
    "bnb1zv93hlu96jeg6k2qxdrwkvu37f4ylgy9cpt6dy",
    "bnb1g70pfy6m5f5pvxd5du5aqtdgvxz2z7flln96lz",
    "bnb1jtu94uams2a6kxzehr9a96wrne0a2fx0lm7ua6",
    "bnb1s6ejaywgpsfy8l5y08h3vnferlgcr4j6kn8ydl",
    "bnb18hu66ey349ajzkfyl8pvfffwgcrs29r3nm6nl4",
    "bnb1yryvuztkq8fkvh6nhsh7ddmf9wl8sg3wz9jxky",
    "bnb1l8t30s0eevunzw7v6yev2afldusew6ap7mlaal",
    "bnb17uyy50cg9kkqrv4j26ym2759e4ezs6fyk89zcq",
    "bnb1dfdfj2hdn6ugjydfh4mceltqmkwhuh9hy7lz38",
    "bnb16f6n55dx7swnr5gmvduyzeqw9jamvx6t0kgaec",
    "bnb1a5957ds75886c3ruvnfcegnr7schmhja6mqddz",
    "bnb1w49eg0lguy9vaq4ke3qxsazd6qe6ex3m6zpag8",
    "bnb19asqkzluj0w6u0tzwl6ux5f05dt29aprlcdegj",
    "bnb1tauav7323ntkfzs2jhfy2rw682kf57vk66upzq",
    "bnb1v4d8u4vur5pen828j2lpek3r44tf52ptgrnp9k",
    "bnb1xhg3gwh7ya9azwg6tdldalczegucxarphuuwau",
    "bnb1qkx3hvnqv6zwhq2q7587vltxzrunp2thvg6az4",
    "bnb179pl0mte4y2rrf997pe90xc9nreqf9hnuz5nzh",
    "bnb1pnsa5ln3gyk652jdun0jexss8hxex72pwqekg5",
    "bnb1s2grzsnfrsceva9985n7qa5pycu7ryz9d4emc2",
    "bnb1lxr226kf5pw0j8g4rdjd0rlx7cay3xryzgr6dq",
    "bnb1pz6eua68ezue55rwrtre9zgztw48vtnmj8l99m",
    "bnb1tw3rhz2n96c5mdgyf4c0y7zd66gmajjde2aq7x",
    "bnb1n97du4mv24e7mdfstchkea4wep9jduyec3ra63",
    "bnb1ehke6guydwpnxny8qpj3jvd507tz0qm3cjtfse",
    "bnb1favmgkg6f326wsc35r343u3hytzl7g8gcrlc6t",
    "bnb1yrzqptqn4ycks4svwt5a7jdfwutndr0q29j7ax",
    "bnb1gwdvl7wwdpd0vugfp2yzsw5jk6su4rhg3fmgh6",
    "bnb1n36qj3n4cksev3t8pru620dd0sq0lhdu7j9mrw",
    "bnb1s5tj55pswjgnnt4esfmatn39604duy5zhyluse",
    "bnb1dpc2uta2j4wysdh64e00qlxnltnnny424x2dvz",
    "bnb1mct2lja7g7hf7q8lppne4m7qtj2vx5umnu75vg",
    "bnb1xyhmppadjr8v2npk6g6srzw2p3mwnd3ht9p3gd",
    "bnb16p0sp5nlphcr9y6v02lan7z3739udvwagrg85x",
    "bnb1qu43h6d6uwmfv0uw6mcmzmle520z47jlrney6n",
    "bnb1732zheg2lj09gvzlxhf85q3yyacxthmq7q307f",
    "bnb1wes8ve9cx4ph2vzdtzdn9udsym2tmvhhh8wjrp",
    "bnb1n4cjsrh3rwcsfhlyznhjrqvn5mhlkgvgcves45",
    "bnb132jwuu8lexj3tqurp7k2xuq69hk4cgtczzqkp3",
    "bnb1sn30ck6h4nc7ysgsrkwpazcag4msxn4eth40ud",
    "bnb138qv0pj2cltulz7pdzw3nqt729xggrvjej59fx",
    "bnb16qvpz4jzcj9xqh7knee8u555fl698flspr6lh7",
    "bnb1d7swcmhepmlexa6f24fv2clm8gcx7g8wf7ymcf",
    "bnb1nywm0zqrvehk3tcfsrqemqeuprngu770vd6w9t",
    "bnb154lr6shtjr4w2alkxvzhvfcgwlv97k0aulk6kg",
    "bnb1kryu2yq27ysyuxq8cjauw50gs8zn7a3c0yasd4",
    "bnb1g2332j5hv9qvje7vlvxsav86he8l8eswxf8fzm",
    "bnb14sqxu0c0s53g3n8rfh9tk7f3qlhsuph6x65cwv",
    "bnb17ftg7hazmwf80gcnj5x8apa5gze3scctxdwz7w",
    "bnb1t0gzkgkmw7p3g9h7nr84sfjupszaknzff2rz2x",
    "bnb1ncymt2fd3j3mpc2quylcs2xtfe62pslszhwhjw",
    "bnb17jcuu9zkj3jy2ljh4pl34kdkjq2cyp2yedg9j0",
    "bnb1f6jlujp49x0270n09qy7v2y5sm75tyv6305wjh",
    "bnb14xvl6j23jenw2vdzhupq62p07wwzumgmg8y2xe",
    "bnb14exuadfl7ngarc4n6d67rqkrqsjrhuvvfwkzty",
    "bnb10vp0ervmalkk6e2td4xcvzgqaggasp4z7ytqrm",
    "bnb1m52tgycfwndfvv894gyutlflhp7az4njkzk6t7",
    "bnb1ll5qx867m44rksaga64k6heka73xvc9ms8quxv",
    "bnb1hxn35j0eu9nwlqhzvq2khz62mq3a7evn0424zr",
    "bnb15g5esa0uc9zc2rdnu3uxj8rns6nahjy6zccujm",
    "bnb1dk7my4lzjg0zu5hwy40cxf6rq6hajzykyj7vud",
    "bnb1rq5z3k2e42nrsujc7w2sgc3glu46m0e48s2zes",
    "bnb152ptdxcxqenuuhjr6k2ggy8shwz0n5f9xn9fnl",
    "bnb1z426hfsc4fq9ssu426vfnsz2eruggynkwnla6g",
    "bnb1sums0xu5waxhwd30d965tvp7ayezu5z4dh4gv6",
    "bnb1hj3k2zn8843k7rtgrs8v8l465lm5l92tzvmk3q",
    "bnb1jxww3yrwju4wnytc7yj9u3r3xc8ywr0hdcpcqj",
    "bnb1c0ehe7tlyurqhvrd3zx8fnafekhxe9m0htzquk",
    "bnb12ecvm2082d8e9te6r03ct7up0wql0494vredhd",
    "bnb1kqm2ecnxpydr5hpcv7x9rpqzv7zxk2gl6y6454",
    "bnb1kckre5jptlxwdrwjwruc93nh3tqh3y2m864hp8",
    "bnb1d0ch3xr8gggdecmvaeklrsmpmcjg6dcm0segsp",
    "bnb1h066plzq6xr5v94jft9laqys0afl7fdeg4h3px",
    "bnb1t8n0hv2eenjxy96qsr8ntcfqfuqaqc4dld0nmq",
    "bnb1x4rancvhutvah4ph3xmmssnhn60swkhj9kkjcx",
    "bnb1sfj05y8gdu0w2mn7w7d9n2dyvm0x4yvq0lfdp0",
    "bnb1wtgtg8xewe95x7c9jl99ykunjtqpdhrxppzanv",
    "bnb1tkpcmg69hsgw7tn9297n2u34jp773cwa30e692",
    "bnb1lr28rsqas4k9ev8jr6qu4htpn4x832rayacae4",
    "bnb13r78v05qgvsuk560g3257sqky7m0wzzghxq8az",
    "bnb1j0wmtrvjmgh6luazdl4vfe8tgwul0cj2u84vj6",
    "bnb1348jr4jjmjrdxk4vtglmzs7wect9nhy8lrcxpw",
    "bnb1f2t5gr99srrv6gr0ldna8xufztdgfhxttgy7kg",
    "bnb10x2za2thl97wq3cdrlnpw4n9s97qdzjnjjh2vd",
    "bnb13fe8vpwmr6hrt3l7fyuv4qjv70nhxuxs4m636w",
    "bnb1dw2p9e54c4hvdh7y0cl7t29gjnhgvha6ndhl73",
    "bnb1u22vyjjx6v4yhy70n8e4hyl32wym6dy8tw62zj",
    "bnb1nqckk6repqcx32a9suu3dgy2hcml0ws4j4tpan",
    "bnb13dzum4sg7cneyynqfsy7uxuldmul6pugtm4zu6",
    "bnb180hp2ms3a862j4u0wm5l5gl4z9t33fddhfwea6",
    "bnb1xe5w4kv6fr2mc8845afnsv0qjdzuhw30z6fwzw",
    "bnb120zhtp22n8zn7ddjmlkls5py56pyeztkxcxqgw",
    "bnb12zjwf0ng4h0sw5flr8tq04j0jzf7wjpyccquuu",
    "bnb1etx2rxz2885r43lylwfafvrvwrym6vcccwq99l",
    "bnb1uwh80t5u5xf7tkqr4zanrwgqtcfzmz8udgf9sh",
    "bnb1mm3538jjfyx7frta64dk9mjdcsuc674prquy68",
    "bnb1qfexvdqmd43lnndy36c2ckd4elahaxd0q9nfg0",
    "bnb1qwfz9mtttxqdh2xvwgg8m6leazupd0lsvcf9se",
    "bnb1ch3u3tukjjghglhjeypxf4erzjczs22wv4v3ds",
    "bnb1zdwrqv02qqdmacf03us36u468a6q2deyan6w82",
    "bnb1fg4zezx3w7k27l3rg03te46m9russws8djz2uq",
    "bnb1syvh88a2e57de7t6sx03g6qu26c3r3ktqsy3xm",
    "bnb1gp9npy23x7mafmet7gm4x447q83jaxtfy855yg",
    "bnb1f58p0r440q4wkzjeuqzcpgdxuxlyj9hxycsntt",
    "bnb1cymaxw40fz7p890asjaaqt30wdag3hh2lkdy6x",
    "bnb1hmwz4e37685j2tzlt8guv5cn4dtwz4vj2zmnu6",
    "bnb1y60epz6hgel8sekysnsujt6l5w0fk7073a0yfl",
    "bnb1tj8wzl7xrpqs4xmyeequ8sw2vqjny326mnyhzx",
    "bnb1ak3687kmltyys8xtcduyh7sr445kzn35sfq888",
    "bnb1s8w72l8y0d7wskqd5ym0cqp79ypmn3p3n3dqhy",
    "bnb19sw7e0mc9u5rrwazmmchtfukw0d26vyssscfa6",
    "bnb1nw4e57udwj2yykrpa94wftm3vrkwq8zpf53zxz",
    "bnb1eqr56au9fzh6d4tjvsvpk7m4rmt0vusk2rpsxq",
    "bnb1zcsrdhzfd5vvsx65psww78vvj7y9c6tuh3sk9w",
    "bnb1aacz2ffpqxj2xpgl3vc5kxlg0nyzwk2klf0mn6",
    "bnb150e45qj995tudlghkxe2yh6p9w2cd7dkcnx4tp",
    "bnb10cwz4vs638nf8z633uuwl3r5rrycyw6jrh50v9",
    "bnb1dwwsrph46tuy6vsmnj2xcg3jurm8w8jkwmmldj",
    "bnb1ye9939k0nutchykht5mj4c4e8dtdzm5h85kar3",
    "bnb10u8263p4r6zuq28fkg35vmkc2f8kpuuqhru4gy",
    "bnb18c8cch65pne36g0h5l56al2nj43fds30yjlr4d",
    "bnb13tdxfdv0qwa7ry3u4h74wjk5y0rm5lxnk5rxg8",
    "bnb1z8wn9pcl4m9ndfcc7ryhee2pscpuekuy4nt3fd",
    "bnb1fhhu5m5cy0wjgjpvp0vnpckj02n0tf7ng2g9x3",
    "bnb1u30e30kp7llp3hz9jq3z0p8dj7kvn7u6vx0vd9",
    "bnb1l5kad00v59l7g52ed8ppqcp2mj678azqxfndss",
    "bnb1eny239mld5x94kra9cx77889jvl6n2su9jl32x",
    "bnb1rjzyh88yvy7hllgh6lvgfkmcd2wjv7l3y5h9pc",
    "bnb165lapmmvvhu9gvvdnlzh3sguy6fdslv9cxergj",
    "bnb15p7t05mzeg8jzq782euk5ct2m0tzjh08zadacp",
    "bnb17227ah76a03gdl777m8wl5x64at8js54000gqk",
    "bnb1jed0duuua28cnd9f845kdx9e9y0h7hkzcmxypj",
    "bnb183qkmcmskwm66ku9f6cr08u9m39q5mhlzt8z58",
    "bnb1kmtgdgxqsu7xmc4fdql7t2mtt06y2rdq6tgkn9",
    "bnb1yc4reffhx7yhr9qkscqmmkrm43jf9wqkzp75v4",
    "bnb12v74f8qnk6fh37gd5tlalgx2q3qd3m5lwvus7e",
    "bnb1htwh4u3rkj9nvng5skh9ldtnm3vekf0ttm5k93",
    "bnb1lfeq9wkz68wvuqvegzsj36tfy7vgdxa8r4eaya",
    "bnb1u55ns832d5dlxqzkur05cpzsarleatt8scxv29",
    "bnb15vx7wv8up7rcdu54tq4743v7hrc5n0ndcy9ngy",
    "bnb1h5a0a862jumsntaej70dcd9ms0h45f9jt9jfes",
    "bnb1xw4zykk9s7htas29md7fddns5z0kqq4723jc43",
    "bnb1e37a67m4q7wgu3fvpsw5uvgsdmzjk4v9jtc8vw",
    "bnb1e8zmtjuufzgtzz8lj3lguk3v9fk6ftjllew368",
    "bnb1rpyq5sm3wy335k95c9j6ylcx43tth2w24j2xcz",
    "bnb1uazv2munavffln97hdsr0ugudsf3cm8he67v3a",
    "bnb1d5mya294qlk3mf06akqj8d8q3hdryv200esg2t",
    "bnb1a7qx3sre36gqmmh0adfd25fg45maa53449l590",
    "bnb1matz9zwcj95k92sg2jx9tslxe2m9sv5wk6gcla",
    "bnb1z73jq788srg36kc55zmrmux5a969dx6jmmycrd",
    "bnb1w94kschnm3gh7gh99vrlpjxnkj7wgeep80plfs",
    "bnb17mrw8hr9u5ps4eevwgygceng0h93642uyru4pd",
    "bnb1dh377q22udumm5ta3nh4flwf8wfadsne95rxml",
    "bnb13wfq3araps8t5ud7lyf2sg6nqctjjxdgefeaep",
    "bnb1czkedkzf33lfv7qj2zh3ve3hk9gwmt28g3pvgc",
    "bnb13xayja7mmwxzznledqsddaclfahdy407m434ux",
    "bnb15rze0zeac64jee4s0ry2zxgz8efsrrackyu3j5",
    "bnb14xvv546h642sfx9xsgg2gpdjsfp4fmfe00qrkf",
    "bnb17hacevwe0flmkvzr46uut28j0dmgmv7mmlh82m",
    "bnb1f6jtmme79qn5n5dph7770xszcrh0dk3rc6clef",
    "bnb1axqc2gan462z6npw3c33srp4950mr5x28uc6wu",
    "bnb17uqpjrwnv9ukfjeg5jsl5lndgeqmrywwrgy97l",
    "bnb1dnn7pg8suvzxwyxuz9uwyydga0xxagmlz8gzkg",
    "bnb1spnky8lwye869uq25ahl89873h04zs4tm8rvn2",
    "bnb1x4vn6rn6rujsqd2wnmg6exq900jv20rqdfl7jt",
    "bnb15wunuylnz6hnxr7eynqhg0x4efhvrzchxs6quy",
    "bnb1vy9gwapu3x3lj9v0vzj9pldu07c4twlw0esuek",
    "bnb1advm4v6sk7g55hwkxagj36ewzya9aj7j8k0pz2",
    "bnb1z06e98mrhyg96rr65hvc6umh4lduugv744g5sk",
    "bnb1devefureacvt9lhwlwshs3j5w78m967clghws2",
    "bnb1vgmhv2ry9p5lj7t08lyfa72qtmp6ngjjnvkn6v",
    "bnb1g4adyjw4c2w9kjkx5egs5udyfshr5jg99mlucu",
    "bnb1cm2ha2xzpuwa337sp7mkyapuy0qjyccx5n7ww6",
    "bnb1zc04akn8z2z48jdhl086x96jxg20ccqcu4xkwr",
    "bnb12gcfhntmjw3m3k36dpm0quhtz5ucmw4rxk260r",
    "bnb1l0fxvz25ry4jzyk9uaekgn56hyrh6cue7gnper",
    "bnb1w45vwy3fy5wm8veh9vwxyxl7e8r99jga7dnsng",
    "bnb1u0f9m4jxrlt3078dlfrhvxm4u62y3jkvx3c694",
    "bnb1kuw54yvk60p79jzwsq70zk9f2978k7xvhuvsnl",
    "bnb1mzyp4hurkg0dms5qzwc6txdrse0c5d4spqlz4n",
    "bnb1067jvmwvh7rw7x4r6flr53p4e00q3nra84czdy",
    "bnb13ug5mpgs4zjpw7n46h9u45adsxsw0ch73q2fdp",
    "bnb1qdf8x6ey3097jze4puv2s78f9hg2esnr7rasuu",
    "bnb13a7gyv5zl57c0rzeu0henx6d0tzspvrrakxxtv",
    "bnb1qhx26x87tadk83hapzvhxtgkcjascpu2tumalg"
]