[
    {
        "tier": 5000000,
        "tokenID": 90,
        "members": 3,
        "memberArray": [
            "0x4BeE0d0d6C437a9Ac4a24088824a8660bb18431C",
            "0x5fb4a0983daD1A0fae31ED67F1aaffeA3F3E8eC2",
            "0x833652029fBB7bCbd51E0f5921DF143305DbB856"
        ]
    },
    {
        "tier": 4000000,
        "tokenID": 68,
        "members": 6,
        "memberArray": [
            "0x46f9697622228ea60E549620cC2DAa79312eDf75",
            "0xf5b9F3C09DCb5729fe0f2a2d404B73B6CEd6071E",
            "0x4BeE0d0d6C437a9Ac4a24088824a8660bb18431C",
            "0x5fb4a0983daD1A0fae31ED67F1aaffeA3F3E8eC2",
            "0x833652029fBB7bCbd51E0f5921DF143305DbB856",
            "0x5c6d2ac4A20A1f5812Dc7229B9812d10d798F17a"
        ]
    },
    {
        "tier": 3000000,
        "tokenID": 99,
        "members": 9,
        "memberArray": [
            "0xf75c6d62BaD71c28DC1a0FF2b47A6eEd66Ef95B9",
            "0x46f9697622228ea60E549620cC2DAa79312eDf75",
            "0x4928B4004c878a5fbb4A81B8406a4807491dAc06",
            "0xcE5cDF7D5072673aF0062E5A7241E69B6618b649",
            "0xaDC1143bAe11fF79C4F6831E2F4c3bEf5139aCFf",
            "0xf5b9F3C09DCb5729fe0f2a2d404B73B6CEd6071E",
            "0xdc211A0666bed568D5caFfbf538Ec221FCD1402f",
            "0x4BeE0d0d6C437a9Ac4a24088824a8660bb18431C",
            "0x5fb4a0983daD1A0fae31ED67F1aaffeA3F3E8eC2"
        ]
    },
    {
        "tier": 2500000,
        "tokenID": 98,
        "members": 12,
        "memberArray": [
            "0xaDC1143bAe11fF79C4F6831E2F4c3bEf5139aCFf",
            "0x8c1545690d22fe733a7d126f6d091759a721df11",
            "0xdc211A0666bed568D5caFfbf538Ec221FCD1402f",
            "0xC1f0432F11C175e29681ff754B061E59394fbC49",
            "0x46f9697622228ea60E549620cC2DAa79312eDf75",
            "0x4928B4004c878a5fbb4A81B8406a4807491dAc06",
            "0xdc211A0666bed568D5caFfbf538Ec221FCD1402f",
            "0xf5b9F3C09DCb5729fe0f2a2d404B73B6CEd6071E",
            "0x6a70fF3914b0939125bcC34957DF20DeEc4871",
            "0xcE5cDF7D5072673aF0062E5A7241E69B6618b649",
            "0xf75c6d62BaD71c28DC1a0FF2b47A6eEd66Ef95B9",
            "0x4BeE0d0d6C437a9Ac4a24088824a8660bb18431C"
        ]
    },
    {
        "tier": 2000000,
        "tokenID": 97,
        "members": 15,
        "memberArray": [
            "0x46f9697622228ea60E549620cC2DAa79312eDf75",
            "0x6a70fF3914b0939125bcC34957DF20DeEc4871",
            "0xaDC1143bAe11fF79C4F6831E2F4c3bEf5139aCFf",
            "0x8c1545690d22fe733a7d126f6d091759a721df11",
            "0xdc211A0666bed568D5caFfbf538Ec221FCD1402f",
            "0xcE5cDF7D5072673aF0062E5A7241E69B6618b649",
            "0xf5b9F3C09DCb5729fe0f2a2d404B73B6CEd6071E",
            "0x4928B4004c878a5fbb4A81B8406a4807491dAc06",
            "0xC1f0432F11C175e29681ff754B061E59394fbC49",
            "0xdc211A0666bed568D5caFfbf538Ec221FCD1402f",
            "0xf75c6d62BaD71c28DC1a0FF2b47A6eEd66Ef95B9",
            "0x20f9ddFA193D0fe2f73d8b7D749B1355eF019887",
            "0x4BeE0d0d6C437a9Ac4a24088824a8660bb18431C",
            "0x5fb4a0983daD1A0fae31ED67F1aaffeA3F3E8eC2",
            "0x833652029fBB7bCbd51E0f5921DF143305DbB856"
        ]
    },
    {
        "tier": 1500000,
        "tokenID": 92,
        "members": 21,
        "memberArray": [
            "0xF99D187a98a4ed59680eD7d439527cB755e32778",
            "0xC1f0432F11C175e29681ff754B061E59394fbC49",
            "0xdc211A0666bed568D5caFfbf538Ec221FCD1402f",
            "0xdc211A0666bed568D5caFfbf538Ec221FCD1402f",
            "0x0e2f041fB72A9C41d46fC336c92b617763681EE3",
            "0x46f9697622228ea60E549620cC2DAa79312eDf75",
            "0xcE5cDF7D5072673aF0062E5A7241E69B6618b649",
            "0x4928B4004c878a5fbb4A81B8406a4807491dAc06",
            "0x20f9ddFA193D0fe2f73d8b7D749B1355eF019887",
            "0x6a70fF3914b0939125bcC34957DF20DeEc4871",
            "0xf75c6d62BaD71c28DC1a0FF2b47A6eEd66Ef95B9",
            "0x4a5BB1c9347A0d4F7e06a29239162f03647d9232",
            "0x8c1545690d22fe733a7d126f6d091759a721df11",
            "0x6D5E3B9B1Da69DFB677F81682CFDec404a207bf0",
            "0xaDC1143bAe11fF79C4F6831E2F4c3bEf5139aCFf",
            "0xf5b9F3C09DCb5729fe0f2a2d404B73B6CEd6071E",
            "0x5D7C72C4014ed4008cF574EFF487ca24f345cf14",
            "0xF9F02eb35cc9F22A69DAA26bE2B1A57e3Ab4bD53",
            "0x4BeE0d0d6C437a9Ac4a24088824a8660bb18431C",
            "0x5fb4a0983daD1A0fae31ED67F1aaffeA3F3E8eC2",
            "0x833652029fBB7bCbd51E0f5921DF143305DbB856"
        ]
    },
    {
        "tier": 1000000,
        "tokenID": 91,
        "members": 39,
        "memberArray": [
            "0x20f9ddFA193D0fe2f73d8b7D749B1355eF019887",
            "0x4928B4004c878a5fbb4A81B8406a4807491dAc06",
            "0xF10FE5393f0A3C4a803551b4ee198fD40D2b50b7",
            "0xf5b9F3C09DCb5729fe0f2a2d404B73B6CEd6071E",
            "0xb62Bd947f49c1B1E0cD786D62DdE77a444acC350",
            "0x28faf1599A9c3a9b8463DfeB23d06B6495aE91bC",
            "0x0e2f041fB72A9C41d46fC336c92b617763681EE3",
            "0xC1f0432F11C175e29681ff754B061E59394fbC49",
            "0xDe6E9aEF70622d22685De5C1b988aC7C79A9b21C",
            "0x5c6d2ac4A20A1f5812Dc7229B9812d10d798F17a",
            "0xd10E761108B67b71ec545A1855190710D80672F0",
            "0xf7EE6C2F811b52c72EFD167A1bb3F4AdAa1E0F89",
            "0xdc211A0666bed568D5caFfbf538Ec221FCD1402f",
            "0x5D7C72C4014ed4008cF574EFF487ca24f345cf14",
            "0xF9F02eb35cc9F22A69DAA26bE2B1A57e3Ab4bD53",
            "0xF99D187a98a4ed59680eD7d439527cB755e32778",
            "0x4a5BB1c9347A0d4F7e06a29239162f03647d9232",
            "0x1eB7409641e914888f2fF6d00601d8e03094b98f",
            "0x444e01dcb3a1ec1b1aa1344505ed7c8690d53281",
            "0xbdF5A9E1470a439f8E479E14FF98E471f59CD7E4",
            "0x6D5E3B9B1Da69DFB677F81682CFDec404a207bf0",
            "0x3D15Ad752798866025EEA52Dd60Cc687ee27fE4D",
            "0xF78d4b28C975353aA6aE45c31471e8Ca8da0BA35",
            "0xf75c6d62BaD71c28DC1a0FF2b47A6eEd66Ef95B9",
            "0xdc211A0666bed568D5caFfbf538Ec221FCD1402f",
            "0x8c1545690d22fe733a7d126f6d091759a721df11",
            "0xaDC1143bAe11fF79C4F6831E2F4c3bEf5139aCFf",
            "0x28faf1599A9c3a9b8463DfeB23d06B6495aE91bC",
            "0x0551b8c8b1C7Fa0B066fdBb854188702d01bC64F",
            "0x6a70fF3914b0939125bcC34957DF20DeEc4871",
            "0xbef32030aA223A3031e3b4C5b24fad66d992413C",
            "0xb00E81207bcDA63c9E290E0b748252418818c869",
            "0x4f83f16daf94C47CF1Af3564f1743dcB9b068a6e",
            "0xcE5cDF7D5072673aF0062E5A7241E69B6618b649",
            "0x1eB7409641e914888f2fF6d00601d8e03094b98f",
            "0x46f9697622228ea60E549620cC2DAa79312eDf75",
            "0x4BeE0d0d6C437a9Ac4a24088824a8660bb18431C",
            "0x5fb4a0983daD1A0fae31ED67F1aaffeA3F3E8eC2",
            "0x833652029fBB7bCbd51E0f5921DF143305DbB856"
        ]
    },
    {
        "tier": 900000,
        "tokenID": 95,
        "members": 42,
        "memberArray": [
            "0x1eB7409641e914888f2fF6d00601d8e03094b98f",
            "0x4f83f16daf94C47CF1Af3564f1743dcB9b068a6e",
            "0x20f9ddFA193D0fe2f73d8b7D749B1355eF019887",
            "0xf7EE6C2F811b52c72EFD167A1bb3F4AdAa1E0F89",
            "0xdc211A0666bed568D5caFfbf538Ec221FCD1402f",
            "0xdc211A0666bed568D5caFfbf538Ec221FCD1402f",
            "0x0551b8c8b1C7Fa0B066fdBb854188702d01bC64F",
            "0xf5b9F3C09DCb5729fe0f2a2d404B73B6CEd6071E",
            "0x5D7C72C4014ed4008cF574EFF487ca24f345cf14",
            "0xb00E81207bcDA63c9E290E0b748252418818c869",
            "0xbdF5A9E1470a439f8E479E14FF98E471f59CD7E4",
            "0xaDC1143bAe11fF79C4F6831E2F4c3bEf5139aCFf",
            "0x5c6d2ac4A20A1f5812Dc7229B9812d10d798F17a",
            "0xF78d4b28C975353aA6aE45c31471e8Ca8da0BA35",
            "0xF9F02eb35cc9F22A69DAA26bE2B1A57e3Ab4bD53",
            "0xd10E761108B67b71ec545A1855190710D80672F0",
            "0x4928B4004c878a5fbb4A81B8406a4807491dAc06",
            "0xF99D187a98a4ed59680eD7d439527cB755e32778",
            "0x28faf1599A9c3a9b8463DfeB23d06B6495aE91bC",
            "0xcE5cDF7D5072673aF0062E5A7241E69B6618b649",
            "0xbef32030aA223A3031e3b4C5b24fad66d992413C",
            "0x0e2f041fB72A9C41d46fC336c92b617763681EE3",
            "0x444e01dcb3a1ec1b1aa1344505ed7c8690d53281",
            "0x1eB7409641e914888f2fF6d00601d8e03094b98f",
            "0x28faf1599A9c3a9b8463DfeB23d06B6495aE91bC",
            "0x6a70fF3914b0939125bcC34957DF20DeEc4871",
            "0xF10FE5393f0A3C4a803551b4ee198fD40D2b50b7",
            "0x6D5E3B9B1Da69DFB677F81682CFDec404a207bf0",
            "0x46f9697622228ea60E549620cC2DAa79312eDf75",
            "0x8c1545690d22fe733a7d126f6d091759a721df11",
            "0xf75c6d62BaD71c28DC1a0FF2b47A6eEd66Ef95B9",
            "0x4a5BB1c9347A0d4F7e06a29239162f03647d9232",
            "0xDe6E9aEF70622d22685De5C1b988aC7C79A9b21C",
            "0xb62Bd947f49c1B1E0cD786D62DdE77a444acC350",
            "0x3D15Ad752798866025EEA52Dd60Cc687ee27fE4D",
            "0xC1f0432F11C175e29681ff754B061E59394fbC49",
            "0x4BeE0d0d6C437a9Ac4a24088824a8660bb18431C",
            "0x5fb4a0983daD1A0fae31ED67F1aaffeA3F3E8eC2",
            "0x833652029fBB7bCbd51E0f5921DF143305DbB856",
            "0x5c6d2ac4A20A1f5812Dc7229B9812d10d798F17a",
            "0x1D9c41971a52C6559636C349D8d8f7F14B2bBAE1",
            "0x4BeE0d0d6C437a9Ac4a24088824a8660bb18431C"
        ]
    },
    {
        "tier": 800000,
        "tokenID": 94,
        "members": 45,
        "memberArray": [
            "0x28faf1599A9c3a9b8463DfeB23d06B6495aE91bC",
            "0x1eB7409641e914888f2fF6d00601d8e03094b98f",
            "0xF10FE5393f0A3C4a803551b4ee198fD40D2b50b7",
            "0x6D5E3B9B1Da69DFB677F81682CFDec404a207bf0",
            "0x0e2f041fB72A9C41d46fC336c92b617763681EE3",
            "0xdc211A0666bed568D5caFfbf538Ec221FCD1402f",
            "0x0551b8c8b1C7Fa0B066fdBb854188702d01bC64F",
            "0x4f83f16daf94C47CF1Af3564f1743dcB9b068a6e",
            "0x8c1545690d22fe733a7d126f6d091759a721df11",
            "0xb62Bd947f49c1B1E0cD786D62DdE77a444acC350",
            "0x444e01dcb3a1ec1b1aa1344505ed7c8690d53281",
            "0x4a5BB1c9347A0d4F7e06a29239162f03647d9232",
            "0xcE5cDF7D5072673aF0062E5A7241E69B6618b649",
            "0x1eB7409641e914888f2fF6d00601d8e03094b98f",
            "0xDe6E9aEF70622d22685De5C1b988aC7C79A9b21C",
            "0x4928B4004c878a5fbb4A81B8406a4807491dAc06",
            "0xdc211A0666bed568D5caFfbf538Ec221FCD1402f",
            "0xF9F02eb35cc9F22A69DAA26bE2B1A57e3Ab4bD53",
            "0xbef32030aA223A3031e3b4C5b24fad66d992413C",
            "0xbdF5A9E1470a439f8E479E14FF98E471f59CD7E4",
            "0x32648075ecd353767dA2faFEF3C56a4283567f12",
            "0xb00E81207bcDA63c9E290E0b748252418818c869",
            "0xf75c6d62BaD71c28DC1a0FF2b47A6eEd66Ef95B9",
            "0xd10E761108B67b71ec545A1855190710D80672F0",
            "0x28faf1599A9c3a9b8463DfeB23d06B6495aE91bC",
            "0x5D7C72C4014ed4008cF574EFF487ca24f345cf14",
            "0xf7EE6C2F811b52c72EFD167A1bb3F4AdAa1E0F89",
            "0xf5b9F3C09DCb5729fe0f2a2d404B73B6CEd6071E",
            "0x5c6d2ac4A20A1f5812Dc7229B9812d10d798F17a",
            "0xF99D187a98a4ed59680eD7d439527cB755e32778",
            "0x6a70fF3914b0939125bcC34957DF20DeEc4871",
            "0xC1f0432F11C175e29681ff754B061E59394fbC49",
            "0x20f9ddFA193D0fe2f73d8b7D749B1355eF019887",
            "0x3D15Ad752798866025EEA52Dd60Cc687ee27fE4D",
            "0xF78d4b28C975353aA6aE45c31471e8Ca8da0BA35",
            "0xaDC1143bAe11fF79C4F6831E2F4c3bEf5139aCFf",
            "0x46f9697622228ea60E549620cC2DAa79312eDf75",
            "0x4BeE0d0d6C437a9Ac4a24088824a8660bb18431C",
            "0x5fb4a0983daD1A0fae31ED67F1aaffeA3F3E8eC2",
            "0x833652029fBB7bCbd51E0f5921DF143305DbB856",
            "0x5c6d2ac4A20A1f5812Dc7229B9812d10d798F17a",
            "0x1D9c41971a52C6559636C349D8d8f7F14B2bBAE1",
            "0x4BeE0d0d6C437a9Ac4a24088824a8660bb18431C",
            "0x5fb4a0983daD1A0fae31ED67F1aaffeA3F3E8eC2",
            "0x833652029fBB7bCbd51E0f5921DF143305DbB856"
        ]
    },
    {
        "tier": 700000,
        "tokenID": 93,
        "members": 48,
        "memberArray": [
            "0xC1f0432F11C175e29681ff754B061E59394fbC49",
            "0xDe6E9aEF70622d22685De5C1b988aC7C79A9b21C",
            "0x1eB7409641e914888f2fF6d00601d8e03094b98f",
            "0xAc225A899578383bF26c7c5477Aa014C1f2Ba836",
            "0x1eB7409641e914888f2fF6d00601d8e03094b98f",
            "0xb00E81207bcDA63c9E290E0b748252418818c869",
            "0x445e4A4428BA3cE1404948D51bec9b432C0ED35D",
            "0x6a70fF3914b0939125bcC34957DF20DeEc4871",
            "0xF9F02eb35cc9F22A69DAA26bE2B1A57e3Ab4bD53",
            "0x5c6d2ac4A20A1f5812Dc7229B9812d10d798F17a",
            "0x32648075ecd353767dA2faFEF3C56a4283567f12",
            "0x46f9697622228ea60E549620cC2DAa79312eDf75",
            "0xdc211A0666bed568D5caFfbf538Ec221FCD1402f",
            "0x28faf1599A9c3a9b8463DfeB23d06B6495aE91bC",
            "0x444e01dcb3a1ec1b1aa1344505ed7c8690d53281",
            "0x3D15Ad752798866025EEA52Dd60Cc687ee27fE4D",
            "0xf5b9F3C09DCb5729fe0f2a2d404B73B6CEd6071E",
            "0x4a5BB1c9347A0d4F7e06a29239162f03647d9232",
            "0xF10FE5393f0A3C4a803551b4ee198fD40D2b50b7",
            "0x28faf1599A9c3a9b8463DfeB23d06B6495aE91bC",
            "0xd10E761108B67b71ec545A1855190710D80672F0",
            "0xaE66CEB9D54563c4059cf596b5eD6Cc104bCf708",
            "0x6D5E3B9B1Da69DFB677F81682CFDec404a207bf0",
            "0xbdF5A9E1470a439f8E479E14FF98E471f59CD7E4",
            "0x20f9ddFA193D0fe2f73d8b7D749B1355eF019887",
            "0xf7EE6C2F811b52c72EFD167A1bb3F4AdAa1E0F89",
            "0xaDC1143bAe11fF79C4F6831E2F4c3bEf5139aCFf",
            "0xb62Bd947f49c1B1E0cD786D62DdE77a444acC350",
            "0x0e2f041fB72A9C41d46fC336c92b617763681EE3",
            "0xF78d4b28C975353aA6aE45c31471e8Ca8da0BA35",
            "0x8c1545690d22fe733a7d126f6d091759a721df11",
            "0x5D7C72C4014ed4008cF574EFF487ca24f345cf14",
            "0xcE5cDF7D5072673aF0062E5A7241E69B6618b649",
            "0xdc211A0666bed568D5caFfbf538Ec221FCD1402f",
            "0xf75c6d62BaD71c28DC1a0FF2b47A6eEd66Ef95B9",
            "0x007aBdd190137F614701A6216fd703329AFBcdf1",
            "0x4928B4004c878a5fbb4A81B8406a4807491dAc06",
            "0xbef32030aA223A3031e3b4C5b24fad66d992413C",
            "0xF99D187a98a4ed59680eD7d439527cB755e32778",
            "0x38ee3a8d6A109c759ae53FE5C5B3D80e52E20E25",
            "0x4f83f16daf94C47CF1Af3564f1743dcB9b068a6e",
            "0x0551b8c8b1C7Fa0B066fdBb854188702d01bC64F",
            "0x4BeE0d0d6C437a9Ac4a24088824a8660bb18431C",
            "0x5fb4a0983daD1A0fae31ED67F1aaffeA3F3E8eC2",
            "0x833652029fBB7bCbd51E0f5921DF143305DbB856",
            "0x5c6d2ac4A20A1f5812Dc7229B9812d10d798F17a",
            "0x1D9c41971a52C6559636C349D8d8f7F14B2bBAE1",
            "0x4BeE0d0d6C437a9Ac4a24088824a8660bb18431C"
        ]
    },
    {
        "tier": 600000,
        "tokenID": 96,
        "members": 51,
        "memberArray": [
            "0x5c6d2ac4A20A1f5812Dc7229B9812d10d798F17a",
            "0xbef32030aA223A3031e3b4C5b24fad66d992413C",
            "0xf75c6d62BaD71c28DC1a0FF2b47A6eEd66Ef95B9",
            "0xdc211A0666bed568D5caFfbf538Ec221FCD1402f",
            "0x6a70fF3914b0939125bcC34957DF20DeEc4871",
            "0xbdF5A9E1470a439f8E479E14FF98E471f59CD7E4",
            "0x46f9697622228ea60E549620cC2DAa79312eDf75",
            "0xd10E761108B67b71ec545A1855190710D80672F0",
            "0xAc225A899578383bF26c7c5477Aa014C1f2Ba836",
            "0x1eB7409641e914888f2fF6d00601d8e03094b98f",
            "0xaDC1143bAe11fF79C4F6831E2F4c3bEf5139aCFf",
            "0xF10FE5393f0A3C4a803551b4ee198fD40D2b50b7",
            "0x28faf1599A9c3a9b8463DfeB23d06B6495aE91bC",
            "0xb00E81207bcDA63c9E290E0b748252418818c869",
            "0xDe6E9aEF70622d22685De5C1b988aC7C79A9b21C",
            "0x445e4A4428BA3cE1404948D51bec9b432C0ED35D",
            "0x38586444200e0DC6938c8d258fb15FD14EB619b8",
            "0xF99D187a98a4ed59680eD7d439527cB755e32778",
            "0x007aBdd190137F614701A6216fd703329AFBcdf1",
            "0xF9F02eb35cc9F22A69DAA26bE2B1A57e3Ab4bD53",
            "0x6d6075b67eA8A9bF2276eC42dE689BCC59c2E65e",
            "0xEEf267819f7677BfFdA6A82D3FCAcF041D2Fec35",
            "0x4ae901FBdB69eA08d63224964fC5E9696F0Fe6d0",
            "0x5D7C72C4014ed4008cF574EFF487ca24f345cf14",
            "0x4a5BB1c9347A0d4F7e06a29239162f03647d9232",
            "0x4928B4004c878a5fbb4A81B8406a4807491dAc06",
            "0x0551b8c8b1C7Fa0B066fdBb854188702d01bC64F",
            "0x32648075ecd353767dA2faFEF3C56a4283567f12",
            "0xdc211A0666bed568D5caFfbf538Ec221FCD1402f",
            "0xcE5cDF7D5072673aF0062E5A7241E69B6618b649",
            "0x20f9ddFA193D0fe2f73d8b7D749B1355eF019887",
            "0x0e2f041fB72A9C41d46fC336c92b617763681EE3",
            "0x38ee3a8d6A109c759ae53FE5C5B3D80e52E20E25",
            "0xf5b9F3C09DCb5729fe0f2a2d404B73B6CEd6071E",
            "0x444e01dcb3a1ec1b1aa1344505ed7c8690d53281",
            "0xF78d4b28C975353aA6aE45c31471e8Ca8da0BA35",
            "0xaE66CEB9D54563c4059cf596b5eD6Cc104bCf708",
            "0x1eB7409641e914888f2fF6d00601d8e03094b98f",
            "0x28faf1599A9c3a9b8463DfeB23d06B6495aE91bC",
            "0xf7EE6C2F811b52c72EFD167A1bb3F4AdAa1E0F89",
            "0x3D15Ad752798866025EEA52Dd60Cc687ee27fE4D",
            "0xb62Bd947f49c1B1E0cD786D62DdE77a444acC350",
            "0x4f83f16daf94C47CF1Af3564f1743dcB9b068a6e",
            "0x6D5E3B9B1Da69DFB677F81682CFDec404a207bf0",
            "0x8c1545690d22fe733a7d126f6d091759a721df11",
            "0xC1f0432F11C175e29681ff754B061E59394fbC49",
            "0x4BeE0d0d6C437a9Ac4a24088824a8660bb18431C",
            "0x5fb4a0983daD1A0fae31ED67F1aaffeA3F3E8eC2",
            "0x833652029fBB7bCbd51E0f5921DF143305DbB856",
            "0x5c6d2ac4A20A1f5812Dc7229B9812d10d798F17a",
            "0x1D9c41971a52C6559636C349D8d8f7F14B2bBAE1"
        ]
    },
    {
        "tier": 500000,
        "tokenID": 81,
        "members": 54,
        "memberArray": [
            "0x6d6075b67eA8A9bF2276eC42dE689BCC59c2E65e",
            "0x1eB7409641e914888f2fF6d00601d8e03094b98f",
            "0xf7EE6C2F811b52c72EFD167A1bb3F4AdAa1E0F89",
            "0x8c1545690d22fe733a7d126f6d091759a721df11",
            "0xaa5ba45127268b7e4b59058a952ab1e926de2075",
            "0xb62Bd947f49c1B1E0cD786D62DdE77a444acC350",
            "0x38ee3a8d6A109c759ae53FE5C5B3D80e52E20E25",
            "0x46f9697622228ea60E549620cC2DAa79312eDf75",
            "0x444e01dcb3a1ec1b1aa1344505ed7c8690d53281",
            "0x38586444200e0DC6938c8d258fb15FD14EB619b8",
            "0xf75c6d62BaD71c28DC1a0FF2b47A6eEd66Ef95B9",
            "0x5Db16FefCE9e8bA024d064268b041C68ED7F9fbC",
            "0x46f9697622228ea60E549620cC2DAa79312eDf75",
            "0x4f83f16daf94C47CF1Af3564f1743dcB9b068a6e",
            "0x3D15Ad752798866025EEA52Dd60Cc687ee27fE4D",
            "0xcE5cDF7D5072673aF0062E5A7241E69B6618b649",
            "0xAc225A899578383bF26c7c5477Aa014C1f2Ba836",
            "0x6a70fF3914b0939125bcC34957DF20DeEc4871",
            "0x0e2f041fB72A9C41d46fC336c92b617763681EE3",
            "0xaE66CEB9D54563c4059cf596b5eD6Cc104bCf708",
            "0xbef32030aA223A3031e3b4C5b24fad66d992413C",
            "0x6D5E3B9B1Da69DFB677F81682CFDec404a207bf0",
            "0x0551b8c8b1C7Fa0B066fdBb854188702d01bC64F",
            "0x3A9eA3A8F7916F2637DbA398124019950fD294c6",
            "0x9bfA30d420C340e810BA8438a93969d421bdFf56",
            "0xF9F02eb35cc9F22A69DAA26bE2B1A57e3Ab4bD53",
            "0x4ae901FBdB69eA08d63224964fC5E9696F0Fe6d0",
            "0xd10E761108B67b71ec545A1855190710D80672F0",
            "0xf5b9F3C09DCb5729fe0f2a2d404B73B6CEd6071E",
            "0x98B15A3D3D14a575f001f576ea11Ca91341D41b8",
            "0x4a5BB1c9347A0d4F7e06a29239162f03647d9232",
            "0xC1f0432F11C175e29681ff754B061E59394fbC49",
            "0x1eB7409641e914888f2fF6d00601d8e03094b98f",
            "0xDe6E9aEF70622d22685De5C1b988aC7C79A9b21C",
            "0x32648075ecd353767dA2faFEF3C56a4283567f12",
            "0xbdF5A9E1470a439f8E479E14FF98E471f59CD7E4",
            "0x678CDDdbDF9385273946194ffF0887Ac5c78f204",
            "0xF99D187a98a4ed59680eD7d439527cB755e32778",
            "0xF78d4b28C975353aA6aE45c31471e8Ca8da0BA35",
            "0x4928B4004c878a5fbb4A81B8406a4807491dAc06",
            "0x5D7C72C4014ed4008cF574EFF487ca24f345cf14",
            "0xF10FE5393f0A3C4a803551b4ee198fD40D2b50b7",
            "0x28faf1599A9c3a9b8463DfeB23d06B6495aE91bC",
            "0x007aBdd190137F614701A6216fd703329AFBcdf1",
            "0x20f9ddFA193D0fe2f73d8b7D749B1355eF019887",
            "0xdc211A0666bed568D5caFfbf538Ec221FCD1402f",
            "0xaDC1143bAe11fF79C4F6831E2F4c3bEf5139aCFf",
            "0x5c6d2ac4A20A1f5812Dc7229B9812d10d798F17a",
            "0xdc211A0666bed568D5caFfbf538Ec221FCD1402f",
            "0xEEf267819f7677BfFdA6A82D3FCAcF041D2Fec35",
            "0x4DbB9427c55F9a1241b24847E67366046422Ee19",
            "0x4BeE0d0d6C437a9Ac4a24088824a8660bb18431C",
            "0x5fb4a0983daD1A0fae31ED67F1aaffeA3F3E8eC2",
            "0x833652029fBB7bCbd51E0f5921DF143305DbB856"
        ]
    },
    {
        "tier": 400000,
        "tokenID": 71,
        "members": 57,
        "memberArray": [
            "0xcE5cDF7D5072673aF0062E5A7241E69B6618b649",
            "0x32648075ecd353767dA2faFEF3C56a4283567f12",
            "0xf75c6d62BaD71c28DC1a0FF2b47A6eEd66Ef95B9",
            "0x075AcD1B0E6C91e4b7689d098aad19258C351C79",
            "0xbdF5A9E1470a439f8E479E14FF98E471f59CD7E4",
            "0xD6ac305F7EFe48B3211ad7632B9Cde1225F25ba3",
            "0xb62Bd947f49c1B1E0cD786D62DdE77a444acC350",
            "0x4a5BB1c9347A0d4F7e06a29239162f03647d9232",
            "0x46f9697622228ea60E549620cC2DAa79312eDf75",
            "0x444e01dcb3a1ec1b1aa1344505ed7c8690d53281",
            "0x3A9eA3A8F7916F2637DbA398124019950fD294c6",
            "0x90D6Cc871224965b6509F216b3A5119A37C4c5Dc",
            "0x007aBdd190137F614701A6216fd703329AFBcdf1",
            "0xaE66CEB9D54563c4059cf596b5eD6Cc104bCf708",
            "0x9bfA30d420C340e810BA8438a93969d421bdFf56",
            "0x1eB7409641e914888f2fF6d00601d8e03094b98f",
            "0xEEf267819f7677BfFdA6A82D3FCAcF041D2Fec35",
            "0x5c6d2ac4A20A1f5812Dc7229B9812d10d798F17a",
            "0x28faf1599A9c3a9b8463DfeB23d06B6495aE91bC",
            "0xF9F02eb35cc9F22A69DAA26bE2B1A57e3Ab4bD53",
            "0x4DbB9427c55F9a1241b24847E67366046422Ee19",
            "0xd10E761108B67b71ec545A1855190710D80672F0",
            "0x0551b8c8b1C7Fa0B066fdBb854188702d01bC64F",
            "0xaDC1143bAe11fF79C4F6831E2F4c3bEf5139aCFf",
            "0x7f9C8843926De4b2eA6cBf9381F9f2FA81C58ed6",
            "0x678CDDdbDF9385273946194ffF0887Ac5c78f204",
            "0xF10FE5393f0A3C4a803551b4ee198fD40D2b50b7",
            "0xDf89c888C802EafAad084e9B1D5298409888ee3F",
            "0xb00E81207bcDA63c9E290E0b748252418818c869",
            "0x6D5E3B9B1Da69DFB677F81682CFDec404a207bf0",
            "0xbef32030aA223A3031e3b4C5b24fad66d992413C",
            "0x466822e78F979f6285aa40F978cC55A499965dC0",
            "0x287e2c76Aab4720786076c3DEedD7Dd386092050",
            "0x4928B4004c878a5fbb4A81B8406a4807491dAc06",
            "0x445e4A4428BA3cE1404948D51bec9b432C0ED35D",
            "0x0e2f041fB72A9C41d46fC336c92b617763681EE3",
            "0x5Db16FefCE9e8bA024d064268b041C68ED7F9fbC",
            "0x46f9697622228ea60E549620cC2DAa79312eDf75",
            "0x38586444200e0DC6938c8d258fb15FD14EB619b8",
            "0x20f9ddFA193D0fe2f73d8b7D749B1355eF019887",
            "0x348577598F1A2df19F49AC232CE50F1099A7B546",
            "0xdc211A0666bed568D5caFfbf538Ec221FCD1402f",
            "0x08B37C9aB0CE6b1D5Aa73A20Dfea634b78698065",
            "0xF78d4b28C975353aA6aE45c31471e8Ca8da0BA35",
            "0x1eB7409641e914888f2fF6d00601d8e03094b98f",
            "0x3D15Ad752798866025EEA52Dd60Cc687ee27fE4D",
            "0x38ee3a8d6A109c759ae53FE5C5B3D80e52E20E25",
            "0xf7EE6C2F811b52c72EFD167A1bb3F4AdAa1E0F89",
            "0x6a70fF3914b0939125bcC34957DF20DeEc4871",
            "0x4f83f16daf94C47CF1Af3564f1743dcB9b068a6e",
            "0x6d6075b67eA8A9bF2276eC42dE689BCC59c2E65e",
            "0x98B15A3D3D14a575f001f576ea11Ca91341D41b8",
            "0xF99D187a98a4ed59680eD7d439527cB755e32778",
            "0xf5b9F3C09DCb5729fe0f2a2d404B73B6CEd6071E",
            "0x4BeE0d0d6C437a9Ac4a24088824a8660bb18431C",
            "0x5fb4a0983daD1A0fae31ED67F1aaffeA3F3E8eC2",
            "0x833652029fBB7bCbd51E0f5921DF143305DbB856"
        ]
    },
    {
        "tier": 300000,
        "tokenID": 61,
        "members": 60,
        "memberArray": [
            "0xaDC1143bAe11fF79C4F6831E2F4c3bEf5139aCFf",
            "0x9bfA30d420C340e810BA8438a93969d421bdFf56",
            "0x4DbB9427c55F9a1241b24847E67366046422Ee19",
            "0xe7414b5811e579B91e510cad61ceD017d1A9C913 ",
            "0xcB0ddBFD76D66A51d2860c12640051573C1431e0",
            "0x378bde8b897D64F4047189C3F8b689008A560bad",
            "0x287e2c76Aab4720786076c3DEedD7Dd386092050",
            "0x8c1545690d22fe733a7d126f6d091759a721df11",
            "0x6d6075b67eA8A9bF2276eC42dE689BCC59c2E65e",
            "0xbdF5A9E1470a439f8E479E14FF98E471f59CD7E4",
            "0x75675550EE37B30bbcF84e04322C0974377eee8d",
            "0x08B37C9aB0CE6b1D5Aa73A20Dfea634b78698065",
            "0xdc211A0666bed568D5caFfbf538Ec221FCD1402f",
            "0x63c410A066d5d12217b713cCac5F600A06ba45e6",
            "0x348577598F1A2df19F49AC232CE50F1099A7B546",
            "0x71065286F93B878bF55c8F9502ae608370fdE152",
            "0xDe6E9aEF70622d22685De5C1b988aC7C79A9b21C",
            "0x22BE9582CDef4eF2e6d4b119547AecD7652D9e28",
            "0x466822e78F979f6285aa40F978cC55A499965dC0",
            "0x7D7b53A5F64eA47047A94D0F3Bb87B2F2C43e547",
            "0x38ee3a8d6A109c759ae53FE5C5B3D80e52E20E25",
            "0xaa5ba45127268b7e4b59058a952ab1e926de2075",
            "0x6D5E3B9B1Da69DFB677F81682CFDec404a207bf0",
            "0xc5cee9416571752528ACbb4331761C5E2706748c",
            "0x0e2f041fB72A9C41d46fC336c92b617763681EE3",
            "0xdc211A0666bed568D5caFfbf538Ec221FCD1402f",
            "0x6f2E21B6E20F3Ce7A1a8Ec132FD69CB6Fc603c3C",
            "0x678CDDdbDF9385273946194ffF0887Ac5c78f204",
            "0x5D7C72C4014ed4008cF574EFF487ca24f345cf14",
            "0x3D15Ad752798866025EEA52Dd60Cc687ee27fE4D",
            "0x6E332BF9dEeAbFCbdbeA05023b48DDB2590eCd4A",
            "0x7f9C8843926De4b2eA6cBf9381F9f2FA81C58ed6",
            "0x3A9eA3A8F7916F2637DbA398124019950fD294c6",
            "0x5c6d2ac4A20A1f5812Dc7229B9812d10d798F17a",
            "0xF99D187a98a4ed59680eD7d439527cB755e32778",
            "0xF78d4b28C975353aA6aE45c31471e8Ca8da0BA35",
            "0x90D6Cc871224965b6509F216b3A5119A37C4c5Dc",
            "0x98B15A3D3D14a575f001f576ea11Ca91341D41b8",
            "0x45b4E73554938220fa817F45E0E500d82A1bBA58",
            "0x4928B4004c878a5fbb4A81B8406a4807491dAc06",
            "0xcE5cDF7D5072673aF0062E5A7241E69B6618b649",
            "0x6a70fF3914b0939125bcC34957DF20DeEc4871",
            "0xE5484C082938603dFdEB2ECdc28158d7D99241cB",
            "0xC1f0432F11C175e29681ff754B061E59394fbC49",
            "0x38586444200e0DC6938c8d258fb15FD14EB619b8",
            "0x075AcD1B0E6C91e4b7689d098aad19258C351C79",
            "0x0551b8c8b1C7Fa0B066fdBb854188702d01bC64F",
            "0x7EB9d67f9DaeA510399A1eE978b36E66626058d3",
            "0x5d4F25b080230976187e9897A4cBb4c284D7C390",
            "0x678CDDdbDF9385273946194ffF0887Ac5c78f204",
            "0x7a164f6DAde07Bcac283391D75E12c0Aeb20B65D",
            "0xb62Bd947f49c1B1E0cD786D62DdE77a444acC350",
            "0xF867a0AE2ba8cEafDAC18B57a2C6B0E4a7D91bEc",
            "0x46f9697622228ea60E549620cC2DAa79312eDf75",
            "0xAc225A899578383bF26c7c5477Aa014C1f2Ba836",
            "0xbef32030aA223A3031e3b4C5b24fad66d992413C",
            "0x445e4A4428BA3cE1404948D51bec9b432C0ED35D",
            "0x4BeE0d0d6C437a9Ac4a24088824a8660bb18431C",
            "0x5fb4a0983daD1A0fae31ED67F1aaffeA3F3E8eC2",
            "0x833652029fBB7bCbd51E0f5921DF143305DbB856"
        ]
    },
    {
        "tier": 200000,
        "tokenID": 51,
        "members": 63,
        "memberArray": [
            "0x08B37C9aB0CE6b1D5Aa73A20Dfea634b78698065",
            "0x5Db16FefCE9e8bA024d064268b041C68ED7F9fbC",
            "0x678CDDdbDF9385273946194ffF0887Ac5c78f204",
            "0xb00E81207bcDA63c9E290E0b748252418818c869",
            "0x6a70fF3914b0939125bcC34957DF20DeEc4871",
            "0xbdF5A9E1470a439f8E479E14FF98E471f59CD7E4",
            "0x1eB7409641e914888f2fF6d00601d8e03094b98f",
            "0xE5484C082938603dFdEB2ECdc28158d7D99241cB",
            "0xf5b9F3C09DCb5729fe0f2a2d404B73B6CEd6071E",
            "0x6D5E3B9B1Da69DFB677F81682CFDec404a207bf0",
            "0x5c6d2ac4A20A1f5812Dc7229B9812d10d798F17a",
            "0xF99D187a98a4ed59680eD7d439527cB755e32778",
            "0xc5cee9416571752528ACbb4331761C5E2706748c",
            "0xCD40b4f9fFf1251D5A09f892A1aCFced2A97aEC7",
            "0x22BE9582CDef4eF2e6d4b119547AecD7652D9e28",
            "0xffAb2Ab5C1065ECD2a9Df176C27a5095E78D0740",
            "0xbef32030aA223A3031e3b4C5b24fad66d992413C",
            "0xe7414b5811e579B91e510cad61ceD017d1A9C913 ",
            "0x9bfA30d420C340e810BA8438a93969d421bdFf56",
            "0x9e67D018488aD636B538e4158E9e7577F2ECac12",
            "0x007aBdd190137F614701A6216fd703329AFBcdf1",
            "0x90D6Cc871224965b6509F216b3A5119A37C4c5Dc",
            "0x678CDDdbDF9385273946194ffF0887Ac5c78f204",
            "0x7a164f6DAde07Bcac283391D75E12c0Aeb20B65D",
            "0x59F026F6E98736252061c2b3CB8a9b30A779D233",
            "0x1eB7409641e914888f2fF6d00601d8e03094b98f",
            "0x0808c343E3395b348495EDd585E32c0C147B8dE2",
            "0xAA1C73B88867DD5Ae89813f2d1b4F715D7D9A134",
            "0x7D7b53A5F64eA47047A94D0F3Bb87B2F2C43e547",
            "0x01303CE328eE52Eb6f76708b75f55ad19467D450",
            "0x4ae901FBdB69eA08d63224964fC5E9696F0Fe6d0",
            "0xf75c6d62BaD71c28DC1a0FF2b47A6eEd66Ef95B9",
            "0x28faf1599A9c3a9b8463DfeB23d06B6495aE91bC",
            "0x5E2D8f411d2DBbb537ecd4B72BE68bC5E98573a5",
            "0x4DbB9427c55F9a1241b24847E67366046422Ee19",
            "0xF867a0AE2ba8cEafDAC18B57a2C6B0E4a7D91bEc",
            "0xD8aF41080acbC4B0b5C2Cc58A0D414442c8c6Fd9",
            "0x28faf1599A9c3a9b8463DfeB23d06B6495aE91bC",
            "0xEEf267819f7677BfFdA6A82D3FCAcF041D2Fec35",
            "0x3A9eA3A8F7916F2637DbA398124019950fD294c6",
            "0xB9E1cf45888785CfAcA692C5617DB4f6C3fFA96d",
            "0xF9F02eb35cc9F22A69DAA26bE2B1A57e3Ab4bD53",
            "0x4a5BB1c9347A0d4F7e06a29239162f03647d9232",
            "0x378bde8b897D64F4047189C3F8b689008A560bad",
            "0x6E332BF9dEeAbFCbdbeA05023b48DDB2590eCd4A",
            "0xD6ac305F7EFe48B3211ad7632B9Cde1225F25ba3",
            "0x42FAD4d519223C22C40aCE6DeDE72E56B4d15439",
            "0x98B15A3D3D14a575f001f576ea11Ca91341D41b8",
            "0x38586444200e0DC6938c8d258fb15FD14EB619b8",
            "0xcE5cDF7D5072673aF0062E5A7241E69B6618b649",
            "0x3D15Ad752798866025EEA52Dd60Cc687ee27fE4D",
            "0xCDb3B3F161c6c683104ea4E1F8B48C08e266a613",
            "0x0551b8c8b1C7Fa0B066fdBb854188702d01bC64F",
            "0x526C7665C5dd9cD7102C6d42D407a0d9DC1e431d",
            "0x6d6075b67eA8A9bF2276eC42dE689BCC59c2E65e",
            "0xF78d4b28C975353aA6aE45c31471e8Ca8da0BA35",
            "0xDf89c888C802EafAad084e9B1D5298409888ee3F",
            "0x445e4A4428BA3cE1404948D51bec9b432C0ED35D",
            "0xBFfEE6B2B141dEd282aF160dDcd1c9f665FA0eC4",
            "0x678CDDdbDF9385273946194ffF0887Ac5c78f204",
            "0x4BeE0d0d6C437a9Ac4a24088824a8660bb18431C",
            "0x5fb4a0983daD1A0fae31ED67F1aaffeA3F3E8eC2",
            "0x833652029fBB7bCbd51E0f5921DF143305DbB856"
        ]
    },
    {
        "tier": 100000,
        "tokenID": 41,
        "members": 66,
        "memberArray": [
            "0x0170422c550C4c992AebD9AD848caC9e41507Cf7",
            "0xF9F02eb35cc9F22A69DAA26bE2B1A57e3Ab4bD53",
            "0x93aa8c9a50efa30bb28ce0ad12516686c963472a",
            "0x4ae901FBdB69eA08d63224964fC5E9696F0Fe6d0",
            "0x2b053AE11104925fEe42dB51843875a9712236A0",
            "0xE974e825aF7EaCb4A3b9149710722fa07B856837",
            "0x07206D87ADFB4588ebE0f5a2f30C17edbde7EdC8",
            "0x064523542F3114bcAE8b1eFc69D945788eFBe492",
            "0xf7EE6C2F811b52c72EFD167A1bb3F4AdAa1E0F89",
            "0x6d6075b67eA8A9bF2276eC42dE689BCC59c2E65e",
            "bnb19w8ac9srzwa3mcne6eh2vkvevgg3fumj55wdyq",
            "0x7E3F89e746Dd9a2eeb2c55654732d8BD67F3c8ae",
            "0xe9084e17D6fE521E020777faD926bdacee68D74d",
            "0xaE66CEB9D54563c4059cf596b5eD6Cc104bCf708",
            "0xAd145741B1E0321305f9a6E95B347610014aEb5d",
            "0xD8aF41080acbC4B0b5C2Cc58A0D414442c8c6Fd9",
            "0xffAb2Ab5C1065ECD2a9Df176C27a5095E78D0740",
            "0x9ff852966176440938503e62aeDc29AB7d4e6191",
            "0x46f9697622228ea60E549620cC2DAa79312eDf75",
            "0x6f2E21B6E20F3Ce7A1a8Ec132FD69CB6Fc603c3C",
            "0xE52926b397D7C1e3fdc36d6774a15D0d66Ec60EE",
            "0x5333c1d733794e02f34d5f0d88c65d03FD2E4Db1",
            "0xf5b9F3C09DCb5729fe0f2a2d404B73B6CEd6071E",
            "0x95f1872c2c63f54072BD42F68BeEe71E0D6f67d3",
            "0xFde166416b94C92A98966833c71c3AD3E209f8Bf",
            "0x22BE9582CDef4eF2e6d4b119547AecD7652D9e28",
            "0x20f9ddFA193D0fe2f73d8b7D749B1355eF019887",
            "0xC370634a9f3e32b7275591F3e3F537645599f2bc",
            "0xE5484C082938603dFdEB2ECdc28158d7D99241cB",
            "0xBFfEE6B2B141dEd282aF160dDcd1c9f665FA0eC4",
            "0xdDF6470B257C5CC8b2ED142EE88d331d8339D2b4",
            "0xFA27C9b69dD0B2E0f96118D564ce3b8A275905BD",
            "0xCD40b4f9fFf1251D5A09f892A1aCFced2A97aEC7",
            "0xcB0ddBFD76D66A51d2860c12640051573C1431e0",
            "fiskantes.eth",
            "0x444e01dcb3a1ec1b1aa1344505ed7c8690d53281",
            "0xF10FE5393f0A3C4a803551b4ee198fD40D2b50b7",
            "0x71065286F93B878bF55c8F9502ae608370fdE152",
            "0x1eB7409641e914888f2fF6d00601d8e03094b98f",
            "0x69725346044aefB4df81079CA9Ba742416576D19",
            "0xa21bb86c5ea3e3ed98baa50be086ee0fb931843f",
            "0xb00E81207bcDA63c9E290E0b748252418818c869",
            "0x312553F0C0C6218899d58e528892e789c8E96d03",
            "0xFB99f02A99bc250F691e68D05260be56E2727c99",
            "0x0BDA046968c97347C6154f59013f059cA88Bb03A",
            "0x5D7C72C4014ed4008cF574EFF487ca24f345cf14",
            "0x678CDDdbDF9385273946194ffF0887Ac5c78f204",
            "0xa301d259fDEa577ECe7Bb920f6D2454a6ebeb1b6",
            "0x0551b8c8b1C7Fa0B066fdBb854188702d01bC64F",
            "0xEEf267819f7677BfFdA6A82D3FCAcF041D2Fec35",
            "0x28faf1599A9c3a9b8463DfeB23d06B6495aE91bC",
            "0x42Ce69971Ff9f7fBC1303c6DacCD045Ef2d9069d",
            "0xCDb3B3F161c6c683104ea4E1F8B48C08e266a613",
            "0x6E332BF9dEeAbFCbdbeA05023b48DDB2590eCd4A",
            "0x52E7bdE89Fcbd1e1C656Db1C08DdE45D82447e25",
            "0x0808c343E3395b348495EDd585E32c0C147B8dE2",
            "0x5E2D8f411d2DBbb537ecd4B72BE68bC5E98573a5",
            "0x466822e78F979f6285aa40F978cC55A499965dC0",
            "0xF78d4b28C975353aA6aE45c31471e8Ca8da0BA35",
            "0x3D15Ad752798866025EEA52Dd60Cc687ee27fE4D",
            "0xcc17e6ec4540cb49E871B00A00157DD20375C253",
            "0x9008676d9EcC75c506aAd7C70eBD55523fcb725d",
            "0x90D6Cc871224965b6509F216b3A5119A37C4c5Dc",
            "0x4BeE0d0d6C437a9Ac4a24088824a8660bb18431C",
            "0x5fb4a0983daD1A0fae31ED67F1aaffeA3F3E8eC2",
            "0x833652029fBB7bCbd51E0f5921DF143305DbB856"
        ]
    },
    {
        "tier": 90000,
        "tokenID": 31,
        "members": 72,
        "memberArray": [
            "0xEd77186823069B559852D893DbE45cBa6e076C13",
            "0x0BDA046968c97347C6154f59013f059cA88Bb03A",
            "0x5c6d2ac4A20A1f5812Dc7229B9812d10d798F17a",
            "0x8003356bdb79e4e63E98d383869EE9f98FE6Dd6b",
            "0xaE66CEB9D54563c4059cf596b5eD6Cc104bCf708",
            "0x7Adf5937A1a5c3670AC7C82Fa6A8EC4EA70D6250",
            "0x3A9eA3A8F7916F2637DbA398124019950fD294c6",
            "0xf75c6d62BaD71c28DC1a0FF2b47A6eEd66Ef95B9",
            "0x38ee3a8d6A109c759ae53FE5C5B3D80e52E20E25",
            "0xfa6eE7Af7BaA1B174500d1A8275995EEA829453A",
            "0xbef32030aA223A3031e3b4C5b24fad66d992413C",
            "0x526C7665C5dd9cD7102C6d42D407a0d9DC1e431d",
            "0x8697316e0c0437a39b106a958c6603483541a4fe",
            "0xaa5ba45127268b7e4b59058a952ab1e926de2075",
            "0x42Ce69971Ff9f7fBC1303c6DacCD045Ef2d9069d",
            "0x8d7A48cEa03Bc59bD47FeC49F3EB4Ad2Fe2a7f68",
            "0x064523542F3114bcAE8b1eFc69D945788eFBe492",
            "0x63c410A066d5d12217b713cCac5F600A06ba45e6",
            "0xA626Bd40A8c88F59A4CF9b1821A7bD71faD96285",
            "0xC8938bf01EeE0e8c376e81214e1dF31593637d71",
            "0xF9F02eb35cc9F22A69DAA26bE2B1A57e3Ab4bD53",
            "0x9B17aB011e3F84dc37fD048D0C7eB377516ecAE3",
            "0x4f83f16daf94C47CF1Af3564f1743dcB9b068a6e",
            "0x4f246BA9D70A786534A04E38388eb194Bd0BA438",
            "0xAc225A899578383bF26c7c5477Aa014C1f2Ba836",
            "0xBFfEE6B2B141dEd282aF160dDcd1c9f665FA0eC4",
            "0x22BE9582CDef4eF2e6d4b119547AecD7652D9e28",
            "0x312553F0C0C6218899d58e528892e789c8E96d03",
            "0xCD40b4f9fFf1251D5A09f892A1aCFced2A97aEC7",
            "0x0fD84d7cb911728737556684050782B298F70f0f",
            "0xF10FE5393f0A3C4a803551b4ee198fD40D2b50b7",
            "0xb00E81207bcDA63c9E290E0b748252418818c869",
            "0x378bde8b897D64F4047189C3F8b689008A560bad",
            "0x7a164f6DAde07Bcac283391D75E12c0Aeb20B65D",
            "0x5D7C72C4014ed4008cF574EFF487ca24f345cf14",
            "0x5Db16FefCE9e8bA024d064268b041C68ED7F9fbC",
            "0x287e2c76Aab4720786076c3DEedD7Dd386092050",
            "0xC3db09cd17f9C442AFdD164c11608650362b21C4",
            "0x5d4F25b080230976187e9897A4cBb4c284D7C390",
            "0x0EBAb19F412e1afD2B90842e5C632aa186a4f60d",
            "0x1eB7409641e914888f2fF6d00601d8e03094b98f",
            "0xAA1C73B88867DD5Ae89813f2d1b4F715D7D9A134",
            "0xa301d259fDEa577ECe7Bb920f6D2454a6ebeb1b6",
            "0x38586444200e0DC6938c8d258fb15FD14EB619b8",
            "bnb19w8ac9srzwa3mcne6eh2vkvevgg3fumj55wdyq",
            "0xF78d4b28C975353aA6aE45c31471e8Ca8da0BA35",
            "0xEEf267819f7677BfFdA6A82D3FCAcF041D2Fec35",
            "0xa21bb86c5ea3e3ed98baa50be086ee0fb931843f",
            "0x9bfA30d420C340e810BA8438a93969d421bdFf56",
            "0xC501A1F534b9c219BDB407bE12fCb01ddF9A3694",
            "0x4d1925d3539EB9cd802E219F1ca3860dc3AF1dAB",
            "0x240Fe653Bc3ae1F87aEf10757bc7367F03c7a518",
            "0xdDF6470B257C5CC8b2ED142EE88d331d8339D2b4",
            "0x6a70fF3914b0939125bcC34957DF20DeEc4871",
            "0x2A2c1102cC6F3eF7e3d469e47c70ad8181C1FaED",
            "0xA2dCB52F5cF34a84A2eBFb7D937f7051ae4C697B",
            "0x4a5BB1c9347A0d4F7e06a29239162f03647d9232",
            "0x81fF3A04B9bD7602357992792Ef44204376BDf7f",
            "0x4eCF7071E4631A194f33B95ca50548808A17e986",
            "0x0551b8c8b1C7Fa0B066fdBb854188702d01bC64F",
            "0x28faf1599A9c3a9b8463DfeB23d06B6495aE91bC",
            "0x886B94C0CC4acd69E074B71E656A5f415682985a",
            "0xDdc94bC4F885D9565A0BA6d3e0eB197049e116c5",
            "0x3eF60966A81E16592b6db1b440Fc4EB3F4C96F9A",
            "0x0e2f041fB72A9C41d46fC336c92b617763681EE3",
            "0xc575cd38ca4ad3c004ddbd7889de41bb27e516fd",
            "0x0808c343E3395b348495EDd585E32c0C147B8dE2",
            "0xe7414b5811e579B91e510cad61ceD017d1A9C913 ",
            "0xF78D643a7b971CE10e909B46d20976dB072014b7",
            "0x4BeE0d0d6C437a9Ac4a24088824a8660bb18431C",
            "0x5fb4a0983daD1A0fae31ED67F1aaffeA3F3E8eC2",
            "0x833652029fBB7bCbd51E0f5921DF143305DbB856"
        ]
    },
    {
        "tier": 60000,
        "tokenID": 21,
        "members": 81,
        "memberArray": [
            "0x6accD26626c150a4b485E6c9c541b38FE0AB5915",
            "0x312553F0C0C6218899d58e528892e789c8E96d03",
            "0x7D7b53A5F64eA47047A94D0F3Bb87B2F2C43e547",
            "0xeBE6cC6820a76705B6654FdD1254256DcD54F1dF",
            "0xc400EEAb2b0A75969c3A53D95E1A38d28eae9441",
            "0x3A9eA3A8F7916F2637DbA398124019950fD294c6",
            "0x3DD855940338e7b2FB488614EE064a2FEeFa243e",
            "0x3D15Ad752798866025EEA52Dd60Cc687ee27fE4D",
            "0x42d4c197036bd9984ca652303e07dd29fa6bdb37",
            "0x627bAEDCF0C32825D2B50c05F120b9A8E816504d",
            "0x3b9416493A00630070D9b55E8D01175271b6F913",
            "0x07206D87ADFB4588ebE0f5a2f30C17edbde7EdC8",
            "0x445e4A4428BA3cE1404948D51bec9b432C0ED35D",
            "0x7EB9d67f9DaeA510399A1eE978b36E66626058d3",
            "0x63c410A066d5d12217b713cCac5F600A06ba45e6",
            "0x6E332BF9dEeAbFCbdbeA05023b48DDB2590eCd4A",
            "0x4Db32a12F1552b0079025D4b800E03111211Ee16",
            "0xcdA16A18d3F942571E7ba81B7D2219A6802C45A1",
            "0x95f1872c2c63f54072BD42F68BeEe71E0D6f67d3",
            "0x4a5BB1c9347A0d4F7e06a29239162f03647d9232",
            "0x6f2E21B6E20F3Ce7A1a8Ec132FD69CB6Fc603c3C",
            "0x08B37C9aB0CE6b1D5Aa73A20Dfea634b78698065",
            "0x32648075ecd353767dA2faFEF3C56a4283567f12",
            "0x2A2c1102cC6F3eF7e3d469e47c70ad8181C1FaED",
            "0xce8c42230891064f0dfeef720fe2e60e6bc37a1a",
            "0xd0f9899ec83BF1cf915bf101D6E7949361151523",
            "0x9e67D018488aD636B538e4158E9e7577F2ECac12",
            "0x45b4E73554938220fa817F45E0E500d82A1bBA58",
            "0xc23352C26FE7fA6556E790ED3Ace42eE5582C5F5",
            "0x02CA4101eA84f400c62b3BeB87Fb5450a8702941",
            "0xaa5ba45127268b7e4b59058a952ab1e926de2075",
            "0xfa6eE7Af7BaA1B174500d1A8275995EEA829453A",
            "0xE3E39161d35E9A81edEc667a5387bfAE85752854",
            "0x5d4F25b080230976187e9897A4cBb4c284D7C390",
            "0x29E191D3005201DeE2e88567f41B57F4630ea9f4",
            "0x8003356bdb79e4e63E98d383869EE9f98FE6Dd6b",
            "0xf5b9F3C09DCb5729fe0f2a2d404B73B6CEd6071E",
            "0xe7414b5811e579B91e510cad61ceD017d1A9C913 ",
            "0x69725346044aefB4df81079CA9Ba742416576D19",
            "0x84a3F317D8069b3887c11a757635C20D1460149F",
            "0xA29B2573469E80Debe0AB3BAbf6008e5FB3d8722",
            "0x0BDA046968c97347C6154f59013f059cA88Bb03A",
            "0x4ae901FBdB69eA08d63224964fC5E9696F0Fe6d0",
            "0x72158d489043D7d8Fa2660F074E2Ef7827ba6D21",
            "0xbefa1156Fb87B82c5A1231cB005097CE680cc74D",
            "0xAA1C73B88867DD5Ae89813f2d1b4F715D7D9A134",
            "0xe7414b5811e579B91e510cad61ceD017d1A9C913 ",
            "0x46f9697622228ea60E549620cC2DAa79312eDf75",
            "0xb00E81207bcDA63c9E290E0b748252418818c869",
            "0xB48C08B5ccA1636b859B9a691Ec45C207Eb0708d",
            "0xEd77186823069B559852D893DbE45cBa6e076C13",
            "0x466822e78F979f6285aa40F978cC55A499965dC0",
            "0xAd145741B1E0321305f9a6E95B347610014aEb5d",
            "0x95Dec167F71bd0842743eBe0962F0FcD219856cF",
            "0xcB0ddBFD76D66A51d2860c12640051573C1431e0",
            "0x075AcD1B0E6C91e4b7689d098aad19258C351C79",
            "0x0f8dbbeBdd165510Cb4EBA859A92d7329dEAc956",
            "0x31e0E2f2a3C6E8203B4F61C2CF59d3723dDE9557",
            "0x39DE56518e136d472Ef9645e7D6E1F7c6C8Ed37b",
            "0x03Dc54Da70469dc3d53D4aF0AE43236B6ff4F2b7",
            "0x1B5619ea5C5F0998006Af5592f2D9506F044d107",
            "0xC8938bf01EeE0e8c376e81214e1dF31593637d71",
            "0xFde166416b94C92A98966833c71c3AD3E209f8Bf",
            "0x3746668eee844561985e888f604361294a56209c",
            "0x22BE9582CDef4eF2e6d4b119547AecD7652D9e28",
            "0x4f246BA9D70A786534A04E38388eb194Bd0BA438",
            "0x458bF1c9407E8816F290C8FBFE800240F46c6361",
            "0x98B15A3D3D14a575f001f576ea11Ca91341D41b8",
            "0x7578677c420B5505cf2AdF6ABd3Dc29e6268c5b4",
            "0x81C0f38F09c950A2d2CBB9A03B2886001096F648",
            "0x870CF1731034ACA407e6620307bb2DE1179A4Fe3",
            "0x0fD84d7cb911728737556684050782B298F70f0f",
            "0x6f2E21B6E20F3Ce7A1a8Ec132FD69CB6Fc603c3C",
            "0xE3fa6760c3c6d5Bc7b2F48B269ca080B0538C296",
            "bnb19w8ac9srzwa3mcne6eh2vkvevgg3fumj55wdyq",
            "0x567a904799011C2edcdf3D21178b6828B009B446",
            "0x28faf1599A9c3a9b8463DfeB23d06B6495aE91bC",
            "0xd10E761108B67b71ec545A1855190710D80672F0",
            "0x4BeE0d0d6C437a9Ac4a24088824a8660bb18431C",
            "0x5fb4a0983daD1A0fae31ED67F1aaffeA3F3E8eC2",
            "0x833652029fBB7bCbd51E0f5921DF143305DbB856"
        ]
    },
    {
        "tier": 30000,
        "tokenID": 11,
        "members": 90,
        "memberArray": [
            "0xcC0Af74c6a2a14734DadEe5FeaD9741Bb5A1b1Fe",
            "0xB2B25Ac878cdF8d79b9D4679354a0c88c2da7357",
            "0x612112d107743FDb4c64F7990A76B01046bFB812",
            "0xCCa178a04D83Af193330C7927fb9a42212Fb1C25",
            "0xcE5cDF7D5072673aF0062E5A7241E69B6618b649",
            "0x42FAD4d519223C22C40aCE6DeDE72E56B4d15439",
            "0x71232ead3bec1ac03ecfe2556acd6c7d0bd349c7",
            "0xF4F5C8A5F3C7dAEa939802380188e1ACEdFCFBf0",
            "0xEDd828ed8bf8205CdBf4439349c539215D3Fad1D",
            "0xF78D643a7b971CE10e909B46d20976dB072014b7",
            "0x59F026F6E98736252061c2b3CB8a9b30A779D233",
            "0xE77652a153b6Aa41b6D6ac2cDbd4d9DAcB72306E",
            "0xaDC1143bAe11fF79C4F6831E2F4c3bEf5139aCFf",
            "0xb91bBdE050F65b0334aaD44ff05898F30daa3875",
            "0xb30217Cb6EAcfd76B302b91d0E5450AA06EC201E",
            "0xe7414b5811e579B91e510cad61ceD017d1A9C913 ",
            "0xb00E81207bcDA63c9E290E0b748252418818c869",
            "0x7EB9d67f9DaeA510399A1eE978b36E66626058d3",
            "0x4a6e297B23B9389380987e901481811d83e945C4",
            "0x2C2a33D73dF0915207DC8bE4e40e6A935189A7F8",
            "0x4A11a811e05FdDa19A17E34ce1C9C8efD2018cc4",
            "0xBB5f3306e026950e798eB11260dc7d84fa0C7a9f",
            "0x0a04362fbdc46b8af04e26246fa07cc636a7790b",
            "0xF670fD01a42a80C5098d4785638F7B0a8Ac69010",
            "0xb1ead214506d0cd73785dd09b3efc2307133bf69",
            "0xd0c0f5A2284cc70b8442108FE8ADD8E8499b4828",
            "0x3b9416493A00630070D9b55E8D01175271b6F913",
            "0x71065286F93B878bF55c8F9502ae608370fdE152",
            "0x2b053AE11104925fEe42dB51843875a9712236A0",
            "0x42FAD4d519223C22C40aCE6DeDE72E56B4d15439",
            "fiskantes.eth",
            "0x3D7FAB5EcBa07D933567cb9DE777c7DBac872867",
            "0x38586444200e0DC6938c8d258fb15FD14EB619b8",
            "0xBf4E15A34711fFb211Fef7458a3659558b23bAC9",
            "0xA95d252193c0C433dbBA11e9Aa1cFc5481F4AC36",
            "0x862059F71CB59869fEeA3713E412C0761095b065",
            "0xdDF6470B257C5CC8b2ED142EE88d331d8339D2b4",
            "0xe89F71e91DafEC474aE97b8BAA53029B30a5E9ec",
            "0x240Fe653Bc3ae1F87aEf10757bc7367F03c7a518",
            "0xC48Ef265c663F776CDA0bfA5d859183e346082c0",
            "0xC3130F83BdcF5E84f777d58580Ce99D811aea108",
            "0x62c5a84a8c2F2fC220866954A3654D0F35d180c5",
            "0x7Adf5937A1a5c3670AC7C82Fa6A8EC4EA70D6250",
            "0xaa5ba45127268b7e4b59058a952ab1e926de2075",
            "0xF9F02eb35cc9F22A69DAA26bE2B1A57e3Ab4bD53",
            "0xFf50219d17083f234a37f9f85d5f1D5A05b3169f",
            "0x562d1588bA0A59f8A54CbD69728e7593333aC875",
            "0xE5D12B67755d2d68Dd69821fed9d7cC9c92fEf33",
            "0x5f8Fd99047265Af45071f40042DA15c1BD375B85",
            "0xF9Ca61b2C3938D3C5Ec8Fa669622240A7a0cb316",
            "0x8c1545690d22fe733a7d126f6d091759a721df11",
            "0xd470b1ac529a2bc704b6e7467485d52569daf2c1",
            "0x210154d33Ef8297428ad6fbf7e45846305789175",
            "0x7D7b53A5F64eA47047A94D0F3Bb87B2F2C43e547",
            "0xc8b2468f9fd7e1fe407eff8d2813fb0bf56eb726",
            "0x03Dc54Da70469dc3d53D4aF0AE43236B6ff4F2b7",
            "0x8697316e0c0437a39b106a958c6603483541a4fe",
            "0xf75c6d62BaD71c28DC1a0FF2b47A6eEd66Ef95B9",
            "0xaC6D0aCBCE4af6A68857238Ab0EC6DdfA225a320",
            "0x08661D86e25A178aE7B899A5470377d1DB6Cc80e",
            "0xBB20DD02e4b580A6977fDD161858714954b82244",
            "0x9e67D018488aD636B538e4158E9e7577F2ECac12",
            "0x76a95d549Ca36d955Df2c72F693690d8e51a94d0",
            "0x7c1DE0FeD5a0EeEABF3d59C61aB868626A56dF67",
            "0x6E332BF9dEeAbFCbdbeA05023b48DDB2590eCd4A",
            "0xeE82d15265C15a00197693B361b7735a93b82e55",
            "0xD89508D10e057b90Bb7a417f93f846dcdE298580",
            "0x9ff852966176440938503e62aeDc29AB7d4e6191",
            "0x75675550EE37B30bbcF84e04322C0974377eee8d",
            "0x627bAEDCF0C32825D2B50c05F120b9A8E816504d",
            "0x93aa8c9a50efa30bb28ce0ad12516686c963472a",
            "0x6de5031aF6a0aE5681DA36C2E9DD94B27aEa15e5",
            "0xcdA16A18d3F942571E7ba81B7D2219A6802C45A1",
            "0x35884Ab49cF6d97f23C5E7BD63ca7Fad44b73c1D",
            "0x678CDDdbDF9385273946194ffF0887Ac5c78f204",
            "0xffAb2Ab5C1065ECD2a9Df176C27a5095E78D0740",
            "0x4A11a811e05FdDa19A17E34ce1C9C8efD2018cc4",
            "0xCcB5520c2211af9fd7CAE749bB91728D72771E4F",
            "0xAA1C73B88867DD5Ae89813f2d1b4F715D7D9A134",
            "0x98D7b027A2242fF602D17E8E5Cd73e9C05c1b88d",
            "0xd10E761108B67b71ec545A1855190710D80672F0",
            "0x007aBdd190137F614701A6216fd703329AFBcdf1",
            "0xcB0ddBFD76D66A51d2860c12640051573C1431e0",
            "0x32648075ecd353767dA2faFEF3C56a4283567f12",
            "0x42d4c197036bd9984ca652303e07dd29fa6bdb37",
            "0xfdE089a08e1dF231E25674a18937Aef001Db1fcC",
            "0x95f1872c2c63f54072BD42F68BeEe71E0D6f67d3",
            "0x4BeE0d0d6C437a9Ac4a24088824a8660bb18431C",
            "0x5fb4a0983daD1A0fae31ED67F1aaffeA3F3E8eC2",
            "0x833652029fBB7bCbd51E0f5921DF143305DbB856"
        ]
    },
    {
        "tier": 10000,
        "tokenID": 1,
        "members": 99,
        "memberArray": [
            "0x6867A3B52CE07A58273E6CaA56a2c2e3967e69b1",
            "0x02CA4101eA84f400c62b3BeB87Fb5450a8702941",
            "0xB04C9d6D966Bf6BA63318563b67201332945080A",
            "0x443Da397aa57b7D264B97B9cFCd51dADF5Df4e19",
            "0x9B2E8F4aB3838E83c9c04cdf45c8B9f5E943Ab9b",
            "0x568F71FD4642E6EEb52127C6911e2116C9bAd1AC",
            "0x17f88211f9648Cd2Cc9f04874153a12371629ACc",
            "oxE7d5c09b70CD90a4e4cfa145256E7F98cE4265bE",
            "0x76985F8bD32dE258dFc8ae497ED5F0112322D078",
            "0xf79a4ce9bd79f43257e24986dd35c3dfc5da5460",
            "0x59E6F9C9062296195Ca0Ed7a1b2877EDA58B104D",
            "0x69EEC86C1Fe212e022e2E36743e993Ba009d05CD",
            "0xBB20DD02e4b580A6977fDD161858714954b82244",
            "0x2A2c1102cC6F3eF7e3d469e47c70ad8181C1FaED",
            "0x4ae901FBdB69eA08d63224964fC5E9696F0Fe6d0",
            "0x08B37C9aB0CE6b1D5Aa73A20Dfea634b78698065",
            "0x7Adf5937A1a5c3670AC7C82Fa6A8EC4EA70D6250",
            "0xC3130F83BdcF5E84f777d58580Ce99D811aea108",
            "0x4DbB9427c55F9a1241b24847E67366046422Ee19",
            "0x3c72acAc51924fEd90EE476FCa34178A868fC864",
            "0x67e5ab5b573F01030a1076dDA7A79Ef0f31A1bFa",
            "0x592eDC5C8EfB7810ba684D197299372A52547117",
            "0xDAc43E419a6eAB0250D2800B9Ad531605d4254Fd",
            "0x16304dAE95525d603E2C15aB385C5463A6b2113B",
            "0x5a62Bc0f7c2Ad6c56456dAabfdDD3c4Bb34df965",
            "0x6f9424E7AF8299dEDbd0bE7A6DF0BD5e45DDae9c",
            "0xF10FE5393f0A3C4a803551b4ee198fD40D2b50b7",
            "0xCDb3B3F161c6c683104ea4E1F8B48C08e266a613",
            "0xEDda85010477141136cC2D8fc691DC074EfBE080",
            "0xC69038082ca7f0ee38572E25B8BC11820E252b6D",
            "0xb96757cA21E9cE46Aa5D98D5223bAAe5c8476a34",
            "0xC26dCb3301cdB8385aa5b1C0B42496c50fb608f8",
            "0x9ff852966176440938503e62aeDc29AB7d4e6191",
            "0x81fF3A04B9bD7602357992792Ef44204376BDf7f",
            "bnb1uq7tjhdxddmajmu80w6kwutkpfa873l332gvmt",
            "0x6f2E21B6E20F3Ce7A1a8Ec132FD69CB6Fc603c3C",
            "0x15c1021FC75619e629Fb8FE76Ea2C23d1dbEB130",
            "0x28faf1599A9c3a9b8463DfeB23d06B6495aE91bC",
            "0x627bAEDCF0C32825D2B50c05F120b9A8E816504d",
            "0x7EB9d67f9DaeA510399A1eE978b36E66626058d3",
            "0xE5484C082938603dFdEB2ECdc28158d7D99241cB",
            "0x8A8A0197364ad87eBED73f609D6792db9a18C796",
            "0x5d4D290dADDA464a247f1efa91E67D2830f699e9",
            "0x9aE2FEd0225EC01B5DD15a448b7c33dB4b94869D",
            "0x33CBF3464813A5301dfb184cE7A2502ad3b9E86D",
            "0x2F0910CBE30d176Ffe73c462442520eB4C9523D8",
            "0x3ca12124291fC6E2B9C2ac684154ABEaEAfB90CA",
            "0x60299070384645339181578946cF1aFaf74179dc",
            "0xe7414b5811e579B91e510cad61ceD017d1A9C913 ",
            "0xc31Bf9A4969a3AD0F2B9823317B329125bD3e923",
            "0x0EAcbBCC7A4D6cc262DCB6a6F78cA349F26ac2E5",
            "0x3F421f9d5A4fcfA743D17ED1240bA8eC436b71Ab",
            "0x507aB768AF4931C923790E219cB9d85781F23506",
            "0x59072920C81E979414A8A11c3ff371ccEb3994c4",
            "0x3D7FAB5EcBa07D933567cb9DE777c7DBac872867",
            "0x20f9ddFA193D0fe2f73d8b7D749B1355eF019887",
            "0xd30391E21741C54c32987bCfcA3D880E6D261Cb0",
            "0x505846a0a89dd26fA5cD0677FD5406039c218620",
            "0x9bfA30d420C340e810BA8438a93969d421bdFf56",
            "0x9869CB0634da5E282E1A6098b3F2EE3f881271e3",
            "0x906E81ca9bCC1c0940aEe1c47eDA1fD3FE62597d",
            "0x411742Cd88b52Ae86Cb65d330f07B480a40BdB99",
            "0x58a8013B9348CA35D326cFdCCEAc074293E1B7F0",
            "0x69F329EE79C98A94765e4105aDFd5a87458d919C",
            "0x458bF1c9407E8816F290C8FBFE800240F46c6361",
            "0x76FE8E056230344B65104ca3c96FF062bFAf9cf7",
            "0x865973fc3b40Aff4B16FF54BeB5aAefE33dcCf8d",
            "xardin.argent.xyz",
            "0x1AC49508F7C1ce2A796517269deFEFC535050Fd8",
            "0x2F1373cd12926996A0440D09AdF5453174bB4441",
            "0xb516f04B733806042F3633BBa46f808f2a85671a",
            "0xA7092b4b09ADA332177A20f509089707910fC4b4",
            "0xdc744Aa4d1964E700E9f1A60e37eC18F70851029",
            "0x866C521883Bc8cb7c59769E2A06ef38cC685915E",
            "0xF867a0AE2ba8cEafDAC18B57a2C6B0E4a7D91bEc",
            "0x31e0E2f2a3C6E8203B4F61C2CF59d3723dDE9557",
            "0x59F026F6E98736252061c2b3CB8a9b30A779D233",
            "0xA2dCB52F5cF34a84A2eBFb7D937f7051ae4C697B",
            "0xa1891d7107D7e1F1DfDD0AABfeA9abBFB504041B",
            "0x287e2c76Aab4720786076c3DEedD7Dd386092050",
            "0x5d4F25b080230976187e9897A4cBb4c284D7C390",
            "0x931fB9C9bfB7B723Ccb54CeEeA5F1C670C899B63",
            "0xA12D3c264D56CE0e31a8c1389934F9fb4f99544e",
            "0xdD88cf758B43cb809EfAeF493B2872cB49938342",
            "0x312553F0C0C6218899d58e528892e789c8E96d03",
            "0xF78D643a7b971CE10e909B46d20976dB072014b7",
            "0x6de5031aF6a0aE5681DA36C2E9DD94B27aEa15e5",
            "0xa1fbe4eef82862fa73da7b3d8ef4f9e660dc8bc1",
            "0xb910119F8B1838A95F9fbcF575E51e1E72469517",
            "0x886B94C0CC4acd69E074B71E656A5f415682985a",
            "0xf7476Db5B717aC661C027e684456115ab1e728C3",
            "0x38586444200e0DC6938c8d258fb15FD14EB619b8",
            "0x4A11a811e05FdDa19A17E34ce1C9C8efD2018cc4",
            "0x95f1872c2c63f54072BD42F68BeEe71E0D6f67d3",
            "0x0e8471BfC52C57d614c297386908F3A72e59aE51",
            "0x8c2721600158b3bEB1bC6575EFf57F50dDDF00C6",
            "0x4BeE0d0d6C437a9Ac4a24088824a8660bb18431C",
            "0x5fb4a0983daD1A0fae31ED67F1aaffeA3F3E8eC2",
            "0x833652029fBB7bCbd51E0f5921DF143305DbB856"
        ]
    }
]